<?xml version="1.0" encoding="UTF-8"?>
<!DOCTYPE svg PUBLIC "-//W3C//DTD SVG 1.1//EN" "http://www.w3.org/Graphics/SVG/1.1/DTD/svg11.dtd">
<!-- Creator: CorelDRAW X8 -->
<svg xmlns="http://www.w3.org/2000/svg" xml:space="preserve" width="1.28174in" height="1.26336in" version="1.1" style="shape-rendering:geometricPrecision; text-rendering:geometricPrecision; image-rendering:optimizeQuality; fill-rule:evenodd; clip-rule:evenodd"
viewBox="0 0 1282 1263"
 xmlns:xlink="http://www.w3.org/1999/xlink">
 <defs>
  <style type="text/css">
   <![CDATA[
    .fil10 {fill:#212123}
    .fil2 {fill:#2B4B4C}
    .fil12 {fill:#45342C}
    .fil4 {fill:#60432E}
    .fil15 {fill:#715345}
    .fil5 {fill:#71A44C}
    .fil3 {fill:#87C65D}
    .fil6 {fill:#98CC6E}
    .fil11 {fill:#C38351}
    .fil14 {fill:#C44A6A}
    .fil19 {fill:#C75471}
    .fil8 {fill:#DCB89A}
    .fil9 {fill:#DDA478}
    .fil13 {fill:#DDE0DF}
    .fil16 {fill:#E8E7E5}
    .fil7 {fill:#EB6A88}
    .fil0 {fill:#F8E6E5}
    .fil18 {fill:#F9B39B}
    .fil1 {fill:#FCCAA1}
    .fil17 {fill:#FEFEFE}
   ]]>
  </style>
 </defs>
 <g id="Layer_x0020_1">
  <metadata id="CorelCorpID_0Corel-Layer"/>
  <g id="_806728016">
   <path class="fil0" d="M111 955c-8,-2 -15,-10 -15,-19 0,-1 0,-3 0,-4 6,7 10,15 15,21l0 2z"/>
   <path class="fil0" d="M113 1107c-10,0 -18,-8 -18,-19 0,-10 8,-18 18,-18 11,0 19,8 19,18 0,11 -8,19 -19,19z"/>
   <path class="fil1" d="M974 811c0,19 6,35 21,47 -49,33 -101,13 -108,-8 26,-1 32,-20 35,-36 12,-13 52,-3 52,-3z"/>
   <path class="fil1" d="M872 594c-15,27 -53,48 -40,111 -33,61 36,116 120,113 67,-1 96,-56 88,-83 -8,-28 -134,-172 -168,-140l0 -1 0 0z"/>
   <path class="fil1" d="M891 854c-58,-21 -83,-58 -99,-135 3,-16 7,-32 4,-32 -3,0 -16,12 -16,12 -1,-4 -4,-7 -7,-10 -3,-5 -9,-9 -11,-11 -4,-4 -16,4 -10,14 0,0 -14,-3 -9,13 -8,-2 -12,4 -7,14 -10,9 4,21 16,26 11,57 14,126 112,174 27,-11 26,-64 26,-64l1 -1z"/>
   <path class="fil2" d="M879 846c-9,-12 -42,-33 -45,-33 -26,13 -39,46 -38,69 30,28 62,33 62,33l21 -68 0 -1z"/>
   <path class="fil1" d="M996 916c56,27 78,65 89,143 -4,16 -9,32 -7,32 3,0 16,-11 16,-11 2,4 4,8 5,11 4,5 8,11 11,13 3,4 17,-2 11,-13 0,0 14,4 9,-12 8,3 12,-4 7,-12 11,-8 -3,-21 -15,-28 -5,-58 -3,-126 -97,-181 -28,8 -32,61 -32,61l3 -3z"/>
   <path class="fil2" d="M1007 924c9,12 39,36 42,37 28,-10 44,-42 44,-65 -28,-30 -60,-37 -60,-37l-26 65z"/>
   <path class="fil3" d="M1037 845c21,13 31,209 -2,230 -34,21 -170,20 -185,-5 -16,-27 -21,-200 8,-227 15,-13 121,-36 179,3l0 -1 0 0z"/>
   <path class="fil4" d="M872 591c-69,-21 -80,106 -35,105 24,69 73,106 109,110 71,8 100,-12 123,-52 83,-148 -90,-262 -197,-163z"/>
   <path class="fil1" d="M841 717c-5,-33 31,-1 23,40l-23 -40z"/>
   <path class="fil4" d="M872 594c0,-31 23,-57 27,-55 4,3 -22,58 -22,58 36,-24 56,-11 56,-11l-61 9 0 -1z"/>
   <path class="fil5" d="M850 990c0,-47 6,-131 22,-141 15,-12 90,-26 153,2 7,8 27,108 19,145 -3,2 -5,0 -5,0 1,-40 -11,-133 -19,-138 -5,-4 -80,-31 -146,0 -8,6 -17,135 -17,135l-7 0 0 -3 0 0z"/>
   <path class="fil6" d="M1020 951c-19,-11 -123,-11 -141,0 -10,5 -5,51 -3,80 1,26 41,28 68,28l0 0c2,0 10,0 11,0l0 0c27,0 66,-2 69,-28 3,-29 7,-74 -4,-80l0 0z"/>
   <path class="fil5" d="M873 977c0,3 0,5 0,8 26,1 132,5 154,0 0,-3 0,-5 0,-8 -28,4 -141,1 -154,0z"/>
   <path class="fil6" d="M836 982c8,4 29,7 29,7 0,34 0,65 0,65 0,0 -19,7 -23,0 -4,-7 -8,-41 -6,-70l0 -2 0 0z"/>
   <path class="fil6" d="M1057 981c-5,7 -26,7 -26,7 0,34 0,65 0,65 0,0 18,6 22,0 4,-7 5,-43 4,-72l0 0z"/>
   <path class="fil7" d="M552 500c15,5 39,24 53,51 15,27 68,144 62,222 -6,58 -62,0 -68,-25 -20,-68 -24,-211 -47,-250l0 2 0 0 0 0z"/>
   <path class="fil4" d="M330 294c9,17 26,31 35,33 -6,-14 -12,-31 -12,-31l-23 0 0 -2z"/>
   <path class="fil1" d="M393 337c5,54 17,135 -37,167 20,78 150,95 150,95 0,0 26,-91 14,-110 -43,-9 -41,-53 -43,-114 -11,-22 -84,-40 -84,-40l0 2 0 0z"/>
   <path class="fil8" d="M486 463l0 0c-5,-14 -8,-32 -8,-52l0 0c1,21 3,38 8,52zm-89 -42l0 0c1,-17 0,-34 -1,-51l0 0c1,17 2,34 1,51z"/>
   <path class="fil9" d="M486 463c-20,-3 -58,-16 -89,-41 1,-18 0,-35 -1,-52 26,24 59,37 82,41 1,21 3,38 8,52l0 0z"/>
   <path class="fil1" d="M569 156c15,53 -6,67 -2,96 18,71 12,114 -68,160 -12,6 -131,-22 -147,-120 -16,-102 16,-183 78,-195 61,-12 113,-3 139,61l0 -2 0 0z"/>
   <path class="fil1" d="M348 251c-17,-27 -52,-7 -40,21 12,29 40,33 55,18 -3,-21 -14,-39 -14,-39l-1 0z"/>
   <path class="fil10" d="M454 272c-1,0 -4,-3 -8,-7 -3,-3 -5,-4 -8,-5 -2,-2 -6,-3 -10,-3 -4,0 -8,1 -12,3 -4,1 -8,1 -12,0 -4,-2 -7,-4 -7,-5 -1,-2 -1,-3 0,-3 0,0 1,0 3,1 1,2 4,2 5,2 3,0 5,-2 9,-2 4,-1 8,-2 15,-2 5,0 11,1 15,4 3,2 6,5 7,9 4,5 4,9 4,10l-1 -2 0 0z"/>
   <path class="fil11" d="M487 315c0,-1 4,-2 11,-6 2,-1 6,-5 5,-8 -1,-1 -3,-3 -4,-5l-1 -2 -2 -1c0,0 -1,-1 -1,-3 0,-1 -1,-1 -1,-2 -3,-7 -3,-14 -1,-19 0,-5 1,-11 2,-13 3,-8 4,-12 5,-12 2,0 0,5 0,13 0,4 -1,8 -1,13 0,6 0,11 1,15 0,0 0,1 2,1l1 2 1 1 2 1c2,2 4,4 6,8 0,2 2,4 0,6 0,1 -1,2 -2,4 -3,1 -4,2 -7,3 -8,3 -12,4 -13,3l-3 1z"/>
   <path class="fil10" d="M518 272c-2,0 0,-4 2,-10 2,-2 4,-5 7,-8 3,-2 7,-5 12,-6 3,0 5,0 8,0 3,0 5,1 6,3 4,2 7,5 8,5l2 0c0,0 1,0 1,-1 1,-2 3,-2 3,-2 0,0 1,2 0,3l0 1 -2 1c-1,0 -1,2 -2,2 -2,0 -3,0 -3,0 -4,-2 -7,-3 -9,-4 -3,-1 -5,-3 -9,-1 -3,0 -7,2 -10,5 -2,2 -5,4 -6,6 -4,4 -7,7 -8,6l0 0z"/>
   <path class="fil4" d="M447 191c0,1 -4,-1 -8,-1 -5,-2 -11,0 -19,2 -8,3 -14,7 -18,10 -4,2 -6,5 -8,5 -1,0 0,-4 4,-8 4,-4 11,-9 19,-12 8,-4 17,-4 22,-1 2,0 3,1 4,1 2,0 2,1 3,1 1,2 1,3 1,3z"/>
   <path class="fil11" d="M449 331c0,0 1,0 4,2 1,1 4,4 8,6 1,0 1,2 2,3 2,0 3,1 3,3 1,1 3,1 3,2 1,0 2,2 4,2 5,2 10,5 17,5 7,1 12,0 17,-1 5,-2 9,-6 12,-8 5,-6 8,-11 9,-11 0,0 0,7 -6,13 -3,4 -7,8 -14,11 -5,3 -13,4 -19,3 -7,-2 -14,-4 -19,-7 -1,-1 -3,-1 -4,-3 -1,-1 -3,-1 -3,-2 -1,-2 -2,-2 -2,-3 -2,-1 -2,-1 -3,-3 -3,-2 -5,-5 -7,-8 -1,-2 -2,-2 -1,-4l-1 0 0 0 0 0z"/>
   <path class="fil4" d="M316 241c-16,-29 -10,-78 -6,-86 -96,-11 -61,-98 -16,-135 45,-37 136,-20 99,37 66,-25 187,32 174,94 -16,-22 -21,-24 -21,-24 -2,3 -34,4 -49,-4 -18,6 -59,25 -88,25 -9,20 -42,36 -42,36 1,33 -8,37 -8,37 8,37 2,56 -2,52 -4,-4 -10,-25 -10,-25 -10,-7 -16,-15 -32,-9l1 2 0 0z"/>
   <path class="fil12" d="M418 148c0,2 -5,3 -14,2 -10,-2 -21,-4 -33,-12 -12,-7 -22,-16 -27,-23 -1,-1 -3,-4 -3,-5 -1,-1 -1,-3 -1,-4 -1,-3 -1,-4 0,-4 0,0 1,1 3,3 1,1 1,2 2,4 2,1 3,2 4,4 6,6 15,14 27,20 10,6 22,10 30,11 8,2 14,2 14,3l-2 1z"/>
   <path class="fil12" d="M500 125c0,1 -8,0 -19,-4 -12,-4 -28,-10 -45,-18 -18,-6 -34,-14 -44,-18 -3,-1 -6,-3 -8,-3 -3,-1 -4,-1 -5,-2 -3,-2 -6,-2 -6,-3 0,0 2,0 6,0 1,0 4,0 6,1 3,0 5,2 8,3 12,4 28,9 45,17 17,7 33,13 44,19 11,5 18,8 18,8z"/>
   <path class="fil12" d="M547 129c-1,0 -5,-7 -16,-16 -11,-10 -27,-18 -46,-25 -20,-8 -39,-12 -52,-16 -13,-3 -21,-4 -21,-6 0,-1 9,-1 22,2 13,2 33,6 53,14 20,8 37,17 48,28 5,5 9,9 11,13 1,4 2,6 2,6l-1 0 0 0z"/>
   <path class="fil12" d="M368 186c0,1 -5,0 -12,-6 -7,-5 -13,-13 -19,-24 -5,-10 -9,-21 -10,-29 -1,-8 0,-13 0,-13 1,0 1,4 4,12 3,7 6,17 12,26 5,11 10,19 16,24 5,6 8,8 8,10l1 0 0 0 0 0z"/>
   <path class="fil12" d="M359 224c0,0 -2,0 -4,-1 -3,-2 -6,-4 -8,-8 -6,-7 -11,-19 -15,-32 -4,-13 -6,-25 -8,-33 -1,-9 -1,-15 0,-15 2,0 3,6 5,13 3,8 6,20 10,32 4,12 8,24 13,31 3,4 4,6 5,8 2,1 3,2 3,2l-1 3 0 0z"/>
   <path class="fil12" d="M330 118c0,0 0,1 -3,3 -1,1 -4,2 -8,4 -7,2 -19,5 -29,2 -12,-2 -21,-9 -25,-16 -4,-6 -4,-12 -3,-12 1,0 3,4 7,10 0,1 1,1 1,1 1,0 1,1 2,1 2,2 3,3 6,4 4,3 8,4 13,6 11,2 20,1 27,0 4,-2 6,-2 8,-3 1,0 2,-1 4,0l0 0z"/>
   <path class="fil12" d="M361 86c0,0 0,-1 2,-2 1,-2 2,-4 4,-7 2,-5 6,-13 8,-23 1,-9 -3,-17 -7,-21 -4,-4 -8,-4 -8,-5 0,0 1,-1 3,-1 1,0 2,0 4,0 1,0 1,0 2,1 2,0 2,1 3,1 3,2 7,6 8,9 3,4 3,10 3,15 -2,11 -7,20 -11,25 -1,3 -4,4 -5,6 -2,1 -3,1 -3,1l-3 1 0 0z"/>
   <path class="fil12" d="M377 73c-1,-1 6,-9 9,-20 2,-5 3,-11 3,-15 0,-1 0,-3 0,-5 0,-1 0,-1 0,-2 0,0 1,0 1,1 2,1 2,3 3,5 1,4 1,11 -1,17 -1,3 -3,7 -4,8 -1,3 -4,4 -5,6 -3,2 -6,4 -7,4l1 1 0 0z"/>
   <path class="fil13" d="M469 510c0,0 14,-4 47,-21 32,17 47,121 -1,185 -16,-48 -139,-123 -160,-169 0,0 8,-3 22,-21 0,0 64,32 93,26l-1 0z"/>
   <path class="fil2" d="M565 743c-2,35 88,181 6,465 -41,45 -218,30 -240,-4 -19,-162 -48,-253 49,-448 62,9 162,1 187,-13l-2 0 0 0 0 0z"/>
   <path class="fil7" d="M368 494c-21,14 -50,20 -61,32 -11,12 -76,158 -78,252 78,27 212,53 222,60 11,7 48,33 61,-4 19,21 27,17 27,17 20,-17 37,-38 37,-38 -8,-31 -13,-86 -9,-100 5,-13 25,-50 26,-71 2,-23 -5,-43 -14,-69 -7,-19 -19,-67 -23,-69 -4,-3 -41,-18 -41,-18 15,45 37,104 1,178 -9,-62 -123,-90 -149,-168l1 -2 0 0z"/>
   <path class="fil14" d="M526 811c0,0 -2,-2 -2,-6 -1,-4 -1,-11 -2,-20 -2,-16 -2,-39 -3,-64 0,-12 0,-24 0,-34 0,-5 0,-11 -1,-15 -2,-4 -3,-9 -4,-13 -6,-16 -10,-24 -10,-25 0,0 2,1 4,6 3,4 6,11 8,18 2,4 3,8 4,13 2,5 2,11 2,16 0,10 0,22 0,34 0,25 0,48 1,64 0,16 1,26 1,26l2 0 0 0z"/>
   <path class="fil15" d="M291 857c0,1 1,2 3,2l171 0c1,0 2,-1 2,-2l0 -236c0,-2 -1,-3 -2,-3l-171 0c-2,0 -3,1 -3,3l0 236z"/>
   <path class="fil1" d="M401 772c13,-3 19,-3 20,-12 3,-8 0,-27 4,-31 4,-4 29,-16 41,-26 8,-7 7,12 3,18 5,0 17,-9 21,-6 4,2 6,45 1,61 -16,17 -67,34 -87,35 -14,0 -4,-39 -4,-39l1 0 0 0 0 0z"/>
   <path class="fil7" d="M231 754c-1,19 -2,44 3,52 7,8 97,32 179,4 -3,-5 -4,-41 -4,-41 -41,1 -172,-33 -179,-16l1 1z"/>
   <polygon class="fil16" points="420,705 330,705 330,656 420,656 "/>
   <path class="fil7" d="M609 745c-38,17 -70,73 -130,82 2,27 -8,48 -8,48 60,3 181,-29 194,-89 -2,-29 -31,-53 -55,-41l-1 0 0 0 0 0z"/>
   <path class="fil1" d="M485 827c1,-10 -3,-17 -36,-4 -33,14 -32,19 -33,23 -2,4 -4,36 0,38 2,3 54,6 59,-10 6,-16 10,-47 10,-47z"/>
   <path class="fil14" d="M515 690c0,3 -3,6 -5,6 -3,0 -6,-3 -6,-6 0,-4 3,-7 6,-7 2,0 5,3 5,7z"/>
   <path class="fil14" d="M515 745c0,4 -3,7 -5,7 -3,0 -6,-3 -6,-7 0,-4 3,-6 6,-6 2,0 5,2 5,6z"/>
   <path class="fil14" d="M514 801c0,4 -3,6 -6,6 -2,0 -5,-2 -5,-6 0,-4 3,-7 5,-7 3,0 6,3 6,7z"/>
   <path class="fil14" d="M573 701c0,0 3,-6 8,-18 3,-5 6,-12 7,-20 0,-1 1,-4 1,-5 0,-3 2,-4 2,-7 0,-3 1,-4 1,-7 0,-2 1,-4 1,-6 0,-4 0,-9 0,-13 0,-4 -1,-8 -2,-12 -3,-8 -4,-15 -7,-22 -1,-5 -3,-10 -3,-14 0,-4 0,-5 0,-5 2,0 2,8 6,18 2,5 5,12 6,20 2,4 3,8 3,13 0,4 1,10 0,15 0,3 0,5 -1,6 0,3 -2,4 -2,7 0,3 -1,4 -1,7 0,2 -1,4 -1,6 -3,8 -6,15 -8,20 -6,11 -10,17 -11,17l1 0 0 0 0 0z"/>
   <path class="fil14" d="M644 745c0,0 -3,0 -7,-1 -4,0 -9,-1 -16,0 -7,0 -12,3 -16,4 -4,1 -6,2 -6,1 0,0 1,-3 5,-5 4,-3 9,-4 17,-5 7,-2 13,0 17,1 4,1 7,3 7,4l-1 1z"/>
   <path class="fil14" d="M365 599c-1,0 -1,-5 -2,-13 -2,-8 -6,-17 -11,-29 -5,-12 -12,-22 -16,-28 -5,-7 -8,-11 -8,-12 0,0 4,3 9,9 6,7 12,16 18,28 5,12 9,24 9,32 1,8 0,12 0,12l1 1 0 0z"/>
   <path class="fil14" d="M258 773c0,0 0,-3 3,-5 2,-3 5,-7 10,-10 5,-2 9,-4 13,-4 4,0 6,0 6,0 0,2 -8,3 -16,7 -4,3 -8,5 -9,7 -3,2 -4,4 -4,2l-3 3 0 0z"/>
   <path class="fil17" d="M388 467c-4,0 -13,17 -13,17 15,34 58,70 84,71 15,-16 15,-38 15,-38 24,24 36,29 40,29 5,-5 14,-32 4,-61 -8,-5 -25,-12 -25,-12 -6,20 -15,32 -23,35 -8,1 -66,-22 -84,-41l2 0 0 0 0 0z"/>
   <path class="fil14" d="M571 774c0,0 0,2 -3,4 -1,2 -1,3 -3,4 -1,2 -2,3 -4,6 -6,6 -15,15 -29,22 -12,8 -25,12 -33,15 -9,2 -14,4 -14,2 0,-1 22,-6 46,-21 12,-6 22,-14 29,-21 1,-1 3,-3 4,-4 1,-1 3,-3 4,-3 1,-1 3,-2 3,-2l0 -2 0 0z"/>
   <path class="fil11" d="M458 841c0,1 -9,5 -21,9 -7,1 -12,3 -16,3 -4,0 -7,0 -7,0 0,-2 2,-3 6,-4 4,-2 9,-4 16,-6 11,-2 22,-4 23,-2l-1 0z"/>
   <path class="fil11" d="M454 858c0,1 -9,5 -20,6 -12,2 -21,3 -21,0 0,-1 9,-5 20,-6 12,-1 21,-3 21,0z"/>
   <path class="fil11" d="M450 875c0,1 -8,3 -18,3 -11,0 -19,-2 -19,-3 0,-1 8,-3 19,-3 10,0 18,2 18,3z"/>
   <path class="fil18" d="M416 346c-18,0 -32,-15 -32,-32 0,-17 14,-32 32,-32 17,0 31,15 31,32 0,17 -14,32 -31,32z"/>
   <path class="fil18" d="M560 347c-17,0 -32,-14 -32,-32 0,-17 15,-31 32,-31 5,0 9,1 13,2 3,23 2,43 -5,60 -3,0 -5,1 -8,1l0 0z"/>
   <path class="fil7" d="M155 939c0,-19 -89,-27 -142,-24 4,37 46,90 46,90 -42,22 -59,74 -59,74 54,29 121,37 121,37 0,0 36,-126 32,-177l2 0 0 0z"/>
   <path class="fil19" d="M78 1018c0,-32 77,-24 77,-79 0,55 0,149 0,149 0,0 -77,-23 -77,-70z"/>
   <path class="fil7" d="M1127 939c0,-19 89,-27 142,-24 -4,37 -46,90 -46,90 42,22 59,74 59,74 -54,29 -122,37 -122,37 0,0 -35,-126 -31,-177l-2 0 0 0z"/>
   <path class="fil19" d="M1204 1018c0,-32 -77,-24 -77,-79 0,55 0,149 0,149 0,0 77,-23 77,-70z"/>
   <path class="fil7" d="M1204 1209c-372,72 -754,72 -1126,0 0,-64 0,-129 0,-192 372,71 754,71 1126,0 0,63 0,128 0,192z"/>
  </g>
 </g>
</svg>
