<?xml version="1.0" encoding="utf-8"?>
<!-- Generator: Adobe Illustrator 16.0.0, SVG Export Plug-In . SVG Version: 6.00 Build 0)  -->
<!DOCTYPE svg PUBLIC "-//W3C//DTD SVG 1.1//EN" "http://www.w3.org/Graphics/SVG/1.1/DTD/svg11.dtd">
<svg version="1.1" xmlns="http://www.w3.org/2000/svg" xmlns:xlink="http://www.w3.org/1999/xlink" x="0px" y="0px" width="500px"
	 height="500px" viewBox="0 0 500 500" enable-background="new 0 0 500 500" xml:space="preserve">
<g id="BACKGROUND">
	<g>
		<rect fill="#FFFFFF" width="500" height="500"/>
		<circle fill="#6EE1FF" cx="249.636" cy="249.7" r="143.095"/>
		<path fill="#827DDC" d="M423.285,262.972c-10.432-19.615-12.245-42.744-4.969-64.058c4.714-13.809,5.451-35.14,1.561-49.295
			c-12.5-45.476-70.314-72.571-126.06-52.327c-51.111,18.562-63.625,95.14-102.87,86.815
			c-92.304-19.58-125.55,46.213-120.681,99.772c3.146,34.596,32.16,77.386,94.139,72.893c18.248-1.323,36.169,3.163,51.611,12.094
			c26.374,15.253,68.292,18.828,111.838,6.858c65.501-18.005,109.871-64.358,99.103-103.532
			C426.071,268.967,424.838,265.891,423.285,262.972z"/>
	</g>
</g>
<g id="OBJECTS">
	<g>
		<g>
			<g>
				<path fill="#FA968C" d="M370.603,44.904c0.115-1.941,3.475-5.897,2.964-6.393c-0.369-0.355-1.677,0.867-2.383,1.582
					c-0.083,0.083-0.206,0.111-0.316,0.071c-0.109-0.04-0.188-0.141-0.196-0.257c-0.153-1.908-0.631-7.248-1.164-7.298
					c-0.54-0.05-0.81,3.327-0.884,4.461c-0.003,0.034-0.028,0.062-0.064,0.067c-0.033,0.005-0.066-0.016-0.077-0.048
					c-0.416-1.201-1.815-5.074-2.416-4.576c-0.571,0.474,0.314,4.183,0.682,5.61c0.01,0.036-0.01,0.071-0.043,0.085
					c-0.034,0.013-0.072,0-0.09-0.032c-0.723-1.278-2.63-4.52-3.145-4.106c-0.523,0.422,0.953,3.936,1.499,5.182
					c0.016,0.033,0.003,0.071-0.026,0.09c-0.03,0.02-0.069,0.013-0.094-0.013c-0.824-0.932-2.986-3.309-2.975-2.61
					c0.014,0.863,3.812,8.042,5.055,9.244C368.173,47.166,370.603,44.904,370.603,44.904z"/>
				<path fill="#FA968C" d="M404.69,68.935c-2.574,5.702-6.277,12.179-10.755,16.624c-8.713,8.624-19.896,6.371-23.799-13.796
					c-0.679-3.039-1.153-6.065-1.552-9.085c-0.812-6.032-1.124-12.048-1.402-18.045c-0.042-0.907,0.659-1.678,1.567-1.72
					c0.822-0.038,1.531,0.534,1.688,1.316l0.007,0.033c1.182,5.821,2.368,11.632,3.891,17.284c0.783,2.815,1.594,5.608,2.539,8.301
					c0.819,2.549,4.113,10.47,6.674,11.245c0.086-0.015,0.168,0.096,0.217,0.048c0.048-0.043,0.072-0.047,0.101-0.022
					c0.048-0.063,0.081-0.091,0.122-0.083c0.141-0.113,0.307-0.133,0.609-0.38c0.559-0.365,1.322-1.087,2.048-1.989
					c1.486-1.762,2.869-4.089,4.087-6.505c2.113-4.099,3.338-7.046,3.338-7.046c2.6-7.13,13.386-3.715,10.781,3.423
					C404.805,68.669,404.746,68.81,404.69,68.935z"/>
				<path fill="#A5A0AA" d="M387.404,76.608c0.01-0.015,0.021-0.028,0.03-0.042c1.315-1.925,2.536-3.937,3.66-6
					c1.114-2.013,2.251-4.25,3.047-6.153l0.04-0.095c0.063-0.152,0.134-0.303,0.213-0.452c1.478-2.809,4.954-3.888,7.764-2.409
					c2.809,1.479,3.887,4.955,2.409,7.764c-1.388,2.635-2.73,4.79-4.265,7.058c-1.037,1.496-2.141,2.948-3.279,4.378
					C396.177,79.754,389.43,77.334,387.404,76.608z"/>
				<path fill="#FAB9AF" d="M393.034,116.529c5.001,5.738,33.868,8.134,33.868,8.134c2.13-2.473-0.985-13.711-1.735-25.119
					c-0.812-12.335-1.28-25.949-1.494-33.304c-0.088-3.036-2.572-5.444-5.61-5.444h-18.318c-2.823,0-5.174,2.155-5.407,4.969
					c-0.479,5.824-1.316,15.948-2.141,25.872C391.359,101.705,388.712,111.569,393.034,116.529z"/>
				<path fill="#FA968C" d="M409.687,212.424l-0.041,11.353l0.986,5.53c0.17,0.957-0.538,1.844-1.511,1.873
					c-4.647,0.143-16.548,0.457-16.867-0.059c-1.497-2.421,5.268-3.353,10.217-5.268c4.948-1.916,1.533-20.705,1.533-20.705
					L409.687,212.424z"/>
				<path fill="#F57A2F" d="M402.471,225.853c0.025-0.011,0.049-0.028,0.074-0.039c1.18,0.439,2.506,0.698,4.002,0.698
					c1.283,0,2.445-0.185,3.495-0.514l0.59,3.308c0.17,0.957-0.538,1.844-1.511,1.873c-4.647,0.143-16.548,0.457-16.867-0.059
					C390.757,228.7,397.521,227.768,402.471,225.853z"/>
				<path fill="#0091C8" d="M393.042,120.667c-0.179,7.892,2.926,57.957,9.056,58.096c6.131,0.139,12.966-49.7,13.146-57.592
					c0.179-7.891-4.646-14.4-10.776-14.54C398.337,106.492,393.221,112.776,393.042,120.667z"/>
				<path fill="#FF965A" d="M410.565,168.362c0.607,4.343,0.706,32.174-0.271,46.313h-5.58c-2.997-13.714-6.201-40.294-6.796-44.542
					c-0.007-0.054-0.011-0.107-0.018-0.162c-3.335-14.755-4.99-43.486-4.858-49.305c0.179-7.891,5.295-14.175,11.425-14.036
					c6.131,0.14,10.955,6.649,10.776,14.54C415.13,126.125,410.276,166.305,410.565,168.362z"/>
				<path fill="#F07D4B" d="M409.65,190.438c0.135-3.017-0.204-5.959-0.943-8.775c-2.188-8.352-2.251-17.057-1.369-25.645
					c0.073-0.72,0.127-1.445,0.16-2.175c0.503-11.243-5.536-21.46-14.349-27.903c-0.095-2.372-0.132-4.208-0.107-5.272
					c0.179-7.891,5.295-14.175,11.425-14.036c6.131,0.14,10.955,6.649,10.776,14.54c-0.113,4.954-4.967,45.134-4.678,47.192
					c0.607,4.343,0.706,32.174-0.271,46.313h-5.58c-0.352-1.609-0.706-3.409-1.06-5.315
					C407.192,203.864,409.341,197.352,409.65,190.438z"/>
				<path fill="#FA968C" d="M423.082,212.424l-0.043,11.353l0.986,5.53c0.171,0.957-0.537,1.844-1.51,1.873
					c-4.647,0.143-16.549,0.457-16.868-0.059c-1.495-2.421,5.268-3.353,10.217-5.268c4.948-1.916,1.533-20.705,1.533-20.705
					L423.082,212.424z"/>
				<path fill="#FF8C46" d="M415.864,225.853c0.026-0.011,0.05-0.028,0.075-0.039c1.179,0.439,2.507,0.698,4.003,0.698
					c1.281,0,2.444-0.185,3.493-0.514l0.59,3.308c0.171,0.957-0.537,1.844-1.51,1.873c-4.647,0.143-16.549,0.457-16.868-0.059
					C404.152,228.7,410.915,227.768,415.864,225.853z"/>
				<path fill="#0091C8" d="M406.438,120.667c-0.181,7.892,2.924,57.957,9.055,58.096c6.13,0.139,11.641-49.885,11.819-57.775
					c0.179-7.891-3.32-14.217-9.45-14.356C411.73,106.492,406.616,112.776,406.438,120.667z"/>
				<path fill="#FFBE82" d="M423.959,168.362c0.609,4.343,0.708,32.174-0.27,46.313h-5.581c-2.997-13.714-6.2-40.294-6.796-44.542
					c-0.008-0.054-0.011-0.107-0.018-0.162c-3.335-14.755-6.317-43.67-6.184-49.489c0.179-7.891,6.619-13.991,12.75-13.853
					c6.13,0.14,9.629,6.465,9.45,14.356C427.199,125.941,423.672,166.305,423.959,168.362z"/>
				<path fill="#828291" d="M399.57,60.796h2.976c1.038,2.399,3.229,4.253,6.632,4.253c3.408,0,5.602-1.854,6.635-4.253h2.717
					c2.777,0,5.05,2.196,5.13,4.972c0.208,7.234,0.679,21.173,1.508,33.776c0.75,11.407,3.865,22.008,1.735,25.119
					c0,0-28.867-2.396-33.868-8.134c-4.322-4.959-1.675-14.824-0.838-24.893c0.832-10.021,1.677-20.245,2.156-26.041
					C394.576,62.879,396.845,60.796,399.57,60.796z"/>
				<path fill="#757582" d="M420.414,77.223c0.263-5.882-1.26-11.492-4.033-16.427h2.148c2.777,0,5.05,2.196,5.13,4.972
					c0.208,7.234,0.679,21.173,1.508,33.776c0.75,11.407,3.865,22.008,1.735,25.119c0,0-28.867-2.396-33.868-8.134
					c-1.138-1.305-1.783-2.957-2.116-4.856C407.688,109.026,419.646,94.342,420.414,77.223z"/>
				<path fill="#41378C" d="M409.967,54.129l0.344,0.077c2.614,0.581,5.206-1.067,5.788-3.683l1.556-6.997l-5.078-1.129
					L409.967,54.129z"/>
				<g>
					<polygon fill="#FAB9AF" points="405.431,60.795 415.008,60.795 412.247,51.247 405.719,52.054 					"/>
				</g>
				<path fill="#FA968C" d="M405.719,52.054l6.528-0.808l1.287,4.45c-1.462,1.648-3.629,4.206-6.005,4.206
					c-0.755,0-1.44-0.213-2.058-0.605L405.719,52.054z"/>
				<path fill="#FAB9AF" d="M404.729,57.129L404.729,57.129c4.301,0.957,8.562-1.754,9.52-6.055l1.929-8.674l-13.356-2.97
					c0,0-1.505,6.771-1.549,11.558C401.24,54.58,402.538,56.643,404.729,57.129z"/>
				
					<rect x="413.483" y="45.593" transform="matrix(-0.9761 -0.2172 0.2172 -0.9761 809.6116 181.3187)" fill="#41378C" width="2.57" height="1.166"/>
				<path fill="#FAB9AF" d="M412.349,48.931c-0.377,1.693,0.129,3.245,1.127,3.467c1,0.222,2.596-1.751,2.972-3.443
					c0.377-1.692-0.609-2.463-1.608-2.686C413.841,46.047,412.725,47.238,412.349,48.931z"/>
				<path fill="#41378C" d="M401.102,42.792c-0.071-1.149,0.115-2.3,0.548-3.368l0,0c1.074-2.649,4.04-3.789,6.74-2.849
					c0.275,0.096,0.568,0.18,0.878,0.248l4.508,1.001c2.708,0.602,4.417,3.285,3.813,5.994l-0.233,1.051l-2.672,1.55l-1.089,1.897
					l-0.178-0.039c-0.859-0.191-1.414-1.017-1.28-1.875c0.223-1.416-0.48-2.8-1.881-3.111l-4-0.89
					c-2.435-0.542-3.991,0.484-4.397,2.306l-0.218,1.568L401.102,42.792z"/>
				<g>
					
						<line fill="none" stroke="#5046AF" stroke-width="2.0668" stroke-linecap="round" stroke-miterlimit="10" x1="413.877" y1="94.263" x2="479.78" y2="460.975"/>
					
						<line fill="none" stroke="#5046AF" stroke-width="2.0668" stroke-linecap="round" stroke-miterlimit="10" x1="424.982" y1="460.975" x2="359.078" y2="94.263"/>
					
						<line fill="none" stroke="#5046AF" stroke-width="2.0668" stroke-linecap="round" stroke-miterlimit="10" x1="363.445" y1="110.598" x2="417.006" y2="110.598"/>
					
						<line fill="none" stroke="#5046AF" stroke-width="2.0668" stroke-linecap="round" stroke-miterlimit="10" x1="367.005" y1="135.136" x2="421.314" y2="135.136"/>
					
						<line fill="none" stroke="#5046AF" stroke-width="2.0668" stroke-linecap="round" stroke-miterlimit="10" x1="371.955" y1="159.672" x2="425.78" y2="159.672"/>
					
						<line fill="none" stroke="#5046AF" stroke-width="2.0668" stroke-linecap="round" stroke-miterlimit="10" x1="376.742" y1="184.21" x2="430.246" y2="184.21"/>
					
						<line fill="none" stroke="#5046AF" stroke-width="2.0668" stroke-linecap="round" stroke-miterlimit="10" x1="379.644" y1="208.747" x2="433.767" y2="208.747"/>
					
						<line fill="none" stroke="#5046AF" stroke-width="2.0668" stroke-linecap="round" stroke-miterlimit="10" x1="383.396" y1="232.846" x2="438.271" y2="232.846"/>
					
						<line fill="none" stroke="#5046AF" stroke-width="2.0668" stroke-linecap="round" stroke-miterlimit="10" x1="388.899" y1="257.82" x2="442.934" y2="257.82"/>
					
						<line fill="none" stroke="#5046AF" stroke-width="2.0668" stroke-linecap="round" stroke-miterlimit="10" x1="393.31" y1="282.357" x2="447.491" y2="282.357"/>
					
						<line fill="none" stroke="#5046AF" stroke-width="2.0668" stroke-linecap="round" stroke-miterlimit="10" x1="397.668" y1="305.545" x2="451.851" y2="305.545"/>
					
						<line fill="none" stroke="#5046AF" stroke-width="2.0668" stroke-linecap="round" stroke-miterlimit="10" x1="401.375" y1="328.732" x2="455.556" y2="328.732"/>
					
						<line fill="none" stroke="#5046AF" stroke-width="2.0668" stroke-linecap="round" stroke-miterlimit="10" x1="405.632" y1="351.922" x2="459.813" y2="351.922"/>
					
						<line fill="none" stroke="#5046AF" stroke-width="2.0668" stroke-linecap="round" stroke-miterlimit="10" x1="409.766" y1="375.109" x2="463.947" y2="375.109"/>
					
						<line fill="none" stroke="#5046AF" stroke-width="2.0668" stroke-linecap="round" stroke-miterlimit="10" x1="413.799" y1="398.297" x2="467.98" y2="398.297"/>
					
						<line fill="none" stroke="#5046AF" stroke-width="2.0668" stroke-linecap="round" stroke-miterlimit="10" x1="418.485" y1="421.484" x2="472.666" y2="421.484"/>
				</g>
				<g>
					
						<line fill="none" stroke="#9F9FFF" stroke-width="2.0668" stroke-linecap="round" stroke-miterlimit="10" x1="359.078" y1="94.263" x2="292.615" y2="461.811"/>
					
						<line fill="none" stroke="#9F9FFF" stroke-width="2.0668" stroke-linecap="round" stroke-miterlimit="10" x1="347.413" y1="461.811" x2="413.877" y2="94.263"/>
					
						<line fill="none" stroke="#9F9FFF" stroke-width="2.0668" stroke-linecap="round" stroke-miterlimit="10" x1="409.51" y1="110.598" x2="356.105" y2="110.598"/>
					
						<line fill="none" stroke="#9F9FFF" stroke-width="2.0668" stroke-linecap="round" stroke-miterlimit="10" x1="405.95" y1="135.136" x2="351.641" y2="135.136"/>
					
						<line fill="none" stroke="#9F9FFF" stroke-width="2.0668" stroke-linecap="round" stroke-miterlimit="10" x1="401" y1="159.672" x2="347.175" y2="159.672"/>
					
						<line fill="none" stroke="#9F9FFF" stroke-width="2.0668" stroke-linecap="round" stroke-miterlimit="10" x1="396.213" y1="184.21" x2="342.709" y2="184.21"/>
					
						<line fill="none" stroke="#9F9FFF" stroke-width="2.0668" stroke-linecap="round" stroke-miterlimit="10" x1="392.367" y1="208.747" x2="338.244" y2="208.747"/>
					
						<line fill="none" stroke="#9F9FFF" stroke-width="2.0668" stroke-linecap="round" stroke-miterlimit="10" x1="388.733" y1="232.846" x2="333.858" y2="232.846"/>
					
						<line fill="none" stroke="#9F9FFF" stroke-width="2.0668" stroke-linecap="round" stroke-miterlimit="10" x1="383.349" y1="257.82" x2="329.313" y2="257.82"/>
					
						<line fill="none" stroke="#9F9FFF" stroke-width="2.0668" stroke-linecap="round" stroke-miterlimit="10" x1="379.646" y1="282.357" x2="325.464" y2="282.357"/>
					
						<line fill="none" stroke="#9F9FFF" stroke-width="2.0668" stroke-linecap="round" stroke-miterlimit="10" x1="375.476" y1="309.883" x2="321.294" y2="309.883"/>
					
						<line fill="none" stroke="#9F9FFF" stroke-width="2.0668" stroke-linecap="round" stroke-miterlimit="10" x1="369.172" y1="337.408" x2="314.99" y2="337.408"/>
					
						<line fill="none" stroke="#9F9FFF" stroke-width="2.0668" stroke-linecap="round" stroke-miterlimit="10" x1="364.468" y1="364.932" x2="310.285" y2="364.932"/>
					
						<line fill="none" stroke="#9F9FFF" stroke-width="2.0668" stroke-linecap="round" stroke-miterlimit="10" x1="360.031" y1="392.455" x2="305.85" y2="392.455"/>
					
						<line fill="none" stroke="#9F9FFF" stroke-width="2.0668" stroke-linecap="round" stroke-miterlimit="10" x1="354.261" y1="420.248" x2="300.079" y2="420.248"/>
				</g>
				<path fill="#41378C" d="M414.589,39.63c0.307,2.474-8.587,5.609-10.932,5.899c-2.345,0.29-4.495-1.481-4.8-3.956
					c-0.307-2.475,1.347-4.715,3.693-5.005C404.896,36.279,414.284,37.156,414.589,39.63z"/>
				<path fill="#5046AF" d="M291.7,43.386c-2.847,0.503-4.745,3.219-4.242,6.064l4.836,27.357l1.815-0.321
					c1.676-3.588,5.314-6.179,9.804-6.138c4.249,0.039,8.161,2.744,9.685,6.709c2.482,6.46-1.571,13.216-8.027,14.357
					c-3.54,0.625-6.977-0.587-9.342-2.946l-1.815,0.321l5.351,30.262c0.504,2.846,3.219,4.746,6.064,4.242l27.356-4.836
					l-0.332-1.878c-3.587-1.676-6.179-5.315-6.137-9.805c0.038-4.248,2.743-8.16,6.709-9.684c6.461-2.482,13.216,1.571,14.357,8.028
					c0.625,3.54-0.587,6.976-2.945,9.341l0.332,1.879l30.262-5.35c2.847-0.504,4.745-3.219,4.242-6.065l-12.306-69.603
					c-0.503-2.846-3.219-4.745-6.065-4.242L291.7,43.386z"/>
				<path fill="#FAB9AF" d="M424.751,70.133c-2.949,4.021-8.007,9.31-14.061,13.875c-18.518,13.505-38.335,14.87-54.497-0.417
					c-0.66-0.625-0.688-1.668-0.063-2.329c0.534-0.565,1.374-0.668,2.02-0.296l0.074,0.043c10.539,6.083,19.977,8.581,31.856,3.589
					c15.576-6.712,26.627-22.86,25.464-21.319c1.909-2.529,5.509-3.031,8.038-1.121C426.09,64.053,426.601,67.608,424.751,70.133z"
					/>
				<g>
					<path fill="#A5A0AA" d="M407.046,72.551c3.857-3.461,8.761-10.28,8.761-10.28s2.325-2.747,7.108-0.744
						c3.82,1.601,3.047,6.114,3.047,6.114c-0.092,0.628-1.369,8.075-10.153,14.66C415.809,82.301,406.399,73.132,407.046,72.551z"/>
				</g>
				<path fill="#FAB9AF" d="M359.322,81.704c-1.267-1.477-1.601-6.655-2.313-6.655c-0.513,0-0.604,1.788-0.614,2.793
					c-0.001,0.117-0.07,0.223-0.178,0.271c-0.107,0.047-0.231,0.029-0.32-0.049c-1.436-1.265-5.489-4.773-5.907-4.438
					c-0.425,0.338,1.729,2.954,2.463,3.822c0.023,0.026,0.023,0.065,0.001,0.092c-0.021,0.026-0.058,0.035-0.089,0.02
					c-1.133-0.574-4.831-2.386-4.918-1.611c-0.081,0.738,3.135,2.789,4.39,3.56c0.03,0.02,0.042,0.058,0.027,0.091
					c-0.014,0.033-0.052,0.05-0.087,0.04c-1.407-0.416-5.031-1.422-5.113-0.768c-0.083,0.668,3.42,2.168,4.68,2.685
					c0.032,0.014,0.052,0.049,0.043,0.083c-0.008,0.035-0.04,0.058-0.075,0.056c-1.242-0.097-4.448-0.304-3.954,0.19
					c0.61,0.61,8.33,3.134,10.06,3.134C359.146,85.02,359.322,81.704,359.322,81.704z"/>
			</g>
			<rect x="58.106" y="169.29" fill="#5046AF" width="366.234" height="222.837"/>
			<rect x="76.683" y="185.978" fill="#FFFFFF" width="329.08" height="189.459"/>
			<g>
				
					<rect x="98.11" y="233.645" fill="none" stroke="#827DDC" stroke-width="0.9879" stroke-miterlimit="10" width="84.325" height="120.824"/>
				
					<rect x="201.451" y="233.645" fill="none" stroke="#827DDC" stroke-width="0.9879" stroke-miterlimit="10" width="84.325" height="120.824"/>
				
					<rect x="304.793" y="233.645" fill="none" stroke="#827DDC" stroke-width="0.9879" stroke-miterlimit="10" width="84.324" height="120.824"/>
			</g>
			<rect x="76.683" y="185.978" fill="#A5C8CD" width="329.08" height="3.085"/>
			<g>
				<path fill="#FA968C" d="M25.754,424.875c0,0-7.517,8.652-8.897,10.029c-1.14,1.137-2.756,1.551-4.307,1.986
					c-0.496,0.141-1.141,0.648-1.687,1.078c-0.438,0.344-0.64,0.881-0.629,1.438c0.178,9.74,8.655,16.566,9.107,15.996
					c0.814-1.029,0.194-3.881-1.427-5.762c-1.632-1.893-2.028-4.563-1.3-6.955l0,0c0.579-1.9,1.639-3.623,3.077-4.996l6.536-6.119
					L25.754,424.875z"/>
				<path fill="#B4D7DC" d="M8.85,464.555h122.838c0.998,0,1.808-0.811,1.808-1.809l0,0c0-0.998-0.81-1.807-1.808-1.807H8.85
					c-0.998,0-1.808,0.809-1.808,1.807l0,0C7.042,463.744,7.852,464.555,8.85,464.555z"/>
				<path fill="#FA968C" d="M102.595,437.18l5.979,9.992c1.828,3.055,2.5,6.67,1.896,10.178c0,0.002,0,0.002,0,0.002
					c-0.342,1.963,1.131,3.77,3.124,3.818c6.437,0.16,18.895,0.393,19.253-0.193c1.831-2.988-6.048-4.324-12.236-6.422
					c-4.173-1.414-9.309-12.711-12.564-21.6l-4.879,3.09C102.791,436.297,102.574,436.727,102.595,437.18z"/>
				<path fill="#823264" d="M120.489,457.996c2.644,0,5.342-0.605,7.835-1.1c0.286-0.057,0.584-0.037,0.858,0.061
					c2.885,1.023,4.635,2.434,3.664,4.02c-0.39,0.637-15.044,0.309-20.767,0.154c-1.197-0.031-2.074-1.119-1.868-2.297l0.375-2.148
					C113.822,457.51,117.14,457.996,120.489,457.996z"/>
				<path fill="#FFAA50" d="M81.199,324.34c-6.611-1.324-14.507,4.092-16.211,12.6c-0.979,4.889-2.421,23.105-2.217,37.971
					c0.079,5.705-2.66,11.195-7.534,14.16c-0.794,0.482-1.522,1.016-2.155,1.594c-3.263,2.979-18.434,21.994-27.942,34.898
					c-0.297,2.016,0.001,4.807,1.129,6.131c12.172-9.535,32.811-27.492,36.28-30.66c1.927-1.762,4.08-3.822,5.834-5.85
					c7.477-5.012,19.612-43.27,21.192-51.164C91.279,335.51,87.81,325.662,81.199,324.34z"/>
				<ellipse fill="#9B14AA" cx="77.074" cy="269.17" rx="10.283" ry="13.266"/>
				<path fill="#9B14AA" d="M74.607,270.539c-0.163-7.344-6.108-13.516-13.441-13.934c-6.505-0.373-12.122,3.613-14.224,9.305
					c-0.736,1.994-2.692,3.293-4.817,3.262c-0.883-0.014-1.791,0.066-2.716,0.258c-5.374,1.1-9.546,5.639-10.112,11.096
					c-0.51,4.922,1.793,9.338,5.495,11.857c1.578,1.074,2.477,2.855,2.738,4.748c1.211,8.75,9.202,15.18,18.318,14.182
					c7.797-0.854,14.037-7.27,14.7-15.086c0.407-4.793-1.238-9.191-4.132-12.455C71.346,281.441,74.738,276.387,74.607,270.539z"/>
				<path fill="#05CDFF" d="M165.241,272.393c-2.597-0.555-4.986,0.551-6.32,2.453h-1.541v-14.209c0-2.605-2.112-4.717-4.718-4.717
					h-15.899v-1.578c1.9-1.334,3.007-3.723,2.451-6.322c-0.479-2.236-2.276-4.068-4.507-4.576c-3.982-0.908-7.516,2.092-7.516,5.92
					c0,2.059,1.028,3.879,2.596,4.979v1.578H115.58c-2.605,0-4.718,2.111-4.718,4.717v14.209h1.057
					c1.334-1.902,3.722-3.008,6.319-2.453c2.237,0.479,4.07,2.275,4.58,4.506c0.909,3.982-2.092,7.518-5.919,7.518
					c-2.061,0-3.879-1.027-4.979-2.596h-1.057v15.9c0,2.605,2.112,4.717,4.718,4.717h14.208v-1.094
					c-1.901-1.334-3.007-3.725-2.452-6.32c0.479-2.236,2.276-4.07,4.507-4.58c3.982-0.908,7.516,2.094,7.516,5.92
					c0,2.063-1.027,3.879-2.595,4.98v1.094h15.899c2.605,0,4.718-2.111,4.718-4.717v-15.9h1.541
					c1.101,1.568,2.918,2.596,4.979,2.596c3.827,0,6.829-3.535,5.92-7.516C169.311,274.67,167.479,272.871,165.241,272.393z"/>
				<path fill="#9B14AA" d="M77.074,251.551c0,0,5.786,3.643,5.083,8.547c0,0,3.09-2.188,3.79-9.727
					C86.431,245.148,77.074,251.551,77.074,251.551z"/>
				<g>
					<path fill="#FAB9AF" d="M89.153,281.34c0,0-0.002,0.256-0.005,0.735c-0.002,0.471-0.021,1.236,0.02,1.936
						c0.037,1.484,0.233,3.872,0.787,6.505c0.265,1.333,0.67,2.73,1.197,4.104c0.527,1.358,1.213,2.731,2,3.669
						c0.193,0.229,0.385,0.467,0.57,0.602c0.188,0.211,0.353,0.27,0.506,0.4c0.081,0.077,0.141,0.049,0.207,0.099
						c0.064,0.038,0.13,0.092,0.189,0.077c0.06,0.006,0.118,0.036,0.184,0.063c0.072-0.018,0.144-0.021,0.221-0.012
						c0.636,0.063,1.979-0.813,3.115-2.017c1.176-1.215,2.211-2.816,3.195-4.398c0.459-0.835,0.915-1.663,1.364-2.48
						c0.415-0.854,0.824-1.698,1.226-2.528c0.75-1.703,1.491-3.352,2.102-4.969c0.659-1.594,1.179-3.152,1.7-4.575
						c0.511-1.427,0.934-2.758,1.333-3.929c0.406-1.169,0.704-2.208,0.97-3.058c0.523-1.704,0.823-2.678,0.823-2.678l0.009-0.03
						c0.211-0.687,0.939-1.073,1.626-0.861c0.632,0.193,1.009,0.825,0.901,1.46c0,0-0.172,1.018-0.473,2.798
						c-0.156,0.891-0.318,1.977-0.573,3.213c-0.255,1.235-0.484,2.643-0.844,4.158c-0.361,1.517-0.707,3.171-1.194,4.902
						c-0.438,1.741-1.002,3.564-1.595,5.455c-0.339,0.939-0.684,1.894-1.033,2.86c-0.393,0.961-0.797,1.935-1.225,2.915
						c-0.945,1.947-1.927,3.935-3.398,5.854c-0.751,0.954-1.575,1.904-2.649,2.773c-0.492,0.444-1.193,0.815-1.8,1.199
						c-0.338,0.175-0.729,0.317-1.098,0.465c-0.375,0.146-0.742,0.292-1.179,0.354c-0.421,0.08-0.848,0.146-1.272,0.199
						c-0.434,0.009-0.875-0.015-1.312-0.044c-0.446-0.011-0.855-0.112-1.265-0.224c-0.4-0.117-0.845-0.208-1.194-0.381
						c-0.721-0.327-1.45-0.685-2.004-1.117c-0.626-0.413-1.111-0.867-1.589-1.325c-1.864-1.85-2.987-3.786-3.886-5.627
						c-0.885-1.845-1.537-3.613-2.008-5.26c-0.499-1.645-0.82-3.169-1.063-4.527c-0.225-1.361-0.389-2.534-0.475-3.594
						c-0.113-1.086-0.129-1.729-0.158-2.217c-0.026-0.479-0.04-0.734-0.04-0.734c-0.135-2.507,1.788-4.649,4.295-4.785
						c2.507-0.135,4.65,1.787,4.785,4.295C89.151,281.149,89.153,281.252,89.153,281.34z"/>
				</g>
				<path fill="#FAB9AF" d="M83.55,306.865c2.316-6.977,6.972-21.75,6.574-26.578c-0.255-3.094-2.84-5.463-5.944-5.463H64.042
					c-3.339,0-6.071,2.646-6.168,5.984c-0.17,5.832,2.518,19.109,4.028,26.057H83.55z"/>
				<path fill="#FAB9AF" d="M79.58,338.363c2.316,8.361,21.146,67.813,14.649,69.611c-6.497,1.799-41.858-56.244-42.31-64.91
					c-0.429-8.219,4.335-17.123,10.833-18.924C69.249,322.342,77.265,330,79.58,338.363z"/>
				<path fill="#FAC855" d="M108.697,435.322c0.24-0.283,0.296-0.68,0.169-1.027c-5.035-13.938-11.792-31.59-13.233-34.926
					c-0.165-0.383-0.339-0.754-0.522-1.115c-2.458-17.625-13.77-53.529-15.532-59.891c-2.315-8.363-10.331-16.021-16.829-14.223
					c-6.498,1.801-11.261,10.705-10.833,18.924c0.283,5.426,14.242,30.191,26.239,47.521c2.525,3.648,4.112,7.838,4.883,12.207
					c0.533,3.021,1.387,6.035,2.339,8.24c1.418,3.281,9.739,15.809,17.173,26.432c0.215,0.309,0.576,0.488,0.95,0.451
					C105.475,437.715,107.339,436.916,108.697,435.322z"/>
				<path fill="#39AE96" d="M59.6,315.709c1.042-2.924,1.355-6.055,0.917-9.129c-1.016-7.139-2.792-20.582-2.628-26.289
					c0.087-3.053,2.587-5.467,5.64-5.467h2.986c1.137,2.637,3.547,4.676,7.294,4.676c3.741,0,6.151-2.039,7.291-4.676h2.804
					c-3.048,6.523-1.952,15.131,3.291,20.152c-0.974,3.443-1.793,6.91-2.406,9.719c-0.831,3.803-0.464,7.768,1.034,11.363
					c2.575,6.178,4.613,16.082,4.007,20.008c-21.185,6.004-35.835-4.623-35.835-4.623L59.6,315.709z"/>
				<path fill="#1C9585" d="M84.788,304.695c0.207-0.949,0.445-1.988,0.697-3.061c-3.048-0.762-6.047-1.76-8.972-3.043
					c-6.159-2.699-14.026-7.084-18.449-13.135c0.122,1.738,0.295,3.65,0.502,5.633c2.174,5.072,4.506,9.969,8.785,13.781
					c5.121,4.564,11.359,7.584,17.887,9.563C84.25,311.289,84.081,307.936,84.788,304.695z"/>
				<g>
					<polygon fill="#FAB9AF" points="77.074,276.209 67.938,275.25 70.829,265.254 76.738,265.984 					"/>
				</g>
				<path fill="#FA968C" d="M76.738,265.984l-5.909-0.73l-0.902,3.119c1.323,1.492,3.023,4.715,5.173,4.715
					c0.682,0,1.304-0.193,1.862-0.549L76.738,265.984z"/>
				<path fill="#FAB9AF" d="M76.942,270.818c-2.006-0.002-4.176-1.006-7.166-3.617c-1.716-1.5-2.988-4.113-2.988-5.879v-9.771H81.83
					c0,0,1.128,5.188,0.033,10.336C81.04,265.748,78.52,270.818,76.942,270.818z"/>
				<path fill="#FAB9AF" d="M69.339,259.473c0,1.906-0.913,3.451-2.038,3.451s-2.367-2.498-2.367-4.402
					c0-1.908,1.241-2.498,2.367-2.498S69.339,257.568,69.339,259.473z"/>
				<path fill="#9B14AA" d="M64.934,252.736c0-3.053,2.474-5.525,5.524-5.523l5.076,0.002c1.452,0.002,2.86-0.379,4.095-1.08
					c1.792-1.016,4.056-0.678,5.277,0.98c1.321,1.791,1.893,4.191-1.457,6.412c-1.665,1.104-4.099-0.119-5.721,0.41
					c-0.1-0.004-0.189-0.02-0.293-0.02h-4.475c-1.555,0-2.745,1.271-2.79,2.826c-0.029,0.984-0.835,1.771-1.825,1.771h-0.199
					l-0.716-2.297l-2.498,3.369V252.736z"/>
				<path fill="#FAB9AF" d="M114.354,263.523c0,0,1.051,5.193-0.428,6.039c-1.479,0.848-2.626,1.145-3.938-0.963
					c-1.312-2.105-2.108-5.619-2.164-7.824c-0.057-2.201,1.409-5.934,1.829-6.229c1.532-1.078,1.214,2.924,1.154,4.867
					c-0.059,1.945,0.067,4.148,1.011,3.912s0.777-3.971,1.77-4.598C114.581,258.1,114.354,263.523,114.354,263.523z"/>
				<path fill="#FAB9AF" d="M136.795,298.84c0,0-5.229-0.854-6.019,0.656c-0.789,1.51-1.043,2.666,1.111,3.9
					c2.154,1.23,5.696,1.895,7.9,1.865c2.203-0.027,5.876-1.633,6.156-2.064c1.019-1.57-2.967-1.102-4.909-0.969
					s-4.147,0.09-3.947-0.861c0.2-0.953,3.938-0.928,4.527-1.943S136.795,298.84,136.795,298.84z"/>
				<path fill="#9B14AA" d="M80.708,251.381c-0.504,2.232,0.24,3.453-7.075,6.936c-7.315,3.484-9.632,1.996-11.916,5.746
					c0,0,0.999-6.213,5.04-8.346c4.041-2.133,11.048-3.525,13.294-8.463C80.051,247.254,81.052,249.855,80.708,251.381z"/>
				<g>
					<path fill="#FAB9AF" d="M66.293,280.658c-0.001-0.003,0.021,0.124,0.015,0.067c-0.007-0.029,0.006,0.021,0.021,0.081
						c0.013,0.054,0.028,0.117,0.058,0.208c0.098,0.337,0.291,0.909,0.638,1.65c0.347,0.739,0.852,1.641,1.562,2.628
						c0.706,0.988,1.642,2.054,2.783,3.139c1.139,1.088,2.518,2.176,4.124,3.178c0.775,0.535,1.665,0.973,2.528,1.492
						c0.915,0.446,1.814,0.965,2.811,1.371c0.492,0.215,0.988,0.431,1.488,0.648c0.515,0.193,1.034,0.389,1.556,0.585
						c1.035,0.415,2.136,0.73,3.232,1.082c2.21,0.666,4.519,1.207,6.851,1.721c1.179,0.216,2.358,0.433,3.532,0.648
						c1.182,0.195,2.373,0.336,3.55,0.507c1.176,0.18,2.362,0.25,3.526,0.38c1.165,0.131,2.322,0.211,3.464,0.272
						c2.28,0.184,4.499,0.27,6.607,0.341c2.108,0.087,4.108,0.045,5.957,0.072c1.852-0.026,3.549-0.05,5.054-0.07
						c1.509-0.003,2.82-0.099,3.904-0.134c2.17-0.077,3.41-0.122,3.41-0.122l0.037-0.001c0.718-0.025,1.322,0.536,1.347,1.255
						c0.023,0.652-0.439,1.21-1.063,1.326c0,0-1.235,0.229-3.395,0.632c-1.084,0.182-2.394,0.455-3.914,0.663
						c-1.519,0.213-3.228,0.512-5.107,0.73c-1.883,0.188-3.919,0.461-6.09,0.62c-2.17,0.167-4.464,0.357-6.852,0.41
						c-1.192,0.045-2.407,0.072-3.641,0.049c-1.233-0.021-2.482,0.017-3.745-0.058c-1.263-0.063-2.537-0.098-3.818-0.189
						c-1.281-0.116-2.57-0.211-3.86-0.348c-1.288-0.178-2.582-0.314-3.867-0.53c-1.28-0.258-2.564-0.449-3.828-0.765
						c-1.264-0.308-2.524-0.582-3.754-0.974c-0.617-0.186-1.23-0.369-1.839-0.553c-0.604-0.214-1.204-0.426-1.799-0.637
						c-1.196-0.4-2.34-0.941-3.475-1.41c-1.116-0.545-2.209-1.063-3.235-1.688c-2.077-1.177-3.959-2.52-5.588-3.937
						c-1.633-1.41-3.034-2.874-4.113-4.342c-1.094-1.453-1.92-2.85-2.521-4.071c-0.608-1.219-0.966-2.275-1.192-3.058
						c-0.214-0.707-0.35-1.516-0.325-1.383c-0.411-2.477,1.264-4.816,3.74-5.228C63.542,276.509,65.882,278.183,66.293,280.658z"/>
				</g>
				<path fill="#9B14AA" d="M79.301,251.797c0,0,0.278,7.518,6.848,11.127c0,0-2.896-5.68-2.698-9.396
					C83.647,249.813,78.867,249.229,79.301,251.797z"/>
				<path fill="#823264" d="M7.094,441.078c-0.247-0.613-0.014-1.314,0.555-1.652c0.465-0.277,1.714-1.047,2.651-1.623
					c0.407-0.252,0.918,0.016,0.972,0.492c0.609,5.379,3.048,10.254,7.624,12.578c1.194,1.594,1.364,4.316,0.719,5.131
					c-0.151,0.191-2.294-0.518-4.092-2.576C7.542,444.285,7.094,441.078,7.094,441.078z"/>
			</g>
			<g>
				<path fill="#FAB9AF" d="M492.206,413c-0.317-0.063-0.624-0.127-0.903-0.186c-0.75-0.16-1.71-0.143-2.557-0.072
					c-1.42,0.121-2.842-0.139-4.121-0.77l-5.295-2.607c-2.236-1.104-4.633,1.182-3.639,3.467l0,0
					c0.085,0.195,0.24,0.354,0.436,0.439l6.265,2.777c1.815,0.805,3.415,2.029,4.665,3.572l1.775,2.191
					C492.608,419.455,492.083,415.188,492.206,413z"/>
				<path fill="#46738C" d="M489.91,431.236c0.255-3.008-1.106-7.988-1.751-9.654c1.615-2.971,1.67-6.16,0.688-9.027
					c0.829-0.066,1.753-0.082,2.482,0.072c1.004,0.213,3.324,0.572,4.275,0.756c0.673,0.131,1.146,0.73,1.119,1.414
					c0,0-2.997,21.699-3.663,21.285C491.909,435.367,489.691,433.803,489.91,431.236z"/>
				<path fill="#B4D7DC" d="M289.547,466.094h76.656c1,0,1.81-0.811,1.81-1.809l0,0c0-0.998-0.81-1.807-1.81-1.807h-76.656
					c-0.998,0-1.808,0.809-1.808,1.807l0,0C287.739,465.283,288.549,466.094,289.547,466.094z"/>
				<path fill="#B4D7DC" d="M414.679,466.094h83.328c1.101,0,1.993-0.893,1.993-1.994l0,0c0-1.102-0.893-1.992-1.993-1.992h-83.328
					c-1.102,0-1.993,0.891-1.993,1.992l0,0C412.686,465.201,413.577,466.094,414.679,466.094z"/>
				<path fill="#41B4E6" d="M376.704,391.533c-1.682,6.656-13.516,59.01-11.178,59.059c2.027,0.041,23.568-48.848,25.25-55.502
					s-0.106-12.844-3.991-13.826C382.899,380.281,378.386,384.881,376.704,391.533z"/>
				<path fill="#41B4E6" d="M402.624,338.373c-5.689,6.936-31.115,52.406-25.728,56.824c5.389,4.422,40.636-33.225,46.325-40.16
					c5.69-6.936,4.85-16.799-0.539-21.219C417.295,329.398,408.314,331.438,402.624,338.373z"/>
				<path fill="#FAB9AF" d="M368.497,457.865c0.018-0.324,0.035-0.637,0.053-0.922c0.047-0.764-0.111-1.711-0.306-2.539
					c-0.325-1.387-0.277-2.832,0.157-4.189l1.806-5.619c0.761-2.373-1.849-4.408-3.966-3.092l0,0
					c-0.181,0.113-0.313,0.289-0.37,0.496l-1.828,6.604c-0.529,1.914-1.507,3.676-2.851,5.139l-1.907,2.078
					C362.173,459.209,366.314,458.064,368.497,457.865z"/>
				<path fill="#46738C" d="M350.122,458.268c3.012-0.189,7.739-2.266,9.294-3.148c3.175,1.162,6.336,0.75,9.03-0.641
					c0.187,0.809,0.338,1.721,0.292,2.465c-0.064,1.023-0.077,3.371-0.121,4.34c-0.031,0.686-0.555,1.24-1.235,1.316
					c0,0-21.902,0.215-21.592-0.504C346.33,460.852,347.552,458.428,350.122,458.268z"/>
				<path fill="#695A6E" d="M390.776,395.09c-1.039,4.113-13.899,36.002-20.816,50.857c-2.082-0.795-3.247-0.729-5.37-1.396
					c2.708-13.953,7.554-45.104,9.148-51.824c0.697-9.367,23.611-47.926,28.886-54.354c5.69-6.936,14.671-8.975,20.059-4.555
					c5.389,4.42,6.229,14.283,0.539,21.219C419.541,359.523,391.479,392.309,390.776,395.09z"/>
				<path fill="#614C69" d="M422.683,333.818c-5.388-4.42-14.368-2.381-20.059,4.555c-0.459,0.559-1.066,1.387-1.768,2.398
					c5.139,10.227,6.88,21.539,6.608,33.029c7.057-8.465,14.045-16.676,15.757-18.764
					C428.912,348.102,428.071,338.238,422.683,333.818z"/>
				<path fill="#828291" d="M418.362,395.361c0-0.002-0.009-0.006-0.009-0.006c-0.004-0.01-0.008-0.021-0.014-0.031
					c-0.229-0.439-0.399-0.881-0.524-1.324c-3.796-11.246-2.71-52.084-1.479-60.369c0.327-2.203,0.983-4.242,1.866-6.08
					l12.101,6.584c3.038,3.441,6.628,6.482,10.716,8.951c0.615,0.371-0.208-1.236,0.422-0.908
					c-1.744,10.744-4.019,32.057-4.874,42.715c-0.194,2.42,1.18,4.689,3.419,5.629c11.277,4.738,31.392,13.945,42.598,19.994
					l-0.382,6.346c-16.36-3.43-49.043-13.146-54.006-14.596C423.512,400.9,419.873,398.211,418.362,395.361z"/>
				<g>
					<path fill="#FA968C" d="M406.554,292.271c0,0-0.005,0.077-0.014,0.227c-0.006,0.092-0.014,0.206-0.022,0.343
						c-0.01,0.11-0.021,0.239-0.035,0.385c-0.057,0.58-0.154,1.388-0.333,2.388c-0.353,2-1.002,4.799-2.336,7.979
						c-0.672,1.587-1.519,3.259-2.542,4.957c-1.058,1.682-2.313,3.37-3.786,4.966c-1.505,1.561-3.152,3.093-5.026,4.36
						c-0.911,0.666-1.905,1.222-2.876,1.8c-1.018,0.493-2.005,1.061-3.061,1.447l-1.561,0.627c-0.525,0.184-1.059,0.34-1.585,0.509
						c-1.049,0.361-2.116,0.598-3.17,0.836c-2.106,0.466-4.194,0.749-6.201,0.884c-1.004,0.105-1.989,0.109-2.95,0.112
						c-0.961,0.008-1.899,0.034-2.805-0.037c-0.905-0.05-1.785-0.098-2.637-0.144c-0.842-0.093-1.656-0.183-2.438-0.27
						c-1.564-0.14-2.969-0.434-4.217-0.646c-1.251-0.2-2.324-0.44-3.205-0.652c-1.761-0.403-2.767-0.635-2.767-0.635
						c-0.724-0.166-1.176-0.887-1.01-1.61c0.152-0.663,0.771-1.098,1.43-1.038l0.066,0.006c0,0,0.998,0.089,2.743,0.245
						c0.87,0.088,1.927,0.178,3.141,0.203c1.211,0.045,2.574,0.121,4.055,0.079c0.737-0.008,1.507-0.017,2.303-0.025
						c0.789-0.054,1.605-0.109,2.444-0.167c0.84-0.033,1.688-0.166,2.553-0.278c0.867-0.106,1.75-0.223,2.626-0.419
						c1.769-0.314,3.557-0.765,5.298-1.357c0.87-0.301,1.747-0.594,2.574-0.992c0.419-0.188,0.844-0.361,1.257-0.559l1.202-0.648
						c0.82-0.396,1.538-0.949,2.3-1.411c0.712-0.534,1.445-1.03,2.092-1.614c1.346-1.106,2.466-2.399,3.487-3.674
						c0.991-1.309,1.797-2.678,2.503-4.004c0.666-1.354,1.207-2.678,1.622-3.936c0.801-2.525,1.201-4.721,1.355-6.23
						c0.085-0.755,0.115-1.338,0.126-1.707c0.003-0.092,0.005-0.173,0.007-0.242c-0.001-0.045-0.001-0.083-0.002-0.113
						c0-0.097-0.001-0.146-0.001-0.146v-0.046c-0.014-2.596,2.08-4.712,4.676-4.726c2.597-0.014,4.713,2.079,4.727,4.676
						C406.562,292.068,406.559,292.177,406.554,292.271z"/>
				</g>
				<path fill="#AAC85A" d="M388.472,301.666c1.119-2.402,5.455-11.773,5.993-14.053l0.025-0.115
					c0.045-0.184,0.097-0.365,0.156-0.545c1.138-3.424,4.835-5.277,8.259-4.143c3.425,1.139,5.278,4.836,4.141,8.26
					c-1.065,3.211-2.171,5.877-3.472,8.705c-0.886,1.871-1.855,3.703-2.865,5.518C399.591,304.436,388.465,301.684,388.472,301.666z
					"/>
				<path fill="#FAB9AF" d="M402.888,346.256c5.406,4.461,27.969,3.557,36.341,3.053c2.105-0.127,3.692-2.033,3.344-4.115
					c-0.891-5.311-4.585-14.451-6.804-23.943c-3.198-13.68-6.246-28.859-7.851-37.066c-0.663-3.387-3.898-5.627-7.302-5.064
					l-20.54,3.396c-3.166,0.525-5.402,3.379-5.141,6.578c0.541,6.621,1.48,18.125,2.396,29.402
					C398.261,329.943,397.121,341.494,402.888,346.256z"/>
				<path fill="#82BE50" d="M399.882,282.549l3.337-0.553c1.607,2.498,4.409,4.17,8.224,3.539c3.822-0.631,5.937-3.117,6.652-5.998
					l3.045-0.504c3.115-0.516,6.071,1.529,6.675,4.627c1.574,8.074,4.688,23.613,7.954,37.59c2.255,9.646,5.963,18.51,6.796,23.9
					c0.325,2.111-1.259,4.033-3.392,4.162c-8.417,0.504-30.892,1.393-36.285-3.057c-5.767-4.762-4.627-16.313-5.556-27.76
					c-0.925-11.391-1.875-23.014-2.413-29.602C394.667,285.807,396.824,283.055,399.882,282.549z"/>
				<path fill="#CD5014" d="M410.791,271.34l0.383-0.109c2.927-0.842,4.618-3.895,3.779-6.82l-2.246-7.832l-5.684,1.631
					L410.791,271.34z"/>
				<g>
					<polygon fill="#FAB9AF" points="406.185,282.559 416.089,281.832 416.439,280.406 410.639,269.99 403.759,272.92 					"/>
				</g>
				<path fill="#FA968C" d="M403.759,272.92l6.88-2.93l2.33,4.184c-1.081,2.258-2.394,4.762-4.989,5.508
					c-0.823,0.236-1.748,0.168-2.545-0.066L403.759,272.92z"/>
				<path fill="#FAB9AF" d="M407.191,277.18L407.191,277.18c4.813-1.381,7.595-6.402,6.214-11.215l-2.786-9.707l-14.944,4.287
					c0,0,2.174,7.58,4.729,12.381C402.321,276.529,404.738,277.883,407.191,277.18z"/>
				
					<rect x="409.803" y="260.13" transform="matrix(-0.9611 0.276 -0.276 -0.9611 878.5379 397.9235)" fill="#CD5014" width="2.922" height="1.325"/>
				<path fill="#FAB9AF" d="M410.345,264.857c0.543,1.893,1.89,3.17,3.009,2.848c1.117-0.322,1.639-3.158,1.096-5.053
					c-0.544-1.893-1.946-2.127-3.064-1.807S409.801,262.963,410.345,264.857z"/>
				<path fill="#CD5014" d="M395.783,264.836c-0.697-1.109-1.136-2.359-1.283-3.66c0,0-1.303-4.318,0.16-5.631
					c1.333-1.193,4.246-0.988,6.032-1.104c1.309-0.084,5.044-1.449,5.044-1.449c3.031-0.871,6.193,0.881,7.064,3.912l0.336,1.176
					l-1.825,2.998l-0.058,2.486l-0.197,0.057c-0.963,0.277-1.966-0.248-2.298-1.176c-0.548-1.535-2.002-2.535-3.568-2.086
					l-4.477,1.285c-2.725,0.783-3.721,2.652-3.137,4.691l0.634,1.684L395.783,264.836z"/>
				<path fill="#FA735F" d="M358.511,287.719l-0.908-2.326c1.574-2.371,2.083-5.398,1.157-8.273
					c-1.622-5.039-7.583-7.93-12.538-6.074c-5.04,1.887-7.546,7.525-5.595,12.52c1.187,3.037,3.749,5.127,6.693,5.846l0.908,2.324
					l-25.369,9.912c-2.21,0.863-3.302,3.355-2.439,5.564l9.821,25.141l-1.349,0.527c-2.371-1.574-5.399-2.084-8.274-1.156
					c-5.038,1.621-7.93,7.582-6.073,12.537c1.888,5.039,7.524,7.545,12.52,5.594c3.037-1.186,5.126-3.748,5.845-6.691l1.35-0.527
					l9.821,25.139c0.864,2.211,3.355,3.303,5.565,2.438l60.562-23.658c2.211-0.863,3.303-3.355,2.438-5.564l-23.658-60.563
					c-0.864-2.211-3.355-3.303-5.565-2.438L358.511,287.719z"/>
				<path fill="#FAB9AF" d="M430.514,285.031c0.862,16.256-8.242,35.537-27.399,40.234c-15.227,3.766-31.611-0.443-46.063-6.609
					c-0.952-0.404-1.395-1.506-0.987-2.459c0.356-0.836,1.253-1.279,2.11-1.098l0.025,0.006
					c20.108,4.266,45.803,7.061,55.315-11.266c4.821-9.012,3.951-19.92,3.972-18.379
					C417.377,277.014,430.054,276.602,430.514,285.031z"/>
				<g>
					<path fill="#AAC85A" d="M415.523,297.947c1.521-6.887,1.733-12.465,1.738-12.568l-0.001,0.197l1.1-4.385
						c0,0,2.097-3.512,7.832-2.152c4.581,1.086,4.552,6.291,4.552,6.291c0.012,0.721,1.669,5.926-2.822,17.227
						C427.922,302.557,415.311,298.912,415.523,297.947z"/>
				</g>
			</g>
			<path fill="#FAB9AF" d="M359.271,315.381c-1.266-1.479-1.599-6.656-2.311-6.656c-0.513,0-0.604,1.789-0.614,2.793
				c-0.002,0.119-0.072,0.225-0.18,0.271c-0.105,0.047-0.231,0.029-0.318-0.051c-1.438-1.266-5.491-4.771-5.909-4.438
				c-0.423,0.338,1.73,2.955,2.465,3.822c0.021,0.027,0.022,0.064,0.001,0.092s-0.06,0.035-0.09,0.021
				c-1.134-0.576-4.832-2.387-4.917-1.611c-0.083,0.736,3.133,2.787,4.389,3.559c0.031,0.018,0.043,0.059,0.028,0.092
				s-0.052,0.051-0.087,0.039c-1.407-0.416-5.033-1.422-5.114-0.768c-0.084,0.668,3.42,2.168,4.681,2.686
				c0.032,0.014,0.05,0.049,0.042,0.082c-0.009,0.035-0.041,0.059-0.076,0.057c-1.241-0.098-4.447-0.305-3.953,0.191
				c0.61,0.609,8.329,3.133,10.06,3.133C359.096,318.695,359.271,315.381,359.271,315.381z"/>
			<rect x="209.984" y="244.016" fill="#C8E6EB" width="66.371" height="15.555"/>
			<rect x="209.984" y="267.348" fill="#C8E6EB" width="66.371" height="15.557"/>
			<rect x="209.984" y="290.682" fill="#C8E6EB" width="66.371" height="15.555"/>
			<rect x="209.984" y="314.016" fill="#C8E6EB" width="66.371" height="15.555"/>
			<rect x="97.984" y="203.571" fill="#C8E6EB" width="291.408" height="17.111"/>
		</g>
		<path fill="#39AE96" d="M231.967,211.813h-89.206c-4.51,0-8.167-3.656-8.167-8.167v-20.585c0-4.51,3.656-8.167,8.167-8.167h89.206
			c4.51,0,8.167,3.657,8.167,8.167v20.585C240.134,208.157,236.478,211.813,231.967,211.813z"/>
		
			<rect x="214.199" y="207.481" transform="matrix(0.7071 0.7071 -0.7071 0.7071 213.702 -92.4486)" fill="#39AE96" width="8.482" height="8.482"/>
		<rect x="147.131" y="184.242" fill="#FFFFFF" width="78.17" height="2.896"/>
		<rect x="147.131" y="191.915" fill="#FFFFFF" width="78.17" height="2.895"/>
		<rect x="147.131" y="199.589" fill="#FFFFFF" width="78.17" height="2.895"/>
		<g>
			<rect x="213.63" y="324.293" fill="#41A0D7" width="8.481" height="8.482"/>
			<circle fill="#05CDFF" cx="195.355" cy="351.938" r="33.284"/>
			<g>
				<circle fill="#FFFFFF" cx="182.619" cy="352.037" r="2.706"/>
				<circle fill="#FFFFFF" cx="194.484" cy="352.037" r="2.706"/>
				<circle fill="#FFFFFF" cx="206.349" cy="352.037" r="2.706"/>
			</g>
		</g>
	</g>
</g>
<g id="DESIGNED_BY_FREEPIK">
</g>
</svg>
