<?xml version="1.0" encoding="utf-8"?>
<!-- Generator: Adobe Illustrator 16.0.0, SVG Export Plug-In . SVG Version: 6.00 Build 0)  -->
<!DOCTYPE svg PUBLIC "-//W3C//DTD SVG 1.1//EN" "http://www.w3.org/Graphics/SVG/1.1/DTD/svg11.dtd">
<svg version="1.1" id="Layer_1" xmlns="http://www.w3.org/2000/svg" xmlns:xlink="http://www.w3.org/1999/xlink" x="0px" y="0px"
	 width="1263px" height="148px" viewBox="0 0 1263 148" enable-background="new 0 0 1263 148" xml:space="preserve">
<polygon fill="#E56133" points="0,-1 0,149 150.566,149 0.566,-1 "/>
<polygon fill="#F36C35" points="1264,-1 0.566,-1 150.566,149 1264,149 "/>
<g>
	<g id="_x38_">
		<g>
			<g>
				<g>
					<polygon fill="#D1D3D4" points="316.201,44.03 315.196,96.39 357.626,97.205 358.169,68.918 358.631,44.844 					"/>
					<g>
						
							<rect x="335.596" y="47.453" transform="matrix(0.019 -0.9998 0.9998 0.019 264.627 400.6647)" fill="#BCBEC0" width="1.776" height="36.061"/>
						
							<rect x="334.638" y="43.351" transform="matrix(0.0193 -0.9998 0.9998 0.0193 268.7532 394.6259)" fill="#BCBEC0" width="1.775" height="33.946"/>
						
							<rect x="335.794" y="37.173" transform="matrix(0.019 -0.9998 0.9998 0.019 275.0962 390.7769)" fill="#BCBEC0" width="1.775" height="36.062"/>
						
							<rect x="318.749" y="49.131" transform="matrix(0.9998 0.0192 -0.0192 0.9998 1.0213 -6.4081)" fill="#BCBEC0" width="31.402" height="1.775"/>
						
							<rect x="318.355" y="69.698" transform="matrix(-0.9998 -0.0192 0.0192 -0.9998 669.2372 147.6122)" fill="#BCBEC0" width="33.948" height="1.777"/>
						
							<rect x="318.257" y="74.842" transform="matrix(-0.9998 -0.0192 0.0192 -0.9998 671.0587 157.9008)" fill="#BCBEC0" width="36.061" height="1.774"/>
						
							<rect x="318.159" y="79.932" transform="matrix(-0.9998 -0.0192 0.0192 -0.9998 667.5793 168.0457)" fill="#BCBEC0" width="32.874" height="1.775"/>
						
							<rect x="318.061" y="85.086" transform="matrix(-0.9998 -0.0192 0.0192 -0.9998 670.47 178.3845)" fill="#BCBEC0" width="36.061" height="1.775"/>
						
							<rect x="317.962" y="90.208" transform="matrix(-0.9998 -0.0192 0.0192 -0.9998 670.1753 188.6258)" fill="#BCBEC0" width="36.061" height="1.775"/>
					</g>
				</g>
			</g>
			<g>
				<g>
					<polygon fill="#E6E7E8" points="359.259,54.05 328.866,53.468 327.86,105.828 370.29,106.641 371.064,66.319 					"/>
				</g>
				<g>
					<g>
						
							<rect x="348.261" y="56.891" transform="matrix(0.0195 -0.9998 0.9998 0.0195 267.4208 422.5404)" fill="#BCBEC0" width="1.775" height="36.062"/>
						
							<rect x="348.36" y="51.751" transform="matrix(0.0192 -0.9998 0.9998 0.0192 272.7563 417.6214)" fill="#BCBEC0" width="1.776" height="36.061"/>
						
							<rect x="348.458" y="46.609" transform="matrix(0.0192 -0.9998 0.9998 0.0192 277.9932 412.6769)" fill="#BCBEC0" width="1.776" height="36.061"/>
						
							<rect x="333.008" y="58.583" transform="matrix(0.9998 0.0192 -0.0192 0.9998 1.2048 -6.6627)" fill="#BCBEC0" width="29.808" height="1.774"/>
						
							<rect x="333.149" y="79.177" transform="matrix(-0.9998 -0.0193 0.0193 -0.9998 698.623 166.8554)" fill="#BCBEC0" width="33.931" height="1.775"/>
						
							<rect x="330.921" y="84.279" transform="matrix(-0.9998 -0.0192 0.0192 -0.9998 696.2042 177.0174)" fill="#BCBEC0" width="36.061" height="1.776"/>
						
							<rect x="330.823" y="89.401" transform="matrix(-0.9998 -0.0192 0.0192 -0.9998 695.907 187.2699)" fill="#BCBEC0" width="36.061" height="1.777"/>
						
							<rect x="330.724" y="94.526" transform="matrix(-0.9998 -0.0191 0.0191 -0.9998 695.6224 197.4745)" fill="#BCBEC0" width="36.062" height="1.772"/>
						
							<rect x="330.626" y="99.645" transform="matrix(-0.9998 -0.0191 0.0191 -0.9998 695.3281 207.714)" fill="#BCBEC0" width="36.061" height="1.776"/>
					</g>
					<polygon fill="#F1F2F2" points="359.027,66.087 371.064,66.319 359.259,54.05 					"/>
					<polygon fill="#A7A9AC" points="371.064,66.319 359.027,66.087 370.833,78.353 					"/>
				</g>
			</g>
		</g>
		<polygon fill="#BCBEC0" points="337.083,79.486 339.442,79.527 354,79.808 355.823,79.844 355.696,86.509 355.69,86.787 
			355.558,86.784 352.957,86.734 340.216,86.49 337.613,86.44 		"/>
		<g>
			<polygon fill="#ED1C24" points="345.942,87.736 341.381,79.614 342.622,78.918 345.895,84.749 350.316,76.263 351.578,76.92 			
				"/>
		</g>
		<path fill="#3D5872" d="M353.559,75.741c-3.979-3.811-10.294-3.676-14.108,0.304c-3.812,3.979-3.676,10.295,0.304,14.109
			c3.691,3.536,9.393,3.675,13.244,0.498l3.614,3.462l-0.865,0.904l14.271,13.674l3.358-3.505l-14.271-13.677l-0.866,0.904
			l-3.614-3.464C357.634,84.97,357.251,79.279,353.559,75.741z M343.875,90.154c-3.98-1.541-5.958-6.01-4.423-9.989
			c1.536-3.979,6.007-5.959,9.986-4.424c3.98,1.539,5.958,6.01,4.422,9.988C352.325,89.709,347.854,91.688,343.875,90.154z"/>
	</g>
	<g id="_x31_5">
		<rect x="20.643" y="117.523" fill="#414042" width="57.09" height="4.001"/>
		<g>
			<path fill="#58595B" d="M15.921,108.725v7.14c0,1.981,1.62,3.602,3.6,3.602h56.797c1.98,0,3.6-1.62,3.6-3.602v-7.14H15.921z"/>
			<path fill="#939598" d="M79.918,94.494c0-1.979-1.62-3.6-3.6-3.6H19.521c-1.98,0-3.6,1.621-3.6,3.6v14.23h63.997V94.494z"/>
			<path fill="#58595B" d="M28.914,82.438v12.679c0,1.98,1.62,3.599,3.6,3.599h30.813c1.981,0,3.601-1.618,3.601-3.599V82.438
				H28.914z"/>
			<path fill="#939598" d="M28.914,82.21v9.571c0,1.98,1.62,3.6,3.6,3.6h30.813c1.981,0,3.601-1.619,3.601-3.6V82.21H28.914z"/>
			<rect x="32.605" y="73.754" fill="#939598" width="30.628" height="16.822"/>
			<g>
				<path fill="#6D6E71" d="M67.473,101.867h-7.836c-0.5,0-0.909,0.26-0.909,0.579v4.365c0,0.319,0.409,0.58,0.909,0.58h7.836
					c0.501,0,0.91-0.261,0.91-0.58v-4.365C68.382,102.127,67.974,101.867,67.473,101.867z"/>
				<path fill="#EB4747" d="M72.345,102.446h-3.098c-0.197,0-0.359,0.206-0.359,0.457v3.452c0,0.251,0.163,0.456,0.359,0.456h3.098
					c0.197,0,0.359-0.205,0.359-0.456v-3.452C72.705,102.652,72.542,102.446,72.345,102.446z"/>
				<path fill="#00A79D" d="M77.374,102.446h-3.097c-0.198,0-0.36,0.206-0.36,0.457v3.452c0,0.251,0.162,0.456,0.36,0.456h3.097
					c0.198,0,0.359-0.205,0.359-0.456v-3.452C77.733,102.652,77.572,102.446,77.374,102.446z"/>
				<path fill="#E6E7E8" d="M53.541,103.693H40.126c-0.856,0-1.558,0.089-1.558,0.197v1.478c0,0.106,0.702,0.195,1.558,0.195h13.415
					c0.856,0,1.557-0.089,1.557-0.195v-1.478C55.098,103.782,54.397,103.693,53.541,103.693z"/>
			</g>
			<rect x="36.72" y="68.038" fill="#BCBEC0" width="25.807" height="30.677"/>
			<rect x="34.477" y="69.182" fill="#E6E7E8" width="26.886" height="29.533"/>
			<g>
				<polygon fill="#3B3C3D" points="65.062,108.725 31.92,108.725 47.462,124.265 65.062,124.265 				"/>
				<polygon fill="#4E4F4F" points="30.777,108.725 30.777,124.265 47.462,124.265 31.92,108.725 				"/>
				<g>
					<polygon fill="#CDCECE" points="61.134,122.895 61.134,110.322 34.248,110.322 34.248,111.052 46.091,122.895 					"/>
					<polygon fill="#E6E7E8" points="46.091,122.895 34.248,111.052 34.248,122.895 					"/>
					<polygon fill="#A3A5A6" points="58.433,120.38 58.433,118.55 41.749,118.55 43.577,120.38 					"/>
					<polygon fill="#BCBEC0" points="36.72,120.38 43.577,120.38 41.749,118.55 36.72,118.55 					"/>
					<polygon fill="#A3A5A6" points="58.433,117.523 58.433,115.693 38.892,115.693 40.72,117.523 					"/>
					<polygon fill="#BCBEC0" points="36.72,117.523 40.72,117.523 38.892,115.693 36.72,115.693 					"/>
				</g>
			</g>
		</g>
	</g>
	<g id="_x31_2">
		<g>
			<g>
				<polygon fill="#D1D3D4" points="57.275,10.759 57.275,80.073 113.445,80.073 113.445,42.628 113.445,10.759 				"/>
				<g>
					<rect x="60.797" y="37.46" fill="#BCBEC0" width="47.73" height="2.35"/>
					<rect x="60.797" y="30.657" fill="#BCBEC0" width="44.931" height="2.348"/>
					<rect x="60.797" y="23.851" fill="#BCBEC0" width="47.73" height="2.348"/>
					<rect x="60.797" y="17.045" fill="#BCBEC0" width="41.563" height="2.348"/>
					<rect x="60.797" y="44.242" fill="#BCBEC0" width="44.931" height="2.35"/>
					<rect x="60.797" y="51.023" fill="#BCBEC0" width="47.73" height="2.35"/>
					<rect x="60.797" y="57.804" fill="#BCBEC0" width="43.511" height="2.35"/>
					<rect x="60.797" y="64.585" fill="#BCBEC0" width="47.73" height="2.35"/>
					<rect x="60.797" y="71.367" fill="#BCBEC0" width="47.73" height="2.349"/>
				</g>
			</g>
		</g>
		<g>
			<g>
				<polygon fill="#EFF1F2" points="72.868,5.745 57.32,73.294 112.058,85.892 120.458,49.401 127.606,18.345 				"/>
				<g>
					
						<rect x="92.128" y="15.19" transform="matrix(0.2244 -0.9745 0.9745 0.2244 34.3069 121.2143)" fill="#DADCDE" width="2.35" height="47.73"/>
					
						<rect x="92.292" y="9.643" transform="matrix(0.2244 -0.9745 0.9745 0.2244 41.2037 115.9867)" fill="#DADCDE" width="2.348" height="44.932"/>
					
						<rect x="95.181" y="1.925" transform="matrix(0.224 -0.9746 0.9746 0.224 49.6416 113.9223)" fill="#DADCDE" width="2.35" height="47.73"/>
					
						<rect x="74.096" y="17.293" transform="matrix(0.9745 0.2243 -0.2243 0.9745 6.5601 -20.8113)" fill="#DADCDE" width="41.562" height="2.35"/>
					
						<rect x="67.953" y="44.173" transform="matrix(-0.9745 -0.2244 0.2244 -0.9745 168.3579 109.826)" fill="#DADCDE" width="44.932" height="2.35"/>
					
						<rect x="66.396" y="51.097" transform="matrix(-0.9745 -0.2243 0.2243 -0.9745 166.4986 123.4552)" fill="#DADCDE" width="47.729" height="2.348"/>
					
						<rect x="64.93" y="57.231" transform="matrix(-0.9745 -0.2243 0.2243 -0.9745 158.0607 134.7661)" fill="#DADCDE" width="43.509" height="2.35"/>
					
						<rect x="63.353" y="64.314" transform="matrix(-0.9745 -0.2243 0.2243 -0.9745 157.5256 148.8707)" fill="#DADCDE" width="47.731" height="2.348"/>
					
						<rect x="61.833" y="70.921" transform="matrix(-0.9745 -0.2243 0.2243 -0.9745 153.0412 161.5766)" fill="#DADCDE" width="47.73" height="2.35"/>
				</g>
			</g>
		</g>
		<g>
			<rect x="50.147" y="44.169" fill="#EBD50C" width="74.145" height="45.533"/>
			<polygon fill="#C9B528" points="87.219,77.12 50.147,44.169 124.292,44.169 			"/>
			<polygon fill="#F9ED32" points="87.219,72.306 50.147,44.169 124.292,44.169 			"/>
			<rect x="98.689" y="74.451" fill="#EFF1F2" width="20.025" height="8.233"/>
		</g>
	</g>
	<g>
		<polygon fill="#FFFFFF" points="288.073,81.497 294.071,81.497 294.071,82.876 294.547,82.986 295.023,83.094 295.023,80.544 
			283.939,80.544 286.005,81.019 		"/>
		<polygon fill="#FFFFFF" points="258.732,100.781 260.634,100.781 261.002,99.185 258.732,99.185 		"/>
		<polygon fill="#FFFFFF" points="262.067,94.556 258.732,94.556 258.732,96.153 261.699,96.153 		"/>
		<polygon fill="#FFFFFF" points="263.132,89.924 258.732,89.924 258.732,91.524 262.765,91.524 		"/>
		<polygon fill="#FFFFFF" points="264.198,85.294 258.732,85.294 258.732,86.895 263.83,86.895 		"/>
		<polygon fill="#FFFFFF" points="294.547,97.852 294.071,97.741 287.168,96.153 280.226,94.556 267.057,91.524 266.243,91.337 
			266.2,91.524 265.884,92.894 273.099,94.556 280.044,96.153 294.071,99.381 294.547,99.49 295.023,99.601 295.671,99.748 
			296.03,98.191 295.023,97.962 		"/>
		<polygon fill="#FFFFFF" points="294.547,93.099 294.071,92.993 287.694,91.524 280.751,89.924 267.582,86.895 267.28,86.823 
			267.265,86.895 266.921,88.382 273.626,89.924 280.57,91.524 294.071,94.632 294.547,94.74 295.023,94.851 298.565,95.665 
			298.924,94.108 295.023,93.209 		"/>
		<polygon fill="#FFFFFF" points="281.096,86.895 294.071,89.88 294.547,89.99 295.023,90.099 295.514,90.211 295.872,88.654 
			295.023,88.458 294.547,88.351 294.071,88.24 287.006,86.612 281.276,85.294 268.319,82.312 267.961,83.87 274.152,85.294 		"/>
		<path fill="#FFFFFF" d="M300.291,105.199l-0.613,0.546l-0.614,0.546l-4.041,3.593l-0.476,0.423l-0.477,0.423l-1.099,0.977
			l-1.465,1.302l-2.765,2.458l-1.465,1.303l-0.975,0.868l-1.788,1.588l-0.01,0.01l-1.458,1.296l-1.934,1.72l-0.829,0.736
			l-0.968,0.861l-0.497,0.44l-2.109,1.878l-2.605-2.318l-0.978-0.867l-0.82-0.73l-1.67-1.483l-1.723-1.532l-1.798-1.598
			l-1.175-1.045l-2.217-1.971l-0.274-0.243l-1.523-1.354l-2.194-1.95l-0.406-0.359l-0.405-0.362l-0.405-0.357l-1.702-1.516
			l-0.477-0.423l-0.475-0.422l-4.373-3.888v30.976h50.439v-30.976l-1.022,0.906L300.291,105.199z M298.131,129.951h-3.049h-0.487
			h-0.49h-0.487h-7.37h-1.74v-0.402v-0.9v-0.476v-0.475v-2.101v-1.251h1.685h7.877h0.477h0.361h0.115h0.373h0.489h0.487h1.76
			V129.951z"/>
		<path fill="#FFFFFF" d="M300.625,103.746l4.127-17.925l-9.729-2.237l-0.476-0.11l-0.477-0.11l-8.12-1.866l-2.066-0.479
			l-2.068-0.475l-15.23-3.509l-0.808,3.509l-0.109,0.475l-0.108,0.479l-0.875,3.797l-0.368,1.601l-0.697,3.029l-0.369,1.601
			l-0.699,3.031l-0.366,1.598l-0.699,3.031l-0.369,1.597l-0.682,2.965h-0.487h-3.14V81.497h8.26l0.109-0.479l0.11-0.475h-9.431
			v23.202h-4.373l25.219,19.143l23.053-17.496l0.591-0.45l0.592-0.448l0.984-0.748h-0.813H300.625z M296.704,103.746l0.143-0.616
			l-1.824-0.42l-0.476-0.11l-0.477-0.106l-7.428-1.712l-6.943-1.597l-13.168-3.031l-1.328-0.307l-0.071,0.307l-0.288,1.25
			l7.729,1.781l6.943,1.597l12.884,2.965h-13.441l-12.882-2.965l-1.909-0.438l-0.101,0.438l-0.257,1.12l8.024,1.845h-10.418
			l0.682-2.965l0.368-1.597l0.699-3.031l0.367-1.598l0.698-3.031l0.367-1.601l0.698-3.029l0.368-1.601l0.874-3.797l0.11-0.479
			l0.109-0.475l0.544-2.365l10.274,2.365l2.068,0.475l2.066,0.479l12.362,2.843l0.477,0.108l0.476,0.11l8.586,1.978l-3.961,17.21
			H296.704z"/>
	</g>
	<g>
		<g id="_x31_6">
			<path fill="#EAB38B" d="M102.976,106.888l2.179-4.858v-13.2c0-4.427,1.413-8.733,4.036-12.299l14.262-19.387l16.297-10.864
				l4.154,36.882l-2.726,20.56l-7.888,16.893L102.976,106.888z"/>
			<g>
				<path fill="#414042" d="M226.948,15.564h-95.088c-6.131,0-11.149,5.019-11.149,11.151V91.8c0,6.135,5.019,11.149,11.149,11.149
					h95.088c6.132,0,11.149-5.015,11.149-11.149V26.715C238.097,20.583,233.08,15.564,226.948,15.564z"/>
				<rect x="129.372" y="23.74" fill="#D1D3D4" width="96.437" height="71.031"/>
				<circle fill="#D1D3D4" cx="231.866" cy="59.257" r="4.142"/>
				<circle fill="#939598" cx="125.663" cy="59.257" r="3.347"/>
				<rect x="180.397" y="40.468" fill="#BCBEC0" width="38.723" height="29.03"/>
				<rect x="138.584" y="80.012" fill="#BCBEC0" width="76.109" height="11.404"/>
				<g>
					<polygon fill="#EB4747" points="193.479,67.821 185.103,43.542 187.536,42.703 193.928,61.232 207.705,34.005 210,35.167 					
						"/>
				</g>
				<g>
					<rect x="154.5" y="31.009" fill="#BCBEC0" width="15.433" height="2.997"/>
					<rect x="154.5" y="36.432" fill="#BCBEC0" width="15.433" height="2.998"/>
					<rect x="154.5" y="41.855" fill="#BCBEC0" width="15.433" height="2.999"/>
					<rect x="154.5" y="47.278" fill="#BCBEC0" width="15.433" height="2.999"/>
				</g>
				<g>
					<rect x="136.461" y="31.009" fill="#FFFFFF" width="15.057" height="19.694"/>
					<path fill="#A7A9AC" d="M151.338,45.764c-0.381-0.781-0.804-1.631-0.847-1.659c-0.056-0.037-2.082-0.651-3.381-1.045
						c-0.405-0.123-0.74-0.224-0.922-0.278l-0.334-0.98l-0.028,0.025v-0.961c0.097-0.072,0.187-0.151,0.257-0.25
						c0.094-0.128,0.163-0.275,0.208-0.438c0.066-0.237,0.037-0.609,0.216-0.801c0.163-0.172,0.326-0.24,0.44-0.477
						c0.2-0.411,0.266-0.904,0.242-1.355c-0.005-0.129-0.073-0.34-0.238-0.217c-0.076,0.055-0.039,0.19-0.108,0.236
						c-0.003,0.002-0.005,0.003-0.008,0.003c0.062-0.203,0.124-0.414,0.143-0.511c0.099-0.514,0.075-0.74,0.099-0.959
						c0.086-0.776,0.129-1.519-0.349-2.169c-0.512-0.696-1.271-1.103-1.676-1.051c-0.022,0.003-0.297,0.028-0.262,0.058
						c-0.146-0.129-0.399-0.138-0.577-0.181c-0.952-0.227-2.153,0.365-2.845,0.997c-0.728,0.666-0.621,1.524-0.539,2.349
						c0.029,0.285,0.026,0.604,0.106,0.878c0.047,0.163,0.065,0.297,0.07,0.443c-0.008-0.037-0.02-0.071-0.049-0.092
						c-0.166-0.123-0.233,0.088-0.241,0.217c-0.023,0.451,0.043,0.944,0.243,1.355c0.115,0.237,0.278,0.305,0.44,0.477
						c0.179,0.191,0.15,0.563,0.216,0.801c0.046,0.163,0.115,0.31,0.208,0.438c0.097,0.134,0.23,0.233,0.367,0.329v0.886
						l-0.034-0.029l-0.334,0.98c-0.087,0.026-0.208,0.063-0.359,0.108c-0.046,0.014-0.093,0.028-0.144,0.044
						c-0.053,0.016-0.104,0.03-0.16,0.047c-0.083,0.024-0.17,0.051-0.261,0.079c-1.298,0.394-3.324,1.008-3.378,1.045
						c-0.047,0.031-0.534,1.017-0.937,1.84c-0.083,0.172-0.127,0.359-0.127,0.548v4.209h7.346h0.105h0.001h0.249h7.355V46.54
						C151.518,46.27,151.456,46.006,151.338,45.764z"/>
				</g>
				<g>
					<rect x="137.064" y="53.799" fill="#BCBEC0" width="34.168" height="4.273"/>
					<rect x="137.064" y="60.844" fill="#BCBEC0" width="34.168" height="4.273"/>
					<rect x="137.418" y="68.725" fill="#BCBEC0" width="34.167" height="4.276"/>
				</g>
			</g>
			<path fill="#EAB38B" d="M148.069,78.914c-0.005,0.044-0.005,0.086-0.005,0.136c0,0.129-0.008,0.26-0.024,0.392
				c-0.085,0.619-0.317,1.202-0.674,1.718c-0.043,0.063-0.089,0.129-0.137,0.189c-0.741,0.972-1.934,1.668-3.327,1.813H132.16
				l-4.417,18.012l1.269,6.862l4.275-0.858l-12.123,5.147l-8.859-10.58l5.429-29.163h10.01l11.132,1.858l1.286,0.214l6.419,1.073
				C146.726,75.858,148.052,77.115,148.069,78.914z"/>
			<polygon fill="#FFFFFF" points="99.723,110.032 102.976,102.949 136.889,120.613 134.03,125.761 			"/>
			<polygon fill="#808285" points="88.583,124.725 98.579,108.035 136.889,125.761 127.428,146.523 			"/>
			<path fill="#F2C4A5" d="M148.069,78.914c-0.005,0.044-0.005,0.086-0.005,0.136c-0.008,0.076-0.012,0.153-0.021,0.235
				c-0.071,0.595-0.27,1.162-0.57,1.658c-1.162-0.097-2.393-0.236-2.946-0.417c-5.537-1.787-4.7-5.016-4.365-5.873l6.419,1.073
				C146.726,75.858,148.052,77.115,148.069,78.914z"/>
			<g>
				<path fill="#EAB38B" d="M231.434,127.864c-0.193,0.14-0.9,0.063-1.127,0.079l-2.173,0.147c-2.208,0.149-1.844,0.968-4.044,1.116
					c-5.363,0.373-10.781-0.1-16.139,0.269l-5.927,0.405c-0.347,0.023-1.915,0.352-2.162,0.104
					c-0.144-0.131-0.134-0.854-0.175-1.041c-0.039-0.23-0.188-0.967-0.389-1.853c-0.346-1.472-0.832-3.384-1.211-4.222
					c-0.278-0.604-7.304-10.753-7.543-12.231c-0.277-1.788-0.248-3.697-0.376-5.515l-0.522-7.6
					c-0.035-0.563-0.126-1.166-0.118-1.735c0.052-1.723,0.69-3.522,2.135-4.388c0.898-0.542,2.404-0.797,3.361-0.11
					c0.759,0.553,0.989,1.662,1.214,2.521c0.32,1.238,0.394,2.529,0.445,3.813c0.055,1.64,0.553,2.26,0.899,1.954
					c0.489-0.409,0.123-1.871,0.092-2.393l-2.405-35.001c-0.064-0.993-0.232-2.04-0.204-3.037c0.012-0.376,0.186-0.724,0.432-1.026
					c0.064-0.083,0.129-0.164,0.205-0.238c0.007-0.011,0.021-0.021,0.03-0.032c0.166-0.163,0.343-0.33,0.518-0.467
					c1.575-1.308,3.795-1.471,5.566-0.429c0.198,0.109,0.388,0.23,0.563,0.36c0.01,0.008,0.022,0.017,0.033,0.025
					c0.224,0.17,0.42,0.354,0.575,0.568c0.179,0.249,0.301,0.539,0.335,0.874c0.054,0.561,0.075,1.113,0.117,1.679
					c0.143,2.124,1.525,24.498,1.761,25.719c0.182,0.96,1.22,0.822,1.25-0.126c0.038-0.941-0.126-1.935-0.195-2.873
					c-0.09-1.307-0.504-5.67-0.257-6.459c0.694-2.155,4.133-2.809,5.923-1.775c1.167,0.665,1.751,1.913,1.836,3.219l0.255,3.691
					c0.061,0.914,0.012,1.923,0.193,2.817c0.178,0.846,0.721,0.825,1.325,0.405c0.554-0.387,0.539-3.925,0.459-5.08
					c-0.1-1.396,0.096-2.734,1.134-3.783c1.416-1.438,3.634-1.471,5.297-0.424c1.213,0.758,1.395,1.864,1.481,3.151
					c0.088,1.286,0.104,6.174,1.175,6.16c0.471,0.003,0.518-1.616,0.524-2.066c0.002-1.895,1.496-3.522,3.388-3.645
					c1.521-0.096,2.935,0.777,3.749,2.029c-0.004-0.007-0.003-0.014-0.003-0.014c0.022,0.016,0.037,0.038,0.058,0.09
					c0.016,0.016,0.031,0.036,0.038,0.063c0.011,0.007,0.01,0.013,0.02,0.021l-0.001,0.014c0.304,1.011,0.985,13.354,1.331,18.451
					l0.396,5.689c0.162,2.465-0.906,5.007-2.073,7.129c-0.3,0.537-1.423,5.376-1.516,5.962c-0.032,0.212,0.194,3.648,0.353,6.064
					c0.069,1.005,0.121,1.832,0.145,2.179C231.509,127.373,231.626,127.726,231.434,127.864z"/>
				
					<rect x="197.115" y="125.982" transform="matrix(0.9977 -0.0684 0.0684 0.9977 -8.3563 15.0457)" fill="#FFFFFF" width="37.023" height="7.238"/>
				<polygon fill="#808285" points="239.8,152.076 239.395,130.334 193.121,133.508 194.892,154.651 				"/>
				<path fill="#F2C4A5" d="M199.873,64.167c-1.814,0.39-3.545-1.297-3.853-3.75l-0.248-2.049c-0.021-0.166-0.039-0.348-0.039-0.516
					c0.166-0.163,0.343-0.33,0.518-0.467c1.575-1.308,3.795-1.471,5.566-0.429c0.198,0.109,0.388,0.23,0.563,0.36
					c0.01,0.008,0.022,0.017,0.033,0.025l0.198,1.639C202.912,61.435,201.677,63.768,199.873,64.167z"/>
			</g>
		</g>
		<g>
			<path fill="#1CA2C6" d="M210.81,45.675c3.677,0,6.017,2.481,6.017,6.051c0,3.149-2.041,4.75-3.765,4.75
				c-1.002,0-1.776-0.458-1.934-1.338h-0.035c-0.529,0.706-1.373,1.196-2.128,1.196c-1.286,0-2.218-0.965-2.218-2.567
				c0-2.005,1.425-4.205,3.467-4.205c0.596,0,1.053,0.264,1.37,0.863h0.035l0.23-0.722h1.283l-0.756,3.712
				c-0.3,1.195,0.017,1.776,0.878,1.776c1.092,0,2.235-1.301,2.235-3.395c0-2.674-1.513-4.856-4.837-4.856
				c-3.08,0-6.068,2.621-6.068,6.651c0,3.466,2.322,5.259,5.19,5.259c0.984,0,1.986-0.298,2.76-0.72l0.476,1.125
				c-1.057,0.598-2.163,0.88-3.396,0.88c-3.484,0-6.438-2.183-6.438-6.473C203.176,48.841,206.676,45.675,210.81,45.675z
				 M209.385,55.016c0.423,0,0.863-0.264,1.392-0.914l0.457-2.587c-0.264-0.419-0.562-0.616-0.968-0.616
				c-1.213,0-1.952,1.567-1.952,2.744C208.313,54.594,208.735,55.016,209.385,55.016z"/>
		</g>
	</g>
	<g id="_x31_">
		<g>
			<path fill="#C49A6C" d="M256.316,11.187c-2.886,0.015-5.212,2.366-5.196,5.253l0.288,54.277c0.015,2.887,2.367,5.211,5.251,5.197
				l19.847-0.105l-0.343-64.727L256.316,11.187z"/>
			<path fill="#B0875A" d="M296.579,10.975l-20.416,0.107l0.343,64.727l20.415-0.105c2.887-0.017,5.214-2.367,5.198-5.253
				l-0.288-54.279C301.816,13.285,299.465,10.959,296.579,10.975z"/>
			
				<rect x="236.222" y="32.005" transform="matrix(-0.0053 -1 1 -0.0053 224.5916 308.5566)" fill="#6D6E71" width="59.073" height="21.142"/>
			
				<rect x="276.33" y="12.928" transform="matrix(1 -0.0053 0.0053 1 -0.2223 1.5313)" fill="#56585D" width="21.711" height="59.071"/>
			
				<rect x="237.801" y="32.494" transform="matrix(-0.0053 -1 1 -0.0053 225.0232 309.0454)" fill="#FFFFFF" width="56.828" height="20.228"/>
			
				<rect x="276.329" y="14.085" transform="matrix(1 -0.0053 0.0053 1 -0.2215 1.522)" fill="#E6E7E8" width="20.797" height="56.828"/>
			<path fill="#BCBEC0" d="M268.797,10.221l0.009,1.68c0.006,1.197,0.981,2.161,2.177,2.156l5.194-0.028l-0.02-3.847L268.797,10.221
				z"/>
			<path fill="#A2A7AC" d="M276.158,10.182l0.02,3.847l5.764-0.031c1.197-0.007,2.161-0.981,2.154-2.177l-0.008-1.68L276.158,10.182
				z"/>
			<path fill="#939598" d="M266.903,11.912c-1.13,0.006-2.042,0.927-2.036,2.057l0.001,0.239c0.006,1.13,0.928,2.042,2.057,2.035
				l9.264-0.048l-0.022-4.332L266.903,11.912z"/>
			<path fill="#7B7E84" d="M286,11.811l-9.833,0.052l0.022,4.332l9.832-0.053c1.131-0.005,2.042-0.927,2.037-2.058l-0.001-0.238
				C288.052,12.716,287.13,11.804,286,11.811z"/>
			<g>
				<g>
					<path fill="#808285" d="M261.469,29.617l6.777-0.037l-0.035-6.778l-6.778,0.037L261.469,29.617z M261.938,23.339l5.772-0.03
						l0.031,5.772l-5.774,0.031L261.938,23.339z"/>
					
						<rect x="272.941" y="23.274" transform="matrix(-0.0056 -1 1 -0.0056 249.032 299.6579)" fill="#808285" width="1.13" height="5.474"/>
					
						<rect x="276.243" y="25.391" transform="matrix(1 -0.0053 0.0053 1 -0.133 1.4986)" fill="#686C71" width="15.361" height="1.13"/>
				</g>
				<g>
					<path fill="#808285" d="M261.559,46.527l6.778-0.035l-0.037-6.777l-6.776,0.035L261.559,46.527z M262.027,40.25l5.774-0.031
						l0.031,5.775l-5.775,0.03L262.027,40.25z"/>
					<rect x="270.859" y="42.357" fill="#808285" width="5.474" height="1.129"/>
					
						<rect x="276.332" y="42.302" transform="matrix(1 -0.0053 0.0053 1 -0.2222 1.4993)" fill="#686C71" width="15.36" height="1.129"/>
				</g>
				<g>
					<path fill="#808285" d="M261.649,63.44l6.775-0.037l-0.035-6.776l-6.779,0.035L261.649,63.44z M262.118,57.161l5.772-0.03
						l0.03,5.772l-5.772,0.03L262.118,57.161z"/>
					
						<rect x="273.121" y="57.096" transform="matrix(-0.0052 -1 1 -0.0052 215.273 333.8255)" fill="#808285" width="1.129" height="5.475"/>
					
						<rect x="276.422" y="59.214" transform="matrix(1 -0.0054 0.0054 1 -0.317 1.5271)" fill="#686C71" width="15.361" height="1.128"/>
				</g>
			</g>
			<path fill="#808285" d="M275.185,7.536c-0.003-0.588,0.404-1.082,0.952-1.214l-0.006-1.271c-1.248,0.148-2.216,1.203-2.21,2.491
				l-2.971,0.015c-1.197,0.007-2.161,0.981-2.154,2.178l0.002,0.486l7.361-0.039l-0.007-1.445
				C275.601,8.611,275.188,8.124,275.185,7.536z"/>
			<path fill="#686C71" d="M284.085,9.654c-0.007-1.196-0.981-2.162-2.177-2.156l-2.972,0.018c-0.006-1.386-1.135-2.503-2.52-2.494
				c-0.098,0-0.19,0.019-0.285,0.029l0.006,1.271c0.092-0.021,0.188-0.037,0.286-0.037c0.686-0.003,1.246,0.55,1.25,1.237
				c0.003,0.688-0.55,1.247-1.237,1.25c-0.099,0.002-0.194-0.014-0.285-0.035l0.007,1.445l7.93-0.041L284.085,9.654z"/>
		</g>
		<g>
			<path fill="#00A79D" d="M282.495,54.579c0.632-0.68,1.613-1.743,3.354-3.631c-0.924-0.623-1.849-1.246-2.772-1.87
				c-1.096,2.325-1.712,3.633-2.106,4.473L282.495,54.579z"/>
			<polygon fill="#00A79D" points="305.681,13.007 308.533,8.774 312.213,14.331 310.153,17.388 			"/>
			<path fill="#414042" d="M302.003,29.752l-5.354-3.607c-0.343,0.542-0.681,1.078-1.013,1.613l5.254,3.539
				C301.26,30.789,301.631,30.274,302.003,29.752z"/>
			<path fill="#414042" d="M294.409,29.736c-3.465,5.642-6.686,11.26-11.574,19.41c1.013,0.683,2.028,1.366,3.041,2.05
				c5.717-7.594,9.715-12.687,13.639-18.019L294.409,29.736z"/>
			<path fill="#414042" d="M305.664,14.064c-0.032-0.033-0.785-0.784-2.198-0.315c-1.566,0.521-3.292,2.318-5.128,5.34
				c-3.784,5.991-8.902,13.22-8.953,13.29c0,0,3.169,0.411,4.132-3.333c1.401-2.071,7.688-10.708,7.751-10.792
				c0.004-0.008,0.464-0.618,1.004-0.798c0.274-0.091,0.687-0.129,1.098,0.598c0.339,0.598,0.679,0.631,0.904,0.558
				c0.901-0.3,1.344-3.396,1.458-4.339l0.015-0.122L305.664,14.064z"/>
			<path fill="#00A79D" d="M300.89,31.297l-5.254-3.539c-0.417,0.663-0.822,1.321-1.227,1.979l5.106,3.441
				C299.973,32.556,300.432,31.932,300.89,31.297z"/>
			<path fill="#414042" d="M311.158,16.194c-1.794-1.209-3.587-2.417-5.381-3.625c-3.773,5.356-6.604,9.599-9.127,13.576
				l5.354,3.607C304.742,25.921,307.612,21.703,311.158,16.194z"/>
			<path fill="#414042" d="M280.97,53.551c-0.156,0.291-0.317,0.649-0.45,1.071c-0.202,0.644-0.267,1.22-0.281,1.661
				c0.374-0.187,0.813-0.448,1.273-0.8c0.4-0.31,0.725-0.623,0.982-0.903C281.986,54.237,281.479,53.894,280.97,53.551z"/>
			<polygon fill="#BCBEC0" points="306.298,15.399 298.327,27.275 300.752,28.909 308.821,17.057 			"/>
		</g>
	</g>
</g>
</svg>
