<?xml version="1.0" encoding="utf-8"?>
<!-- Generator: Adobe Illustrator 16.0.0, SVG Export Plug-In . SVG Version: 6.00 Build 0)  -->
<!DOCTYPE svg PUBLIC "-//W3C//DTD SVG 1.1//EN" "http://www.w3.org/Graphics/SVG/1.1/DTD/svg11.dtd">
<svg version="1.1" id="Layer_1" xmlns="http://www.w3.org/2000/svg" xmlns:xlink="http://www.w3.org/1999/xlink" x="0px" y="0px"
	 width="13.052px" height="25px" viewBox="0 0 13.052 25" enable-background="new 0 0 13.052 25" xml:space="preserve">
<path fill-rule="evenodd" clip-rule="evenodd" fill="#00A4FF" d="M0.006,15.999c0-1.732,0-3.464,0-5.196
	c0.056-0.093,0.113-0.174,0.222-0.225c1.063-0.489,1.694-1.324,1.979-2.45c0.206-0.815,0.331-1.645,0.463-2.473
	c0.243-1.531,0.85-2.913,1.67-4.213c0.213-0.337,0.42-0.679,0.611-1.029c0.088-0.161,0.182-0.318,0.354-0.406
	c2.35,0,4.698,0,7.047,0c0.604,0.443,1.309,0.536,2.025,0.59c0.971,0.071,1.903-0.071,2.792-0.473
	c0.136-0.061,0.293-0.055,0.431-0.117c1.133,0,2.266,0,3.398,0c0.095,0.131,0.006,0.219-0.073,0.305
	C19.793,1.53,18.44,2.354,16.79,2.664c-0.563,0.106-1.129,0.201-1.682,0.357c-0.665,0.188-1.18,0.72-1.242,1.292
	c-0.133,1.239,0.477,2.046,1.54,2.523c0.69,0.31,1.441,0.399,2.181,0.501c1.545,0.213,2.983,0.711,4.346,1.468
	c0.916,0.508,1.833,1.021,2.827,1.371c0.101,0.035,0.168,0.103,0.235,0.176c0,1.683,0,3.364,0,5.048
	c-0.118,0.131-0.268,0.069-0.399,0.05c-0.666-0.103-1.335-0.158-2.01-0.139c-1.333,0.036-2.582,0.349-3.686,1.127
	c-1.031,0.728-1.718,1.686-1.874,2.963c-0.12,0.976,0.07,1.883,0.688,2.68c0.332,0.429,0.675,0.845,1.07,1.216
	c0.454,0.426,0.844,0.916,1.293,1.35c0.096,0.092,0.189,0.195,0.119,0.349c-0.983,0-1.966,0-2.949,0
	c-0.328-0.115-0.56-0.377-0.839-0.564c-0.334-0.223-0.685-0.406-1.073-0.504c-0.571-0.145-1.015,0.097-1.397,0.495
	c-0.181,0.189-0.295,0.442-0.538,0.573c-1.116,0-2.232,0-3.349,0c-0.082-0.11-0.07-0.24-0.059-0.361
	c0.101-1.037-0.323-1.897-0.898-2.708C8.44,21.005,7.764,20.1,7.034,19.236c-0.623-0.74-1.285-1.441-2.142-1.921
	c-0.535-0.299-1.116-0.471-1.71-0.607c-0.955-0.221-1.925-0.366-2.89-0.539C0.17,16.147,0.072,16.105,0.006,15.999z"/>
<path fill-rule="evenodd" clip-rule="evenodd" fill="#008CFF" d="M0.006,15.999c0.923,0.167,1.848,0.324,2.769,0.502
	c1.037,0.2,2.038,0.496,2.877,1.18c0.738,0.603,1.356,1.318,1.946,2.061c0.553,0.696,1.095,1.401,1.601,2.132
	c0.389,0.563,0.754,1.145,0.864,1.836c0.068,0.427,0.078,0.858-0.011,1.286c-0.999,0-1.999,0-2.999,0
	c-0.131-0.12-0.07-0.267-0.044-0.399c0.257-1.284-0.004-2.45-0.833-3.467c-0.795-0.973-1.783-1.59-3.079-1.684
	c-0.912-0.066-1.785,0.102-2.665,0.276c-0.144,0.028-0.291,0.096-0.426-0.024C0.006,18.465,0.006,17.232,0.006,15.999z"/>
<path fill-rule="evenodd" clip-rule="evenodd" fill="#00A4FF" d="M0.006,19.697c0.856-0.2,1.718-0.395,2.602-0.394
	c1.27,0.002,2.38,0.392,3.286,1.343c0.658,0.691,1.134,1.456,1.276,2.398c0.091,0.6,0.064,1.208-0.093,1.804
	c-0.013,0.048-0.017,0.098-0.024,0.146c-0.766,0-1.533,0-2.299,0c-0.131-0.167-0.057-0.353-0.039-0.528
	c0.041-0.393,0.05-0.781-0.048-1.165c-0.223-0.88-0.929-1.412-1.894-1.441c-0.662-0.02-1.308,0.104-1.955,0.218
	c-0.18,0.031-0.361,0.06-0.541,0.094c-0.107,0.021-0.197,0.009-0.271-0.075C0.006,21.297,0.006,20.497,0.006,19.697z"/>
<path fill-rule="evenodd" clip-rule="evenodd" fill="#008CFF" d="M5.304,0.007C4.973,0.67,4.575,1.294,4.188,1.924
	C3.385,3.227,2.926,4.644,2.7,6.15C2.563,7.078,2.44,8.015,2.066,8.888c-0.361,0.841-0.98,1.43-1.81,1.806
	c-0.083,0.038-0.168,0.072-0.251,0.109c0-0.601,0-1.2,0-1.8c0.113-0.276,0.39-0.402,0.572-0.616C1.06,7.825,1.291,7.155,1.443,6.449
	C1.63,5.58,1.707,4.69,1.941,3.83c0.213-0.784,0.538-1.52,0.927-2.229c0.232-0.424,0.439-0.859,0.653-1.293
	C3.587,0.177,3.67,0.07,3.805,0.007C4.304,0.007,4.804,0.007,5.304,0.007z"/>
<path fill-rule="evenodd" clip-rule="evenodd" fill="#008CFF" d="M0.006,22.097c0.555-0.094,1.109-0.194,1.666-0.277
	c0.602-0.09,1.206-0.146,1.8,0.042c0.808,0.258,1.336,0.949,1.379,1.798c0.023,0.448,0.001,0.896-0.097,1.336
	c-0.983,0-1.966,0-2.949,0c-0.492-0.281-1.008-0.486-1.586-0.493c-0.089-0.001-0.156-0.043-0.213-0.106
	C0.006,23.629,0.006,22.863,0.006,22.097z"/>
<path fill-rule="evenodd" clip-rule="evenodd" fill="#00A4FF" d="M3.805,0.007C3.306,1.076,2.675,2.081,2.263,3.19
	C2.004,3.888,1.874,4.614,1.755,5.344C1.61,6.22,1.501,7.106,1.057,7.9C0.801,8.357,0.463,8.737,0.006,9.003
	c0-0.767,0-1.532,0-2.299c0.158-0.762,0.28-1.531,0.33-2.307c0.063-0.967,0.365-1.85,0.84-2.683c0.275-0.483,0.576-0.95,0.854-1.433
	c0.068-0.12,0.153-0.214,0.275-0.275C2.805,0.007,3.305,0.007,3.805,0.007z"/>
<path fill-rule="evenodd" clip-rule="evenodd" fill="#008CFF" d="M2.305,0.007C1.896,0.815,1.357,1.548,0.972,2.368
	C0.666,3.015,0.519,3.695,0.45,4.403c-0.07,0.739-0.1,1.49-0.386,2.193C0.05,6.634,0.025,6.668,0.006,6.704
	c0-2.151,0.003-4.303-0.005-6.454C0,0.061,0.021-0.006,0.236,0C0.926,0.02,1.615,0.007,2.305,0.007z"/>
<path fill-rule="evenodd" clip-rule="evenodd" fill="#008CFF" d="M17.599,0.007c-0.673,0.431-1.419,0.627-2.205,0.7
	c-0.73,0.067-1.455,0.004-2.166-0.156c-0.345-0.078-0.694-0.186-0.877-0.544C14.1,0.007,15.85,0.007,17.599,0.007z"/>
<path fill-rule="evenodd" clip-rule="evenodd" fill="#00A4FF" d="M0.006,24.396c0.531-0.017,1.044,0.054,1.513,0.327
	c0.116,0.068,0.214,0.158,0.286,0.272c-0.558,0-1.116-0.004-1.675,0.003C0.023,25-0.005,24.979,0.003,24.87
	C0.015,24.713,0.006,24.554,0.006,24.396z"/>
<path fill-rule="evenodd" clip-rule="evenodd" fill="#008CFF" d="M8.762,0.148c0.657,0.092,1.396,0.15,2.085,0.455
	c0.594,0.262,0.823,0.75,0.908,1.356c0.18,1.29,0.273,2.595,0.7,3.842c0.468,1.369,1.392,2.225,2.788,2.604
	c1.052,0.287,2.132,0.455,3.169,0.799c1.322,0.439,2.542,1.065,3.604,1.983c0.21,0.182,0.391,0.38,0.546,0.607
	c0.31,0.457,0.212,0.757-0.233,1.078c-0.324,0.233-0.694,0.394-1.058,0.56c-1.372,0.627-2.726,1.284-3.906,2.24
	c-0.765,0.619-1.378,1.365-1.866,2.22c-0.415,0.729-0.743,1.508-1.249,2.187c-0.432,0.58-1.014,0.793-1.706,0.708
	c-1.728-0.213-3.354-1.682-3.792-3.379c-0.157-0.608-0.077-1.202,0.021-1.804c0.07-0.431,0.154-0.859,0.1-1.309
	c-0.074-0.604-0.436-0.97-0.925-1.245c-0.495-0.278-1.055-0.349-1.602-0.45c-0.539-0.101-1.085-0.164-1.617-0.305
	c-0.842-0.222-1.25-0.732-1.328-1.594C3.298,9.579,3.424,8.466,3.498,7.348c0.063-0.976,0.225-1.93,0.551-2.854
	c0.34-0.962,0.879-1.805,1.525-2.586c0.488-0.591,1.049-1.086,1.738-1.432C7.745,0.26,8.205,0.168,8.762,0.148z"/>
<path fill-rule="evenodd" clip-rule="evenodd" fill="#00A4FF" d="M4.601,7.124c-0.01-1.338,0.391-2.541,1.246-3.57
	C6.409,2.878,7.14,2.438,8.028,2.376c0.561-0.039,1.072,0.192,1.531,0.52c0.472,0.335,0.747,0.82,0.985,1.324
	c0.486,1.027,0.734,2.139,1.12,3.202c0.188,0.518,0.411,1.015,0.771,1.444c0.475,0.57,1.114,0.821,1.806,0.981
	c0.819,0.189,1.643,0.367,2.411,0.718c0.323,0.147,0.645,0.309,0.903,0.567c0.587,0.587,0.585,1.26,0.02,1.872
	c-0.621,0.671-1.39,1.131-2.177,1.565c-0.442,0.245-0.895,0.476-1.403,0.574c-0.446,0.087-0.919-0.114-1.133-0.521
	c-0.269-0.509-0.489-1.038-0.72-1.563c-0.29-0.665-0.673-1.263-1.312-1.654c-0.45-0.275-0.958-0.365-1.467-0.454
	c-0.826-0.144-1.667-0.2-2.474-0.451c-0.488-0.151-0.959-0.342-1.346-0.685C5.009,9.34,4.779,8.705,4.652,8.02
	C4.598,7.722,4.606,7.424,4.601,7.124z"/>
<path fill-rule="evenodd" clip-rule="evenodd" fill="#008CFF" d="M8.104,9.009C7.241,8.94,6.432,8.624,6.053,7.645
	C5.773,6.923,5.854,6.213,6.171,5.519c0.173-0.38,0.419-0.694,0.763-0.933c0.889-0.618,1.73-0.318,2.287,0.389
	c0.495,0.628,0.75,1.381,0.771,2.176C10.026,8.395,9.49,8.935,8.104,9.009z"/>
</svg>
