<?xml version="1.0" encoding="utf-8"?>
<!-- Generator: Adobe Illustrator 16.0.0, SVG Export Plug-In . SVG Version: 6.00 Build 0)  -->
<!DOCTYPE svg PUBLIC "-//W3C//DTD SVG 1.1//EN" "http://www.w3.org/Graphics/SVG/1.1/DTD/svg11.dtd">
<svg version="1.1" id="Layer_1" xmlns="http://www.w3.org/2000/svg" xmlns:xlink="http://www.w3.org/1999/xlink" x="0px" y="0px"
	 width="250.984px" height="207.787px" viewBox="232.536 156.384 250.984 207.787"
	 enable-background="new 232.536 156.384 250.984 207.787" xml:space="preserve">
<g>
	<circle fill="#FC6581" cx="336.428" cy="260.278" r="103.893"/>
	<g>
		<path fill="#AAD0E2" d="M449.178,238.966c-0.793,0-1.584,0-2.305,0.072c-2.664-15.335-16.055-26.999-32.111-26.999
			c-7.344,0-14.111,2.448-19.584,6.552c-5.902-10.368-17.063-17.423-29.807-17.423c-18.936,0-34.344,15.407-34.344,34.343
			c0,1.151,0.072,2.375,0.217,3.527c-0.791-0.072-1.584-0.072-2.375-0.072c-18.936,0-34.271,15.336-34.271,34.271
			s15.336,34.271,34.271,34.271h120.309c18.936,0,34.342-15.336,34.342-34.271S468.114,238.966,449.178,238.966z"/>
		<path fill="#B3D5E3" d="M449.178,238.966c-0.793,0-1.584,0-2.305,0.072c-2.664-15.335-16.055-26.999-32.111-26.999
			c-7.344,0-14.111,2.448-19.584,6.552c-5.902-10.368-17.063-17.423-29.807-17.423c-18.936,0-34.344,15.407-34.344,34.343
			c0,1.151,0.072,2.375,0.217,3.527c-0.791-0.072-1.584-0.072-2.375-0.072c-18.936,0-34.271,15.336-34.271,34.271
			s15.336,34.271,34.271,34.271h120.309c18.936,0,34.342-15.336,34.342-34.271S468.114,238.966,449.178,238.966z"/>
		<path fill="#C3DEE8" d="M379.268,208.799c-3.168-1.008-6.553-1.583-10.08-1.583c-18.287,0-33.119,14.831-33.119,33.119
			c0,1.151,0.072,2.304,0.215,3.384c-0.791,0-1.512-0.072-2.303-0.072c-18.215,0-33.047,14.832-33.047,33.119
			c0,5.977,1.584,11.592,4.391,16.488c-1.295-14.977,1.008-43.486,36.791-42.768C341.756,240.767,343.485,210.167,379.268,208.799z"
			/>
		<path fill="#A5C7DD" d="M345.428,307.509h103.75c18.936,0,34.342-15.336,34.342-34.271c0-4.031-0.719-7.92-2.016-11.52
			C458.969,306.14,382.723,302.181,345.428,307.509z"/>
		<polygon fill="#33854C" points="408.499,322.269 408.499,278.997 369.62,278.997 369.62,322.269 352.917,322.269 389.059,358.411 
			425.202,322.269 		"/>
		<path fill="#379050" d="M369.62,305.132v2.377h38.879v-6.408C395.108,303.116,381.715,304.196,369.62,305.132z"/>
		<polygon fill="#49A054" points="408.499,307.509 369.62,307.509 369.62,322.269 352.917,322.269 389.059,358.411 425.202,322.269 
			408.499,322.269 		"/>
		<polygon fill="#379050" points="389.059,358.411 383.444,352.795 425.202,322.269 		"/>
	</g>
</g>
</svg>
