<?xml version="1.0" encoding="utf-8"?>
<!-- Generator: Adobe Illustrator 16.0.0, SVG Export Plug-In . SVG Version: 6.00 Build 0)  -->
<!DOCTYPE svg PUBLIC "-//W3C//DTD SVG 1.1//EN" "http://www.w3.org/Graphics/SVG/1.1/DTD/svg11.dtd">
<svg version="1.1" id="Layer_1" xmlns="http://www.w3.org/2000/svg" xmlns:xlink="http://www.w3.org/1999/xlink" x="0px" y="0px"
	 width="230.617px" height="207.787px" viewBox="232.536 156.384 230.617 207.787"
	 enable-background="new 232.536 156.384 230.617 207.787" xml:space="preserve">
<g>
	<circle fill="#F7B150" cx="335.684" cy="260.278" r="101.663"/>
	<g>
		<path fill="#0E9347" d="M453.903,304.522H319.621c-3.733,0-6.763-3.028-6.763-6.764v-73.834c0-3.663,3.03-6.763,6.763-6.763
			h134.282c3.664,0,6.764,3.1,6.764,6.763v73.834C460.667,301.494,457.567,304.522,453.903,304.522z"/>
		<path fill="#0D8944" d="M437.136,277.68c-7.75,0-14.724,3.664-18.81,9.652c-3.313-1.62-7.047-3.03-11.414-3.03
			c-11.766,0-21.558,8.807-23.18,20.15h70.17c3.313,0,5.99-2.325,6.764-5.707c-1.408-11.766-11.481-21.137-23.53-21.137V277.68
			L437.136,277.68z"/>
		<path fill="#3BB54A" d="M440.517,297.759H333.078c0-7.327-5.988-13.387-13.386-13.387v-46.991c7.397,0,13.386-5.988,13.386-13.386
			h107.439c0,7.397,5.99,13.386,13.386,13.386v46.991C446.507,284.372,440.517,290.432,440.517,297.759z"/>
		<path fill="#0E9347" d="M437.136,277.68c-7.75,0-14.724,3.664-18.81,9.652c-3.313-1.62-7.047-3.03-11.414-3.03
			c-9.441,0-17.472,5.355-21.136,13.387h54.74c0-7.328,5.706-13.104,13.105-13.387c-4.369-4.086-10.074-6.764-16.416-6.764
			L437.136,277.68z"/>
		<ellipse fill="#0E9347" cx="386.763" cy="260.842" rx="26.842" ry="30.225"/>
		<circle fill="#0E9347" cx="346.463" cy="260.842" r="6.764"/>
		<circle fill="#0E9347" cx="427.131" cy="260.842" r="6.764"/>
		<circle fill="#FFCA5D" cx="400.219" cy="307.833" r="23.46"/>
		<circle fill="#F6B545" cx="430.443" cy="301.141" r="23.461"/>
		<path fill="#FFCB5B" d="M430.443,277.68c-13.104,0-23.46,10.428-23.46,23.461c0,13.104,10.426,23.461,23.46,23.461
			c13.105,0,23.46-10.428,23.46-23.461C453.903,288.036,443.477,277.68,430.443,277.68z M430.443,317.908
			c-9.441,0-16.838-7.397-16.838-16.768c0-9.44,7.396-16.839,16.838-16.839c9.37,0,16.768,7.398,16.768,16.839
			C447.21,310.511,439.813,317.908,430.443,317.908z"/>
		<path fill="#F6B545" d="M430.443,324.319L430.443,324.319c13.105,0.352,23.46-10.427,23.46-23.179h-0.352
			c-1.69,0-3.028,1.339-3.381,3.029c-0.634,4.72-3.029,9.019-6.342,12.118c-2.678,2.678-6.411,4.297-10.427,5.002
			c-1.689,0-3.029,1.409-3.029,3.1L430.443,324.319z"/>
		<path fill="#FFE27A" d="M430.443,278.032L430.443,278.032c-13.104-0.353-23.46,10.427-23.46,23.178h0.353
			c1.691,0,3.029-1.408,3.312-3.028c0.633-4.722,3.029-9.088,6.41-12.117c2.678-2.678,6.342-4.37,10.428-5.073
			c1.62,0,3.028-1.409,3.028-3.029L430.443,278.032z"/>
		<path fill="#F19920" d="M416,303.536c0-9.441,7.398-16.839,16.837-16.839c4.018,0,7.751,1.41,10.711,4.086
			c-3.312-4.086-7.75-6.411-13.105-6.411c-9.441,0-16.838,7.397-16.838,16.838c0,5.355,2.324,9.653,6.059,12.753
			c-2.325-2.677-3.734-6.411-3.734-10.427H416L416,303.536z"/>
		<path fill="#FFCB5B" d="M440.517,311.567c-0.352,0-0.704,0-1.057-0.352c-0.633-0.705-0.633-1.691,0-2.326
			c2.043-2.043,3.101-5.072,3.101-7.749c0-1.057,0.634-1.69,1.62-1.69c1.057,0,1.691,0.634,1.691,1.69
			c0,3.663-1.409,7.327-3.664,10.004C441.503,311.567,440.8,311.567,440.517,311.567z"/>
		<path fill="#F19920" d="M442.843,320.938c-2.326-8.385-8.385-15.078-16.205-18.106c-1.338-7.75-6.34-14.373-12.681-18.46
			c-4.087,4.369-6.765,10.075-6.765,16.486c0,13.104,10.428,23.461,23.462,23.461c4.368,0.352,8.384-1.057,12.118-3.381H442.843z"/>
		<path fill="#E78825" d="M419.735,313.963c-2.326-3.1-4.086-6.764-4.086-10.709c0-4.721,2.042-9.088,5.353-12.117
			c-0.632-1.057-1.338-1.692-2.043-2.325c-3.31,3.029-5.354,7.397-5.354,12.47c0,5.355,2.324,9.723,6.059,12.751L419.735,313.963z"
			/>
		<path fill="#E78825" d="M427.131,303.184v4.649c0,2.044,1.34,3.383,3.312,3.383c2.044,0,3.313-1.41,3.313-3.383v-0.634
			c-2.043-1.619-4.298-3.029-6.692-4.016H427.131z"/>
		<path fill="#F6B545" d="M442.843,320.938c-0.635-2.256-1.408-4.299-2.678-6.342c-2.678,2.043-6.059,3.312-9.723,3.312
			c-9.441,0-16.838-7.397-16.838-16.768c0-5.073,2.044-9.44,5.425-12.47c-1.691-1.691-3.381-3.03-5.425-4.016
			c-4.015,4.297-6.692,10.003-6.692,16.414c0,13.104,10.426,23.461,23.46,23.461c4.721,0,8.736-1.409,12.471-3.734V320.938
			L442.843,320.938z"/>
		<path fill="#F19920" d="M441.857,317.908c-2.326,1.69-5.355,2.677-8.384,3.382c-1.692,0.352-3.03,1.62-3.03,3.312l0,0
			c4.721,0,8.736-1.41,12.471-3.663c-0.423-1.058-0.705-2.044-1.057-3.101V317.908z"/>
		<path fill="#FFCB5B" d="M413.605,284.655c-4.015,4.367-6.692,10.074-6.692,16.485h0.352c1.691,0,3.029-1.409,3.313-3.1
			c0.703-4.65,3.028-8.736,6.059-11.696c-1.058-0.351-2.044-0.986-3.101-1.689H413.605z"/>
		<circle fill="#F6B545" cx="400.219" cy="307.833" r="23.46"/>
		<path fill="#F19920" d="M396.836,324.671c0,2.325,0.354,4.369,0.986,6.694c0.706,0,1.692,0,2.326,0
			c13.103,0,23.46-10.427,23.46-23.461c0-2.255-0.352-4.298-0.986-6.694c-0.703,0-1.691,0-2.324,0
			C407.193,301.21,396.836,311.638,396.836,324.671z"/>
		<path fill="#FFCB5B" d="M400.219,284.372c-13.104,0-23.462,10.428-23.462,23.461c0,13.105,10.428,23.532,23.462,23.532
			c13.104,0,23.46-10.427,23.46-23.532C423.679,294.729,413.251,284.372,400.219,284.372z M400.219,324.671
			c-9.37,0-16.769-7.396-16.769-16.838c0-9.37,7.398-16.767,16.769-16.767c9.439,0,16.838,7.396,16.838,16.767
			C417.057,317.274,409.659,324.671,400.219,324.671z"/>
		<path fill="#F6B545" d="M400.219,331.013L400.219,331.013c13.104,0.353,23.46-10.428,23.46-23.18h-0.352
			c-1.69,0-3.029,1.411-3.313,3.1c-0.702,4.649-3.028,9.02-6.41,12.048c-2.678,2.677-6.341,4.368-10.428,5.073
			c-1.62,0-3.028,1.409-3.028,3.028L400.219,331.013z"/>
		<path fill="#FFE27A" d="M400.219,284.655L400.219,284.655c-13.104-0.354-23.462,10.427-23.462,23.178h0.354
			c1.69,0,3.03-1.339,3.311-3.029c0.705-4.72,3.1-9.018,6.412-12.046c2.678-2.678,6.34-4.369,10.428-5.144
			c1.689,0,3.029-1.34,3.029-3.03L400.219,284.655z"/>
		<path fill="#F19920" d="M385.777,310.229c0-9.371,7.327-16.77,16.767-16.77c4.086,0,7.75,1.34,10.708,4.018
			c-3.31-4.018-7.748-6.341-13.103-6.341c-9.37,0-16.768,7.396-16.768,16.768c0,5.426,2.324,9.722,5.988,12.751
			c-2.326-2.676-3.664-6.34-3.664-10.426H385.777L385.777,310.229z"/>
		<path fill="#FFCB5B" d="M410.293,318.26c-0.352,0-0.635,0-0.986-0.352c-0.705-0.634-0.705-1.62,0-2.326
			c1.973-2.042,3.029-5.071,3.029-7.749c0-0.986,0.635-1.62,1.621-1.62c1.057,0,1.691,0.634,1.691,1.62
			c0,3.734-1.34,7.397-3.664,10.075C411.28,318.26,410.577,318.26,410.293,318.26z"/>
		<path fill="#F19920" d="M405.855,301.845c0.142-0.141,0.494-0.635,0.494-0.775h-11.272c-0.071,0.071-1.058,1.48-1.058,1.622h2.96
			c0.704,0,1.55,0.281,2.184,0.563c0.493,0.282,1.128,0.776,1.338,1.269h-5.424l-1.058,1.69c2.185,0,4.438,0,6.622,0h0.143
			c-0.071,1.339-0.986,2.255-2.043,2.677c-0.564,0.212-1.199,0.424-1.833,0.424c-1.267,0.07-1.267,0-2.254,0
			c0,0.281,0,0.704,0,0.985c0,0.846-0.07,0.494,0.423,1.128l0.703,0.775c0.142,0.211,0.283,0.352,0.424,0.563
			c0.14,0.211,0.281,0.353,0.493,0.634c0.068,0,0.14,0.07,0.211,0.281l3.453,4.087c0.14,0.212,0.28,0.352,0.423,0.492
			c0.21,0.213,0.352,0.494,0.493,0.494c0.702,0,1.76,0,2.395,0c0-0.494,0-0.423-0.281-0.705l-0.775-0.985
			c-0.142-0.142-0.281-0.354-0.352-0.494c-1.551-1.831-2.96-3.733-4.51-5.495c-0.141-0.211-0.353-0.422-0.353-0.563
			c0.141,0,0.775-0.071,1.128-0.142c0.351-0.07,0.704-0.14,0.986-0.281c0.704-0.211,1.269-0.493,1.69-0.844
			c0.986-0.706,1.55-1.551,1.831-2.679c0.07-0.142,0.07-0.422,0.141-0.493h2.044c0.142-0.142,1.057-1.62,1.057-1.69
			c-0.774,0-2.606,0-3.241,0c-0.071-0.494-0.281-1.058-0.563-1.409c-0.069-0.141-0.281-0.423-0.281-0.423c0.845,0,2.255,0,3.1,0
			l0.563-0.846V301.845L405.855,301.845z"/>
		<path fill="#F19920" d="M438.123,292.758c0.141-0.142,0.493-0.636,0.493-0.776h-11.272c-0.07,0.07-1.128,1.551-1.128,1.691h2.959
			c0.776,0,1.621,0.211,2.185,0.493c0.492,0.281,1.198,0.775,1.408,1.338h-5.424l-1.128,1.62c2.186,0,4.509,0,6.693,0h0.142
			c-0.071,1.409-0.987,2.256-2.043,2.678c-0.564,0.211-1.27,0.423-1.902,0.423c-1.198,0.07-1.198,0-2.255,0c0,0.282,0,0.775,0,1.057
			c0,0.775-0.071,0.493,0.493,1.057l0.705,0.775c0.141,0.211,0.281,0.423,0.423,0.633c0.142,0.212,0.28,0.354,0.422,0.564
			c0.07,0.071,0.142,0.142,0.212,0.283l3.522,4.155c0.14,0.211,0.281,0.353,0.423,0.495c0.212,0.21,0.352,0.422,0.493,0.422
			c0.634,0,1.762,0,2.395,0c0-0.422,0-0.353-0.352-0.636l-0.773-1.056c-0.143-0.142-0.284-0.353-0.354-0.494
			c-1.479-1.831-2.958-3.663-4.508-5.494c-0.142-0.142-0.352-0.353-0.352-0.492c0.139,0,0.773-0.071,1.125-0.142
			c0.425-0.071,0.776-0.143,1.057-0.283c0.635-0.211,1.198-0.563,1.621-0.915c0.985-0.704,1.55-1.48,1.833-2.677
			c0.07-0.142,0.07-0.424,0.14-0.494h2.043c0.142-0.14,1.128-1.619,1.128-1.689c-0.845,0-2.607,0-3.311,0
			c-0.071-0.494-0.283-1.058-0.564-1.41c-0.07-0.069-0.283-0.352-0.283-0.352c0.848,0,2.326,0,3.101,0l0.563-0.916L438.123,292.758
			L438.123,292.758z"/>
		<path fill="#F6B545" d="M415.649,301.494c0.634,2.042,1.408,4.086,1.408,6.339c0,9.441-7.398,16.838-16.838,16.838
			c-0.986,0-2.326,0-3.312-0.352v0.352c0,2.325,0.354,4.369,0.985,6.694c0.706,0,1.692,0,2.326,0
			c13.104,0,23.46-10.427,23.46-23.461c0-2.255-0.352-4.298-0.986-6.694c-0.634,0-1.691,0-2.323,0c-1.692,0-3.031,0-4.721,0.354
			V301.494z"/>
		<circle fill="#F6B545" cx="416.987" cy="327.983" r="23.46"/>
		<path fill="#FFCB5B" d="M416.987,304.522c-13.104,0-23.46,10.427-23.46,23.46c0,13.104,10.427,23.461,23.46,23.461
			c13.104,0,23.462-10.427,23.462-23.461C440.449,314.88,430.021,304.522,416.987,304.522z M416.987,344.821
			c-9.439,0-16.838-7.397-16.838-16.839c0-9.369,7.398-16.767,16.838-16.767c9.37,0,16.769,7.397,16.769,16.767
			C433.755,337.424,426.357,344.821,416.987,344.821z"/>
		<path fill="#F6B545" d="M416.987,351.162L416.987,351.162c13.104,0.353,23.462-10.427,23.462-23.18h-0.354
			c-1.69,0-3.101,1.409-3.382,3.03c-0.634,4.72-3.028,9.088-6.341,12.117c-2.678,2.678-6.41,4.368-10.428,5.073
			c-1.689,0-3.029,1.409-3.029,3.029L416.987,351.162z"/>
		<path fill="#FFE27A" d="M416.987,304.804L416.987,304.804c-13.104-0.352-23.46,10.427-23.46,23.179h0.352
			c1.62,0,3.029-1.338,3.313-3.028c0.632-4.722,3.028-9.019,6.41-12.118c2.677-2.678,6.341-4.298,10.356-5.073
			c1.691,0,3.1-1.339,3.1-3.029L416.987,304.804z"/>
		<path fill="#F19920" d="M402.543,330.379c0-9.44,7.398-16.769,16.84-16.769c4.016,0,7.748,1.339,10.708,4.016
			c-3.313-4.016-7.75-6.34-13.104-6.34c-9.439,0-16.838,7.396-16.838,16.768c0,5.354,2.324,9.722,6.059,12.752
			c-2.324-2.677-3.734-6.341-3.734-10.427H402.543L402.543,330.379z"/>
		<path fill="#FFCB5B" d="M427.131,338.41c-0.423,0-0.704,0-1.057-0.353c-0.634-0.634-0.634-1.691,0-2.325
			c2.044-2.043,3.03-5.072,3.03-7.75c0-0.986,0.704-1.619,1.69-1.619c0.985,0,1.691,0.633,1.691,1.619
			c0,3.734-1.409,7.398-3.735,10.075C428.119,338.41,427.414,338.41,427.131,338.41z"/>
		<path fill="#89C763" d="M398.035,245.765c0.213-0.352,0.986-1.268,1.057-1.55h-22.122c-0.141,0.142-2.042,2.958-2.184,3.241h5.848
			c1.408,0,3.171,0.422,4.157,0.986c0.986,0.563,2.253,1.55,2.677,2.606h-10.568l-2.184,3.24c4.298,0,8.806-0.069,13.033,0h0.213
			c-0.213,2.819-1.904,4.369-3.946,5.354c-1.128,0.493-2.396,0.775-3.733,0.846c-2.396,0.211-2.255,0-4.299-0.07
			c-0.07,0.635,0,1.409,0,2.043c0,1.55-0.142,0.986,0.774,2.185l1.41,1.55c0.281,0.353,0.564,0.775,0.916,1.126
			c0.281,0.354,0.563,0.706,0.845,1.058c0.142,0.212,0.283,0.353,0.423,0.493l6.834,8.032c0.282,0.353,0.563,0.774,0.845,1.127
			c0.425,0.493,0.705,0.915,1.128,0.915c1.27,0,3.383,0.071,4.649,0c0.071-0.845,0-0.703-0.563-1.268l-1.55-1.972
			c-0.281-0.282-0.493-0.636-0.774-0.916c-3.028-3.594-5.919-7.257-8.807-10.78c-0.281-0.353-0.634-0.704-0.634-0.986
			c0.212-0.069,1.55-0.141,2.325-0.211c0.703-0.142,1.337-0.281,2.043-0.492c1.196-0.424,2.395-0.987,3.311-1.692
			c1.833-1.338,2.96-3.029,3.521-5.214c0.071-0.281,0.142-0.844,0.284-0.915h4.016c0.212-0.353,2.112-3.029,2.112-3.241
			c-1.62,0-5.072,0.07-6.412,0c-0.139-0.987-0.562-2.042-1.125-2.888c-0.071-0.142-0.493-0.636-0.493-0.705
			c1.689,0,4.438,0.069,5.988,0l1.056-1.69L398.035,245.765z"/>
		<path fill="#F19920" d="M422.977,323.121c0.139-0.141,0.492-0.633,0.492-0.774h-11.274c-0.068,0.07-1.126,1.48-1.126,1.691h3.03
			c0.702,0,1.55,0.211,2.113,0.492c0.493,0.283,1.196,0.775,1.408,1.269h-5.426l-1.126,1.691c2.183,0,4.509,0,6.693,0h0.14
			c-0.068,1.409-0.986,2.254-2.043,2.677c-0.563,0.212-1.196,0.423-1.901,0.423c-1.198,0.07-1.198,0-2.185,0
			c0,0.281,0,0.703,0,0.986c0,0.845-0.071,0.563,0.422,1.128l0.706,0.774c0.141,0.211,0.282,0.352,0.422,0.635
			c0.142,0.211,0.282,0.352,0.422,0.563c0.07,0.07,0.143,0.141,0.213,0.281l3.521,4.086c0.071,0.213,0.283,0.424,0.423,0.564
			c0.213,0.211,0.354,0.423,0.493,0.423c0.635,0,1.691,0,2.396,0c0-0.423,0-0.352-0.282-0.704l-0.846-0.986
			c-0.141-0.141-0.28-0.353-0.351-0.493c-1.479-1.832-2.962-3.664-4.512-5.496c-0.139-0.141-0.351-0.352-0.351-0.493
			c0.141,0,0.776-0.141,1.198-0.141c0.352-0.141,0.702-0.211,0.986-0.352c0.634-0.212,1.198-0.494,1.691-0.846
			c0.915-0.705,1.479-1.55,1.76-2.678c0.07-0.141,0.07-0.423,0.141-0.493h2.044c0.142-0.142,1.128-1.62,1.128-1.691
			c-0.848,0-2.607,0-3.313,0c-0.071-0.492-0.281-1.056-0.563-1.408c-0.071-0.142-0.281-0.422-0.281-0.422c0.845,0,2.323,0,3.1,0
			l0.563-0.847v0.141H422.977z"/>
	</g>
</g>
</svg>
