<?xml version="1.0" encoding="utf-8"?>
<!-- Generator: Adobe Illustrator 16.0.0, SVG Export Plug-In . SVG Version: 6.00 Build 0)  -->
<!DOCTYPE svg PUBLIC "-//W3C//DTD SVG 1.1//EN" "http://www.w3.org/Graphics/SVG/1.1/DTD/svg11.dtd">
<svg version="1.1" id="Layer_1" xmlns="http://www.w3.org/2000/svg" xmlns:xlink="http://www.w3.org/1999/xlink" x="0px" y="0px"
	 width="70.351px" height="69.055px" viewBox="84.824 89.41 70.351 69.055" enable-background="new 84.824 89.41 70.351 69.055"
	 xml:space="preserve">
<g id="_781563352">
	<g>
		<path fill="#F8E6E5" d="M90.872,141.705c-0.432-0.072-0.792-0.504-0.792-1.008c0-0.072,0-0.145,0-0.216
			c0.288,0.359,0.504,0.792,0.792,1.151V141.705z"/>
		<path fill="#F8E6E5" d="M91.017,149.986c-0.576,0-1.008-0.433-1.008-1.009c0-0.575,0.432-1.008,1.008-1.008
			s1.008,0.433,1.008,1.008C92.025,149.553,91.593,149.986,91.017,149.986z"/>
		<path fill="#FEFEFE" d="M108.586,154.594c-25.13-9.865-27.435-31.251-17.93-49.109c9.505-17.857,38.164-22.538,54.654-4.032
			s10.369,39.244-4.752,48.317L108.586,154.594z"/>
		<path fill="#FCCAA1" d="M137.75,133.928c0,1.008,0.359,1.872,1.152,2.521c-2.664,1.8-5.473,0.72-5.834-0.433
			c1.369-0.072,1.729-1.08,1.873-1.944C135.59,133.352,137.75,133.928,137.75,133.928z"/>
		<path fill="#FCCAA1" d="M132.205,122.119c-0.793,1.44-2.881,2.593-2.16,6.049c-1.801,3.313,1.943,6.265,6.553,6.12
			c3.6-0.071,5.184-3.023,4.752-4.536c-0.432-1.512-7.271-9.36-9.145-7.561V122.119z"/>
		<path fill="#FCCAA1" d="M133.285,136.232c-3.168-1.151-4.537-3.168-5.4-7.345c0.145-0.863,0.359-1.728,0.217-1.728
			c-0.145,0-0.865,0.647-0.865,0.647c-0.072-0.216-0.215-0.359-0.359-0.504c-0.217-0.288-0.504-0.504-0.648-0.647
			c-0.217-0.217-0.863,0.216-0.504,0.792c0,0-0.793-0.145-0.504,0.72c-0.432-0.144-0.648,0.216-0.361,0.72
			c-0.574,0.504,0.217,1.152,0.865,1.44c0.576,3.097,0.721,6.841,6.049,9.433c1.512-0.576,1.439-3.456,1.439-3.456L133.285,136.232z
			"/>
		<path fill="#2B4B4C" d="M132.636,135.801c-0.504-0.648-2.305-1.8-2.447-1.8c-1.441,0.72-2.16,2.52-2.088,3.744
			c1.654,1.512,3.383,1.8,3.383,1.8l1.152-3.672V135.801z"/>
		<path fill="#FCCAA1" d="M138.974,139.617c3.023,1.44,4.248,3.528,4.824,7.776c-0.217,0.864-0.504,1.729-0.361,1.729
			c0.145,0,0.865-0.576,0.865-0.576c0.072,0.216,0.215,0.432,0.287,0.576c0.217,0.288,0.432,0.576,0.576,0.72
			c0.145,0.217,0.936-0.144,0.576-0.72c0,0,0.793,0.216,0.504-0.648c0.432,0.145,0.648-0.216,0.361-0.647
			c0.646-0.433-0.145-1.152-0.793-1.513c-0.287-3.168-0.145-6.841-5.256-9.864c-1.514,0.432-1.729,3.312-1.729,3.312
			L138.974,139.617z"/>
		<path fill="#2B4B4C" d="M139.549,140.049c0.506,0.648,2.162,1.944,2.305,2.017c1.512-0.576,2.377-2.305,2.377-3.528
			c-1.512-1.656-3.24-2.017-3.24-2.017L139.549,140.049z"/>
		<path fill="#87C65D" d="M141.205,135.728c1.152,0.721,1.656,11.377-0.143,12.529c-1.801,1.152-9.217,1.08-10.01-0.288
			c-0.863-1.44-1.152-10.873,0.432-12.313c0.793-0.72,6.553-1.943,9.721,0.145V135.728z"/>
		<path fill="#60432E" d="M132.205,121.975c-3.744-1.225-4.32,5.761-1.873,5.688c1.297,3.744,3.961,5.761,5.906,5.977
			c3.887,0.432,5.473-0.648,6.695-2.809C147.47,122.767,138.037,116.503,132.205,121.975z"/>
		<path fill="#FCCAA1" d="M130.549,128.816c-0.287-1.801,1.656-0.072,1.225,2.16L130.549,128.816z"/>
		<path fill="#60432E" d="M132.205,122.119c0-1.728,1.297-3.168,1.512-3.024c0.217,0.145-1.225,3.169-1.225,3.169
			c1.945-1.368,3.025-0.648,3.025-0.648L132.205,122.119z"/>
		<path fill="#71A44C" d="M131.052,143.649c0-2.592,0.289-7.129,1.152-7.705c0.863-0.647,4.896-1.368,8.354,0.145
			c0.359,0.432,1.439,5.832,1.008,7.849c-0.145,0.144-0.289,0-0.289,0c0.072-2.16-0.576-7.201-1.008-7.488
			c-0.287-0.217-4.32-1.656-7.92,0c-0.432,0.359-0.938,7.345-0.938,7.345h-0.359V143.649z"/>
		<path fill="#98CC6E" d="M140.269,141.489c-1.008-0.576-6.697-0.576-7.633,0c-0.576,0.288-0.287,2.809-0.215,4.393
			c0.07,1.368,2.23,1.512,3.744,1.512l0,0c0.072,0,0.504,0,0.576,0l0,0c1.439,0,3.6-0.144,3.744-1.512
			C140.631,144.298,140.845,141.849,140.269,141.489z"/>
		<path fill="#71A44C" d="M132.277,142.929c0,0.144,0,0.288,0,0.432c1.439,0.072,7.201,0.288,8.354,0c0-0.144,0-0.288,0-0.432
			C139.117,143.145,132.998,143.001,132.277,142.929z"/>
		<path fill="#98CC6E" d="M130.261,143.218c0.432,0.216,1.584,0.359,1.584,0.359c0,1.872,0,3.528,0,3.528s-1.008,0.36-1.225,0
			c-0.217-0.359-0.432-2.231-0.359-3.816V143.218z"/>
		<path fill="#98CC6E" d="M142.285,143.145c-0.287,0.36-1.439,0.36-1.439,0.36c0,1.872,0,3.528,0,3.528s1.008,0.359,1.225,0
			C142.285,146.674,142.357,144.729,142.285,143.145z"/>
		<path fill="#EB6A88" d="M114.851,116.934c0.792,0.288,2.089,1.297,2.881,2.809c0.792,1.44,3.672,7.849,3.383,12.097
			c-0.359,3.169-3.383,0-3.744-1.367c-1.08-3.673-1.296-11.521-2.521-13.609V116.934z"/>
		<path fill="#60432E" d="M102.754,105.773c0.504,0.937,1.439,1.656,1.944,1.801c-0.36-0.792-0.648-1.729-0.648-1.729h-1.296
			V105.773z"/>
		<path fill="#FCCAA1" d="M106.21,108.078c0.288,2.952,0.937,7.345-2.017,9.072c1.08,4.321,8.138,5.257,8.138,5.257
			s1.439-5.04,0.792-6.049c-2.377-0.504-2.232-2.88-2.377-6.192c-0.576-1.224-4.536-2.16-4.536-2.16V108.078z"/>
		<path fill="#DCB89A" d="M111.251,114.919L111.251,114.919c-0.288-0.721-0.433-1.729-0.433-2.809l0,0
			C110.891,113.262,110.963,114.198,111.251,114.919z M106.426,112.686L106.426,112.686c0.072-0.937,0-1.872-0.071-2.809l0,0
			C106.426,110.814,106.498,111.75,106.426,112.686z"/>
		<path fill="#DDA478" d="M111.251,114.919c-1.081-0.145-3.169-0.864-4.825-2.232c0.072-0.937,0-1.872-0.071-2.809
			c1.439,1.296,3.24,2.017,4.464,2.232C110.891,113.262,110.963,114.198,111.251,114.919z"/>
		<path fill="#FCCAA1" d="M115.787,98.285c0.792,2.88-0.36,3.601-0.145,5.185c1.009,3.888,0.648,6.192-3.672,8.713
			c-0.648,0.288-7.129-1.225-7.993-6.553c-0.864-5.545,0.864-9.938,4.249-10.585c3.312-0.648,6.12-0.145,7.561,3.313V98.285z"/>
		<path fill="#FCCAA1" d="M103.762,103.397c-0.937-1.44-2.809-0.36-2.16,1.152c0.648,1.584,2.16,1.8,2.952,1.008
			c-0.144-1.152-0.72-2.16-0.72-2.16H103.762z"/>
		<path fill="#212123" d="M109.523,104.55c-0.072,0-0.216-0.145-0.433-0.36c-0.144-0.144-0.287-0.216-0.432-0.288
			c-0.144-0.072-0.36-0.144-0.576-0.144s-0.432,0.071-0.647,0.144c-0.217,0.072-0.433,0.072-0.648,0s-0.36-0.216-0.36-0.288
			c-0.071-0.071-0.071-0.144,0-0.144c0,0,0.072,0,0.145,0.072c0.071,0.071,0.216,0.071,0.288,0.071c0.144,0,0.288-0.071,0.504-0.071
			c0.216-0.072,0.432-0.145,0.792-0.145c0.288,0,0.576,0.072,0.792,0.216c0.216,0.145,0.36,0.288,0.432,0.504
			c0.217,0.288,0.217,0.505,0.217,0.576L109.523,104.55z"/>
		<path fill="#C38351" d="M111.323,106.926c0-0.072,0.216-0.144,0.576-0.36c0.145-0.071,0.36-0.288,0.288-0.432
			c-0.072-0.072-0.144-0.144-0.216-0.288l-0.072-0.072l-0.072-0.071c0,0-0.071-0.072-0.071-0.145s-0.072-0.072-0.072-0.144
			c-0.145-0.36-0.145-0.721-0.072-1.009c0-0.288,0.072-0.576,0.145-0.72c0.144-0.432,0.216-0.648,0.288-0.648
			c0.071,0,0,0.288,0,0.721c0,0.216-0.072,0.432-0.072,0.72s0,0.576,0.072,0.792c0,0,0,0.072,0.071,0.072l0.072,0.072l0.072,0.071
			l0.072,0.072c0.144,0.072,0.216,0.216,0.359,0.433c0,0.071,0.072,0.216,0,0.287c0,0.072-0.072,0.145-0.144,0.217
			c-0.145,0.071-0.216,0.144-0.36,0.216c-0.432,0.144-0.648,0.216-0.72,0.144L111.323,106.926z"/>
		<path fill="#212123" d="M112.979,104.55c-0.072,0,0-0.216,0.145-0.504c0.071-0.145,0.216-0.288,0.359-0.433
			c0.145-0.144,0.36-0.288,0.648-0.359c0.144,0,0.288,0,0.432,0c0.145,0,0.288,0.071,0.36,0.144c0.216,0.145,0.36,0.288,0.432,0.288
			h0.072c0,0,0.072,0,0.072-0.072c0.072-0.071,0.144-0.071,0.144-0.071s0.072,0.071,0,0.144v0.072l-0.071,0.071
			c-0.072,0-0.072,0.072-0.145,0.072s-0.144,0-0.144,0c-0.217-0.072-0.36-0.144-0.504-0.216c-0.145-0.072-0.288-0.144-0.505-0.072
			c-0.144,0-0.359,0.145-0.504,0.288c-0.144,0.145-0.288,0.216-0.359,0.36C113.195,104.477,113.051,104.622,112.979,104.55z"/>
		<path fill="#60432E" d="M109.162,100.157c0,0.072-0.216-0.072-0.432-0.072c-0.288-0.072-0.648,0-1.08,0.145
			c-0.433,0.144-0.721,0.359-0.937,0.504c-0.216,0.144-0.359,0.288-0.432,0.288s0-0.216,0.216-0.433
			c0.216-0.216,0.576-0.504,1.008-0.647c0.433-0.216,0.937-0.216,1.225-0.072c0.072,0,0.144,0.072,0.216,0.072
			s0.072,0.071,0.144,0.071C109.162,100.085,109.162,100.157,109.162,100.157z"/>
		<path fill="#C38351" d="M109.235,107.79c0,0,0.072,0,0.216,0.072c0.072,0.071,0.216,0.216,0.433,0.359
			c0.071,0,0.071,0.072,0.144,0.145c0.072,0,0.144,0.072,0.144,0.144c0.072,0.072,0.145,0.072,0.145,0.145
			c0.072,0,0.144,0.071,0.216,0.071c0.288,0.145,0.576,0.288,0.937,0.288c0.359,0.072,0.647,0,0.936-0.071
			c0.288-0.072,0.504-0.288,0.648-0.433c0.288-0.288,0.432-0.576,0.504-0.576c0,0,0,0.36-0.36,0.721
			c-0.144,0.216-0.359,0.432-0.72,0.576c-0.288,0.144-0.72,0.216-1.08,0.144s-0.72-0.216-1.008-0.36
			c-0.072-0.071-0.145-0.071-0.217-0.144c-0.071-0.072-0.144-0.072-0.144-0.145c-0.072-0.071-0.144-0.071-0.144-0.144
			c-0.072-0.072-0.072-0.072-0.145-0.144c-0.144-0.145-0.288-0.288-0.36-0.433c-0.071-0.144-0.144-0.144-0.071-0.216H109.235z"/>
		<path fill="#60432E" d="M102.033,102.893c-0.863-1.584-0.575-4.248-0.359-4.681c-5.185-0.576-3.313-5.328-0.864-7.345
			c2.448-2.016,7.417-1.08,5.4,2.017c3.601-1.368,10.153,1.728,9.433,5.112c-0.863-1.225-1.151-1.296-1.151-1.296
			c-0.072,0.144-1.801,0.216-2.665-0.217c-0.936,0.288-3.168,1.368-4.752,1.368c-0.504,1.08-2.305,1.944-2.305,1.944
			c0.072,1.801-0.432,2.017-0.432,2.017c0.432,2.016,0.144,3.024-0.072,2.809c-0.216-0.217-0.576-1.368-0.576-1.368
			c-0.504-0.36-0.864-0.793-1.728-0.505L102.033,102.893z"/>
		<path fill="#45342C" d="M107.578,97.852c0,0.072-0.288,0.145-0.792,0.072s-1.152-0.216-1.8-0.647
			c-0.648-0.36-1.152-0.864-1.44-1.225c-0.072-0.072-0.145-0.216-0.145-0.288c-0.071-0.072-0.071-0.144-0.071-0.216
			c-0.072-0.145-0.072-0.216,0-0.216c0,0,0.071,0.071,0.144,0.144s0.072,0.145,0.145,0.216c0.071,0.072,0.144,0.145,0.216,0.217
			c0.288,0.359,0.792,0.792,1.439,1.08c0.576,0.359,1.225,0.575,1.656,0.647c0.433,0.072,0.721,0.072,0.721,0.145L107.578,97.852z"
			/>
		<path fill="#45342C" d="M112.043,96.556c0,0.072-0.433,0-1.08-0.216c-0.648-0.216-1.513-0.504-2.448-0.937
			c-0.937-0.359-1.801-0.792-2.377-1.008c-0.144-0.072-0.288-0.144-0.432-0.144c-0.145-0.072-0.216-0.072-0.288-0.145
			c-0.145-0.072-0.288-0.072-0.288-0.144c0,0,0.072,0,0.288,0c0.072,0,0.216,0,0.36,0.071c0.144,0,0.288,0.072,0.432,0.145
			c0.648,0.216,1.512,0.504,2.448,0.936c0.937,0.36,1.8,0.721,2.376,1.009S112.043,96.556,112.043,96.556z"/>
		<path fill="#45342C" d="M114.563,96.772c-0.071,0-0.288-0.359-0.863-0.863c-0.576-0.505-1.44-0.937-2.521-1.368
			c-1.08-0.433-2.089-0.648-2.809-0.864c-0.72-0.145-1.152-0.216-1.152-0.288s0.504-0.072,1.225,0.072
			c0.72,0.144,1.8,0.359,2.88,0.792c1.08,0.432,2.017,0.936,2.593,1.512c0.288,0.288,0.504,0.504,0.576,0.72
			c0.071,0.217,0.144,0.288,0.144,0.288H114.563z"/>
		<path fill="#45342C" d="M104.842,99.869c0,0.072-0.288,0-0.648-0.288c-0.359-0.288-0.72-0.72-1.008-1.296
			s-0.504-1.152-0.576-1.584c-0.071-0.433,0-0.721,0-0.721c0.072,0,0.072,0.217,0.216,0.648c0.145,0.36,0.36,0.936,0.648,1.44
			c0.288,0.576,0.576,1.008,0.864,1.296s0.432,0.432,0.432,0.504H104.842z"/>
		<path fill="#45342C" d="M104.338,101.957c0,0-0.072,0-0.216-0.071c-0.145-0.072-0.288-0.217-0.433-0.433
			c-0.288-0.359-0.576-1.008-0.792-1.728c-0.216-0.721-0.359-1.368-0.432-1.801c-0.072-0.504-0.072-0.792,0-0.792
			s0.144,0.288,0.288,0.72c0.144,0.433,0.288,1.08,0.504,1.729s0.432,1.296,0.72,1.656c0.145,0.216,0.216,0.36,0.288,0.432
			c0.072,0.072,0.145,0.145,0.145,0.145L104.338,101.957z"/>
		<path fill="#45342C" d="M102.754,96.197c0,0,0,0.071-0.145,0.144c-0.071,0.072-0.216,0.144-0.432,0.216
			c-0.36,0.145-1.008,0.288-1.584,0.145c-0.648-0.145-1.152-0.504-1.368-0.864s-0.216-0.648-0.145-0.648
			c0.072,0,0.145,0.216,0.36,0.504c0,0.072,0.072,0.072,0.072,0.072c0.071,0,0.071,0.072,0.144,0.072
			c0.072,0.072,0.145,0.144,0.288,0.216c0.216,0.145,0.432,0.216,0.72,0.288c0.576,0.144,1.08,0.072,1.44,0
			c0.216-0.072,0.36-0.072,0.433-0.144C102.61,96.197,102.682,96.125,102.754,96.197z"/>
		<path fill="#45342C" d="M104.482,94.469c0,0,0-0.072,0.072-0.145c0.072-0.071,0.145-0.216,0.216-0.359
			c0.145-0.288,0.36-0.721,0.433-1.225c0.071-0.504-0.145-0.936-0.36-1.152c-0.216-0.216-0.432-0.216-0.432-0.287
			c0,0,0.071-0.072,0.144-0.072s0.145,0,0.216,0c0.072,0,0.072,0,0.145,0.072c0.072,0,0.072,0.071,0.144,0.071
			c0.145,0.072,0.36,0.288,0.433,0.504c0.144,0.217,0.144,0.505,0.144,0.792c-0.072,0.576-0.36,1.081-0.576,1.368
			c-0.071,0.145-0.216,0.217-0.288,0.288c-0.071,0.072-0.144,0.072-0.144,0.072L104.482,94.469z"/>
		<path fill="#45342C" d="M105.346,93.749c-0.072-0.072,0.288-0.505,0.504-1.081c0.072-0.287,0.145-0.575,0.145-0.792
			c0-0.071,0-0.216,0-0.288c0-0.071,0-0.071,0-0.144c0,0,0.072,0,0.072,0.072c0.071,0.071,0.071,0.144,0.144,0.288
			c0.072,0.216,0.072,0.576-0.072,0.936c-0.071,0.145-0.144,0.36-0.216,0.433c-0.072,0.144-0.216,0.216-0.288,0.288
			c-0.144,0.144-0.288,0.216-0.36,0.216L105.346,93.749z"/>
		<path fill="#DDE0DF" d="M110.315,117.51c0,0,0.792-0.216,2.592-1.152c1.729,0.937,2.521,6.625-0.071,10.081
			c-0.864-2.592-7.562-6.696-8.713-9.217c0,0,0.432-0.144,1.224-1.152c0,0,3.457,1.729,5.041,1.44H110.315z"/>
		<path fill="#2B4B4C" d="M115.572,130.184c-0.145,1.943,4.752,9.864,0.288,25.274c-2.232,2.448-11.81,1.656-13.034-0.217
			c-1.008-8.784-2.592-13.753,2.665-24.338c3.384,0.504,8.784,0.072,10.152-0.72H115.572z"/>
		<path fill="#EB6A88" d="M104.842,116.646c-1.152,0.721-2.736,1.08-3.313,1.729s-4.104,8.641-4.248,13.753
			c4.248,1.44,11.521,2.881,12.097,3.241c0.576,0.359,2.593,1.8,3.313-0.217c1.009,1.152,1.44,0.937,1.44,0.937
			c1.08-0.937,2.017-2.088,2.017-2.088c-0.433-1.656-0.721-4.681-0.505-5.401c0.288-0.72,1.368-2.736,1.44-3.888
			c0.072-1.225-0.288-2.305-0.792-3.816c-0.36-1.009-1.008-3.601-1.225-3.745c-0.216-0.144-2.231-0.936-2.231-0.936
			c0.792,2.448,2.016,5.616,0.071,9.721c-0.504-3.384-6.696-4.969-8.137-9.217L104.842,116.646z"/>
		<path fill="#C44A6A" d="M113.411,133.928c0,0-0.072-0.145-0.072-0.36c-0.072-0.216-0.072-0.576-0.145-1.08
			c-0.071-0.864-0.071-2.088-0.144-3.456c0-0.648,0-1.296,0-1.872c0-0.288,0-0.576-0.072-0.792
			c-0.072-0.217-0.144-0.505-0.216-0.721c-0.288-0.864-0.504-1.296-0.504-1.368c0,0,0.072,0.072,0.216,0.36
			c0.144,0.216,0.288,0.576,0.432,0.937c0.072,0.216,0.145,0.432,0.217,0.72c0.071,0.288,0.071,0.576,0.071,0.864
			c0,0.576,0,1.224,0,1.872c0,1.368,0,2.592,0.072,3.456c0,0.864,0.072,1.44,0.072,1.44H113.411z"/>
		<path fill="#715345" d="M100.665,136.377c0,0.072,0.072,0.144,0.145,0.144h9.289c0.071,0,0.144-0.071,0.144-0.144v-12.817
			c0-0.072-0.072-0.145-0.144-0.145h-9.289c-0.072,0-0.145,0.072-0.145,0.145V136.377z"/>
		<path fill="#FCCAA1" d="M106.642,131.768c0.721-0.145,1.009-0.145,1.08-0.648c0.145-0.432,0-1.44,0.217-1.656
			c0.216-0.216,1.584-0.864,2.231-1.439c0.433-0.36,0.36,0.647,0.145,1.008c0.288,0,0.937-0.504,1.152-0.36
			c0.216,0.145,0.359,2.448,0.071,3.313c-0.863,0.937-3.672,1.872-4.752,1.944c-0.72,0-0.216-2.16-0.216-2.16H106.642z"/>
		<path fill="#EB6A88" d="M97.425,130.832c-0.071,1.008-0.144,2.376,0.145,2.809c0.359,0.432,5.256,1.729,9.721,0.216
			c-0.144-0.288-0.216-2.232-0.216-2.232c-2.232,0.072-9.361-1.8-9.721-0.864L97.425,130.832z"/>
		<polygon fill="#E8E7E5" points="107.651,128.168 102.754,128.168 102.754,125.504 107.651,125.504 		"/>
		<path fill="#EB6A88" d="M117.948,130.328c-2.088,0.937-3.816,3.96-7.057,4.465c0.072,1.439-0.433,2.592-0.433,2.592
			c3.241,0.145,9.793-1.584,10.514-4.824c-0.072-1.584-1.657-2.881-2.953-2.232H117.948z"/>
		<path fill="#FCCAA1" d="M111.179,134.793c0.072-0.576-0.145-0.937-1.944-0.217c-1.8,0.721-1.729,1.009-1.8,1.225
			c-0.072,0.216-0.217,1.944,0,2.088c0.144,0.145,2.952,0.288,3.24-0.576C110.963,136.449,111.179,134.793,111.179,134.793z"/>
		<path fill="#C44A6A" d="M112.835,127.303c0,0.216-0.145,0.36-0.288,0.36c-0.145,0-0.288-0.145-0.288-0.36s0.144-0.36,0.288-0.36
			C112.691,126.943,112.835,127.088,112.835,127.303z"/>
		<path fill="#C44A6A" d="M112.835,130.328c0,0.216-0.145,0.36-0.288,0.36c-0.145,0-0.288-0.145-0.288-0.36s0.144-0.36,0.288-0.36
			C112.691,129.968,112.835,130.112,112.835,130.328z"/>
		<path fill="#C44A6A" d="M112.763,133.352c0,0.216-0.145,0.36-0.288,0.36s-0.288-0.145-0.288-0.36s0.145-0.36,0.288-0.36
			S112.763,133.136,112.763,133.352z"/>
		<path fill="#C44A6A" d="M116.003,127.952c0,0,0.145-0.36,0.432-1.009c0.145-0.287,0.288-0.647,0.36-1.08
			c0-0.071,0.072-0.216,0.072-0.287c0-0.145,0.072-0.217,0.072-0.36c0-0.145,0.071-0.216,0.071-0.36c0-0.144,0.072-0.216,0.072-0.36
			c0-0.216,0-0.504,0-0.72s-0.072-0.432-0.144-0.647c-0.145-0.433-0.217-0.793-0.36-1.152c-0.072-0.288-0.145-0.576-0.145-0.792
			c0-0.217,0-0.288,0-0.288c0.072,0,0.072,0.432,0.288,1.008c0.145,0.288,0.288,0.648,0.36,1.08c0.072,0.216,0.145,0.432,0.145,0.72
			c0,0.217,0.071,0.505,0,0.792c0,0.145,0,0.288-0.072,0.36c0,0.145-0.072,0.216-0.072,0.36c0,0.144-0.072,0.216-0.072,0.36
			c0,0.144-0.071,0.216-0.071,0.359c-0.145,0.433-0.288,0.792-0.433,1.08c-0.288,0.576-0.504,0.937-0.576,0.937H116.003z"/>
		<path fill="#C44A6A" d="M119.82,130.328c0,0-0.144,0-0.36-0.072c-0.216,0-0.504-0.071-0.863,0c-0.36,0-0.648,0.145-0.864,0.217
			c-0.217,0.071-0.36,0.144-0.36,0.071c0,0,0.072-0.144,0.288-0.288c0.216-0.144,0.504-0.216,0.937-0.288
			c0.359-0.071,0.72,0,0.936,0.072s0.36,0.145,0.36,0.216L119.82,130.328z"/>
		<path fill="#C44A6A" d="M104.698,122.407c-0.072,0-0.072-0.288-0.145-0.72c-0.072-0.433-0.288-1.008-0.576-1.656
			s-0.647-1.152-0.864-1.513c-0.288-0.359-0.432-0.575-0.432-0.647c0,0,0.216,0.144,0.504,0.504s0.648,0.864,0.937,1.512
			c0.288,0.648,0.504,1.297,0.504,1.729c0.072,0.432,0,0.72,0,0.72L104.698,122.407z"/>
		<path fill="#C44A6A" d="M98.865,131.84c0,0,0-0.144,0.145-0.287c0.144-0.145,0.287-0.36,0.575-0.505
			c0.288-0.144,0.505-0.216,0.721-0.216s0.288,0,0.288,0c0,0.072-0.433,0.145-0.864,0.36c-0.216,0.144-0.433,0.288-0.504,0.36
			c-0.145,0.144-0.216,0.216-0.216,0.144L98.865,131.84z"/>
		<path fill="#FEFEFE" d="M105.922,115.135c-0.216,0-0.72,0.936-0.72,0.936c0.864,1.873,3.168,3.816,4.608,3.889
			c0.792-0.864,0.792-2.088,0.792-2.088c1.296,1.296,1.944,1.584,2.16,1.584c0.288-0.288,0.792-1.729,0.216-3.313
			c-0.432-0.288-1.368-0.647-1.368-0.647c-0.288,1.08-0.792,1.728-1.224,1.872c-0.433,0.071-3.601-1.152-4.537-2.232H105.922z"/>
		<path fill="#C44A6A" d="M115.86,131.912c0,0,0,0.072-0.145,0.216c-0.072,0.072-0.072,0.145-0.144,0.217
			c-0.072,0.071-0.145,0.144-0.217,0.288c-0.359,0.359-0.863,0.863-1.584,1.224c-0.647,0.432-1.368,0.648-1.8,0.792
			c-0.504,0.145-0.792,0.216-0.792,0.145c0-0.072,1.224-0.36,2.521-1.152c0.647-0.36,1.224-0.792,1.584-1.152
			c0.071-0.072,0.144-0.144,0.216-0.216s0.144-0.145,0.216-0.145c0.072-0.071,0.145-0.144,0.145-0.144V131.912z"/>
		<path fill="#C38351" d="M109.739,135.512c0,0.072-0.504,0.288-1.152,0.504c-0.359,0.072-0.647,0.145-0.864,0.145
			c-0.216,0-0.359,0-0.359,0c0-0.072,0.072-0.145,0.288-0.217c0.216-0.071,0.504-0.216,0.864-0.288
			c0.647-0.144,1.224-0.216,1.296-0.144H109.739z"/>
		<path fill="#C38351" d="M109.523,136.449c0,0.071-0.504,0.287-1.08,0.359c-0.648,0.072-1.152,0.145-1.152,0
			c0-0.072,0.504-0.288,1.08-0.359C109.019,136.377,109.523,136.304,109.523,136.449z"/>
		<path fill="#C38351" d="M109.307,137.385c0,0.072-0.433,0.145-1.009,0.145s-1.008-0.072-1.008-0.145s0.432-0.144,1.008-0.144
			S109.307,137.312,109.307,137.385z"/>
		<path fill="#F9B39B" d="M107.435,108.582c-0.937,0-1.729-0.792-1.729-1.729c0-0.936,0.792-1.728,1.729-1.728
			c0.936,0,1.728,0.792,1.728,1.728C109.162,107.79,108.37,108.582,107.435,108.582z"/>
		<path fill="#F9B39B" d="M115.283,108.654c-0.937,0-1.729-0.792-1.729-1.729c0-0.936,0.792-1.729,1.729-1.729
			c0.288,0,0.504,0.072,0.72,0.145c0.145,1.224,0.072,2.304-0.288,3.24C115.572,108.582,115.427,108.654,115.283,108.654z"/>
		<path fill="#EB6A88" d="M93.249,140.841c0-1.008-4.825-1.439-7.705-1.296c0.216,2.017,2.521,4.896,2.521,4.896
			c-2.305,1.225-3.24,4.032-3.24,4.032c2.952,1.585,6.624,2.017,6.624,2.017s1.944-6.841,1.729-9.649H93.249z"/>
		<path fill="#C75471" d="M89.073,145.162c0-1.729,4.177-1.297,4.177-4.321c0,3.024,0,8.137,0,8.137S89.073,147.681,89.073,145.162z
			"/>
		<path fill="#EB6A88" d="M146.101,140.841c0-1.008,4.826-1.439,7.705-1.296c-0.215,2.017-2.52,4.896-2.52,4.896
			c2.305,1.225,3.24,4.032,3.24,4.032c-2.953,1.585-6.625,2.017-6.625,2.017s-1.943-6.841-1.729-9.649H146.101z"/>
		<path fill="#C75471" d="M150.279,145.162c0-1.729-4.178-1.297-4.178-4.321c0,3.024,0,8.137,0,8.137
			S150.279,147.681,150.279,145.162z"/>
		<path fill="#EB6A88" d="M150.279,155.53c-20.234,3.889-40.972,3.889-61.207,0c0-3.456,0-6.984,0-10.44
			c20.234,3.888,40.972,3.888,61.207,0C150.279,148.546,150.279,152.074,150.279,155.53z"/>
	</g>
	<rect x="84.896" y="89.427" fill="none" width="70.352" height="68.983"/>
</g>
</svg>
