<?xml version="1.0" encoding="utf-8"?>
<!-- Generator: Adobe Illustrator 16.0.0, SVG Export Plug-In . SVG Version: 6.00 Build 0)  -->
<!DOCTYPE svg PUBLIC "-//W3C//DTD SVG 1.1//EN" "http://www.w3.org/Graphics/SVG/1.1/DTD/svg11.dtd">
<svg version="1.1" id="Layer_1" xmlns="http://www.w3.org/2000/svg" xmlns:xlink="http://www.w3.org/1999/xlink" x="0px" y="0px"
	 width="900px" height="900px" viewBox="0 0 900 900" enable-background="new 0 0 900 900" xml:space="preserve">
<g>
	<g>
		<g opacity="0.2">
			<path fill="#1E120D" d="M546.077,674.105c-28.329-18.659-65.918-66.461-102.339-45.021
				c-11.354,6.682-20.375,16.684-30.587,25.041c-4.559,3.734-9.6,7.247-15.388,8.171c-15.807,2.522-27.495-14.07-41.879-21.169
				c-15.386-7.59-33.77-3.894-49.987,1.643c-16.218,5.537-32.485,12.869-49.584,12.125c-30.5-1.32-55.211-29.634-60.436-60.089
				c-4.578-26.689,2.875-55.943,16.067-79.202c11.546-20.363,12.367-42.204-2.231-62.706
				c-22.611-31.749-61.618-36.867-74.283-78.215c-17.36-56.678,36.674-117.644,93.957-91.399c5.54,2.538,10.907,5.757,16.904,6.779
				c16.901,2.884,31.897-12.813,37.17-29.326c5.274-16.512,4.273-34.432,8.28-51.306c11.294-47.554,67.706-78.246,113.104-61.54
				c13.829,5.09,26.504,13.8,41.044,16.08c29.679,4.657,42.892-22.778,63.046-39.549c14.635-12.177,33.676-19.374,52.562-17.887
				c18.888,1.488,37.258,12.251,46.345,29.081c5.87,10.874,8.028,24.027,16.475,32.992c7.697,8.166,20.439,12.141,29.816,17.697
				c14.934,8.848,30.937,15.621,45.958,24.346c16.404,9.528,31.867,23.322,36.609,41.86c8.028,31.396-17.629,44.536-26.241,71.718
				c-4.574,14.431-3.616,31.604,6.242,43.012c11.921,13.801,32.395,15.281,48.148,24.326c20.445,11.738,31.661,36.701,30.155,60.45
				c-1.508,23.75-14.442,45.84-32.218,61.406c-17.85,15.633-40.045,25.128-59.707,38.34c-19.663,13.215-37.861,32.324-40.215,56.102
				c-3.494,35.301,6.811,72.896-38.009,85.021C598,700.148,569.379,689.451,546.077,674.105z"/>
		</g>
		<g>
			<path fill="#6BD3FF" d="M546.077,669.105c-28.329-18.659-65.918-66.461-102.339-45.021
				c-11.354,6.682-20.375,16.684-30.587,25.041c-4.559,3.734-9.6,7.247-15.388,8.171c-15.807,2.522-27.495-14.07-41.879-21.169
				c-15.386-7.59-33.77-3.894-49.987,1.643c-16.218,5.537-32.485,12.869-49.584,12.125c-30.5-1.32-55.211-29.634-60.436-60.089
				c-4.578-26.689,2.875-55.943,16.067-79.202c11.546-20.363,12.367-42.204-2.231-62.706
				c-22.611-31.749-61.618-36.867-74.283-78.215c-17.36-56.678,36.674-117.644,93.957-91.399c5.54,2.538,10.907,5.757,16.904,6.779
				c16.901,2.884,31.897-12.813,37.17-29.326c5.274-16.512,4.273-34.432,8.28-51.306c11.294-47.554,67.706-78.246,113.104-61.54
				c13.829,5.09,26.504,13.8,41.044,16.08c29.679,4.657,42.892-22.778,63.046-39.549c14.635-12.177,33.676-19.374,52.562-17.887
				c18.888,1.488,37.258,12.251,46.345,29.081c5.87,10.874,8.028,24.027,16.475,32.992c7.697,8.166,20.439,12.141,29.816,17.697
				c14.934,8.848,30.937,15.621,45.958,24.346c16.404,9.528,31.867,23.322,36.609,41.86c8.028,31.396-17.629,44.536-26.241,71.718
				c-4.574,14.431-3.616,31.604,6.242,43.012c11.921,13.801,32.395,15.281,48.148,24.326c20.445,11.738,31.661,36.701,30.155,60.45
				c-1.508,23.75-14.442,45.84-32.218,61.406c-17.85,15.633-40.045,25.128-59.707,38.34c-19.663,13.215-37.861,32.324-40.215,56.102
				c-3.494,35.301,6.811,72.896-38.009,85.021C598,695.148,569.379,684.451,546.077,669.105z"/>
		</g>
	</g>
	<path fill="#FFFFFF" d="M214.38,137.022c-4.559-1.763-9.117-2.648-13.675-3.249c-2.982-0.398-5.965-0.597-8.947-0.68
		c-0.083-2.983-0.282-5.966-0.68-8.948c-0.6-4.558-1.485-9.117-3.249-13.675c-0.083-0.216-0.256-0.4-0.489-0.49
		c-0.441-0.17-0.938,0.048-1.108,0.49c-1.763,4.558-2.649,9.117-3.249,13.675c-0.403,3.021-0.603,6.039-0.683,9.06
		c-2.981,0.148-5.963,0.394-8.944,0.784c-4.559,0.625-9.117,1.467-13.675,3.032c-0.236,0.083-0.438,0.27-0.525,0.524
		c-0.151,0.441,0.084,0.922,0.525,1.074c4.559,1.564,9.117,2.408,13.675,3.03c3.018,0.395,6.035,0.644,9.053,0.792
		c0.147,3.017,0.396,6.035,0.791,9.053c0.624,4.558,1.467,9.117,3.032,13.674c0.082,0.236,0.27,0.437,0.525,0.526
		c0.441,0.15,0.921-0.084,1.072-0.526c1.565-4.557,2.408-9.117,3.032-13.674c0.39-2.981,0.636-5.962,0.785-8.944
		c3.02-0.081,6.04-0.28,9.059-0.683c4.559-0.601,9.117-1.486,13.675-3.248c0.216-0.084,0.4-0.258,0.491-0.491
		C215.041,137.688,214.822,137.192,214.38,137.022z"/>
	<path fill="#FFFFFF" d="M826.104,624.926c-6.073-2.347-12.145-3.527-18.218-4.33c-3.973-0.527-7.946-0.793-11.92-0.903
		c-0.109-3.971-0.374-7.946-0.903-11.92c-0.802-6.072-1.981-12.145-4.329-18.217c-0.111-0.286-0.341-0.531-0.652-0.65
		c-0.588-0.229-1.248,0.062-1.478,0.65c-2.347,6.072-3.526,12.145-4.326,18.217c-0.537,4.023-0.801,8.048-0.91,12.071
		c-3.973,0.196-7.942,0.523-11.915,1.043c-6.071,0.834-12.145,1.955-18.217,4.039c-0.315,0.11-0.583,0.36-0.699,0.699
		c-0.2,0.589,0.113,1.228,0.699,1.432c6.072,2.081,12.146,3.205,18.217,4.036c4.021,0.527,8.041,0.858,12.062,1.056
		c0.195,4.019,0.526,8.038,1.052,12.058c0.832,6.072,1.955,12.146,4.038,18.218c0.111,0.314,0.36,0.584,0.699,0.699
		c0.59,0.204,1.229-0.111,1.431-0.699c2.085-6.072,3.206-12.146,4.039-18.218c0.52-3.97,0.848-7.94,1.044-11.915
		c4.024-0.106,8.049-0.372,12.069-0.908c6.073-0.802,12.145-1.979,18.218-4.326c0.287-0.115,0.533-0.344,0.652-0.654
		C826.986,625.813,826.693,625.151,826.104,624.926z"/>
	<path fill="#FFFFFF" d="M100.653,473.088c-3.786-1.464-7.571-2.199-11.356-2.696c-2.477-0.331-4.954-0.495-7.431-0.563
		c-0.069-2.479-0.234-4.957-0.564-7.433c-0.498-3.785-1.233-7.571-2.698-11.358c-0.069-0.178-0.212-0.331-0.407-0.404
		c-0.366-0.143-0.779,0.039-0.92,0.404c-1.464,3.787-2.2,7.573-2.698,11.358c-0.334,2.509-0.5,5.015-0.567,7.524
		c-2.476,0.122-4.952,0.326-7.428,0.652c-3.785,0.516-7.571,1.218-11.356,2.516c-0.196,0.068-0.363,0.223-0.436,0.436
		c-0.126,0.369,0.068,0.766,0.436,0.893c3.786,1.3,7.571,1.999,11.356,2.518c2.507,0.327,5.013,0.531,7.519,0.655
		c0.123,2.506,0.329,5.013,0.656,7.519c0.519,3.787,1.219,7.571,2.518,11.356c0.068,0.195,0.224,0.363,0.436,0.437
		c0.367,0.127,0.766-0.068,0.892-0.437c1.299-3.785,2-7.569,2.518-11.356c0.324-2.476,0.528-4.951,0.651-7.428
		c2.507-0.067,5.016-0.23,7.523-0.565c3.785-0.499,7.571-1.235,11.356-2.698c0.179-0.07,0.332-0.214,0.407-0.408
		C101.202,473.642,101.021,473.229,100.653,473.088z"/>
	<path fill="#FFFFFF" d="M849.558,289.599c-3.787-1.464-7.572-2.2-11.358-2.697c-2.476-0.331-4.953-0.495-7.43-0.565
		c-0.068-2.477-0.234-4.954-0.564-7.431c-0.498-3.785-1.234-7.571-2.699-11.356c-0.068-0.179-0.212-0.333-0.406-0.407
		c-0.366-0.142-0.779,0.041-0.92,0.407c-1.464,3.786-2.201,7.571-2.697,11.356c-0.335,2.508-0.5,5.017-0.567,7.524
		c-2.476,0.124-4.952,0.328-7.428,0.651c-3.785,0.52-7.572,1.219-11.355,2.519c-0.197,0.068-0.364,0.224-0.437,0.435
		c-0.127,0.367,0.068,0.766,0.437,0.892c3.783,1.299,7.57,2,11.355,2.517c2.507,0.329,5.013,0.535,7.52,0.657
		c0.122,2.506,0.327,5.013,0.655,7.52c0.518,3.784,1.22,7.57,2.518,11.355c0.07,0.196,0.225,0.362,0.435,0.436
		c0.37,0.127,0.768-0.068,0.892-0.436c1.301-3.785,2-7.571,2.52-11.355c0.324-2.478,0.527-4.953,0.65-7.429
		c2.509-0.067,5.018-0.231,7.523-0.567c3.786-0.498,7.571-1.233,11.358-2.698c0.179-0.07,0.33-0.213,0.406-0.407
		C850.105,290.151,849.922,289.74,849.558,289.599z"/>
	<path fill="#FFFFFF" d="M106.994,619.905c-1.619-0.626-3.238-0.94-4.857-1.153c-1.059-0.139-2.119-0.213-3.178-0.242
		c-0.03-1.059-0.101-2.117-0.242-3.176c-0.212-1.619-0.527-3.238-1.153-4.858c-0.03-0.078-0.092-0.143-0.175-0.173
		c-0.156-0.061-0.333,0.017-0.393,0.173c-0.625,1.62-0.94,3.239-1.154,4.858c-0.143,1.07-0.213,2.146-0.242,3.218
		c-1.059,0.054-2.118,0.139-3.177,0.277c-1.618,0.221-3.237,0.521-4.855,1.076c-0.085,0.028-0.156,0.097-0.188,0.188
		c-0.054,0.154,0.03,0.326,0.188,0.38c1.618,0.556,3.237,0.854,4.855,1.079c1.072,0.139,2.145,0.226,3.216,0.277
		c0.052,1.072,0.142,2.143,0.282,3.219c0.222,1.615,0.52,3.234,1.076,4.854c0.03,0.087,0.096,0.156,0.186,0.188
		c0.157,0.054,0.328-0.028,0.382-0.188c0.556-1.619,0.855-3.238,1.077-4.854c0.138-1.06,0.226-2.118,0.278-3.177
		c1.072-0.028,2.145-0.103,3.218-0.246c1.619-0.212,3.238-0.527,4.857-1.152c0.077-0.028,0.142-0.09,0.174-0.172
		C107.229,620.143,107.15,619.967,106.994,619.905z"/>
	<path fill="#FFFFFF" d="M72.534,287.521c-2.668-1.032-5.339-1.551-8.008-1.903c-1.746-0.231-3.493-0.349-5.239-0.397
		c-0.049-1.746-0.165-3.492-0.398-5.239c-0.351-2.668-0.87-5.337-1.902-8.007c-0.049-0.127-0.15-0.234-0.288-0.287
		c-0.257-0.101-0.549,0.028-0.648,0.287c-1.032,2.669-1.551,5.339-1.901,8.007c-0.236,1.769-0.353,3.538-0.4,5.305
		c-1.746,0.088-3.492,0.231-5.238,0.46c-2.67,0.365-5.339,0.859-8.008,1.775c-0.138,0.048-0.257,0.159-0.307,0.307
		c-0.089,0.259,0.048,0.54,0.307,0.629c2.669,0.916,5.338,1.409,8.008,1.775c1.767,0.23,3.534,0.375,5.301,0.462
		c0.087,1.767,0.232,3.535,0.464,5.301c0.365,2.669,0.858,5.338,1.774,8.007c0.049,0.139,0.158,0.257,0.308,0.308
		c0.259,0.088,0.54-0.049,0.628-0.308c0.917-2.669,1.41-5.337,1.776-8.007c0.228-1.746,0.372-3.491,0.459-5.237
		c1.769-0.048,3.537-0.165,5.305-0.4c2.669-0.352,5.339-0.87,8.008-1.902c0.126-0.049,0.234-0.151,0.287-0.287
		C72.921,287.911,72.792,287.62,72.534,287.521z"/>
	<path fill="#FFFFFF" d="M702.439,137.357c-2.67-1.031-5.338-1.551-8.009-1.901c-1.746-0.234-3.492-0.35-5.238-0.398
		c-0.048-1.747-0.165-3.493-0.397-5.24c-0.352-2.669-0.872-5.338-1.902-8.008c-0.051-0.126-0.15-0.233-0.287-0.287
		c-0.258-0.101-0.549,0.028-0.649,0.287c-1.032,2.669-1.552,5.339-1.903,8.008c-0.234,1.768-0.352,3.537-0.398,5.305
		c-1.746,0.088-3.492,0.232-5.238,0.46c-2.668,0.365-5.338,0.858-8.006,1.774c-0.14,0.05-0.258,0.159-0.309,0.308
		c-0.089,0.259,0.049,0.54,0.309,0.629c2.668,0.916,5.338,1.41,8.006,1.775c1.767,0.23,3.535,0.376,5.302,0.462
		c0.086,1.768,0.23,3.535,0.462,5.301c0.366,2.671,0.861,5.339,1.776,8.008c0.047,0.139,0.157,0.256,0.308,0.308
		c0.259,0.089,0.539-0.05,0.629-0.308c0.917-2.669,1.408-5.337,1.775-8.008c0.229-1.745,0.372-3.491,0.457-5.237
		c1.769-0.047,3.538-0.164,5.306-0.4c2.671-0.352,5.339-0.87,8.009-1.902c0.127-0.049,0.234-0.15,0.286-0.287
		C702.826,137.749,702.697,137.457,702.439,137.357z"/>
	<path fill="#FFFFFF" d="M391.927,65.863c-2.67-1.033-5.339-1.55-8.007-1.902c-1.748-0.233-3.494-0.348-5.242-0.398
		c-0.049-1.746-0.164-3.493-0.397-5.239c-0.351-2.669-0.871-5.338-1.901-8.008c-0.049-0.126-0.151-0.234-0.286-0.287
		c-0.26-0.1-0.552,0.029-0.65,0.287c-1.033,2.67-1.55,5.339-1.902,8.008c-0.237,1.768-0.354,3.536-0.4,5.305
		c-1.746,0.086-3.492,0.23-5.238,0.458c-2.671,0.366-5.339,0.86-8.007,1.776c-0.139,0.048-0.258,0.159-0.307,0.308
		c-0.09,0.257,0.047,0.54,0.307,0.627c2.668,0.917,5.336,1.411,8.007,1.775c1.766,0.232,3.535,0.377,5.304,0.464
		c0.085,1.768,0.229,3.534,0.462,5.301c0.364,2.669,0.858,5.338,1.774,8.008c0.049,0.138,0.157,0.255,0.307,0.307
		c0.258,0.088,0.54-0.048,0.63-0.307c0.916-2.669,1.409-5.338,1.774-8.008c0.229-1.746,0.372-3.492,0.458-5.238
		c1.771-0.047,3.537-0.164,5.308-0.4c2.668-0.351,5.336-0.87,8.007-1.902c0.127-0.049,0.232-0.149,0.286-0.286
		C392.313,66.253,392.184,65.963,391.927,65.863z"/>
	<path fill="#FFFFFF" d="M866.664,129.18c-1.375-0.531-2.746-0.798-4.119-0.979c-0.898-0.12-1.799-0.18-2.697-0.205
		c-0.025-0.898-0.085-1.796-0.205-2.695c-0.18-1.374-0.448-2.747-0.977-4.121c-0.026-0.064-0.079-0.121-0.15-0.147
		c-0.132-0.051-0.281,0.014-0.333,0.147c-0.531,1.374-0.798,2.747-0.979,4.121c-0.119,0.91-0.18,1.82-0.204,2.729
		c-0.899,0.044-1.797,0.119-2.695,0.235c-1.373,0.189-2.747,0.443-4.119,0.914c-0.072,0.025-0.134,0.082-0.159,0.158
		c-0.045,0.133,0.025,0.277,0.159,0.324c1.372,0.471,2.746,0.725,4.119,0.913c0.909,0.119,1.818,0.194,2.728,0.238
		c0.046,0.909,0.119,1.818,0.238,2.728c0.188,1.375,0.443,2.747,0.913,4.121c0.024,0.07,0.082,0.131,0.157,0.158
		c0.136,0.046,0.279-0.025,0.326-0.158c0.47-1.374,0.723-2.747,0.911-4.121c0.119-0.897,0.192-1.796,0.237-2.694
		c0.91-0.024,1.82-0.084,2.73-0.206c1.373-0.181,2.744-0.448,4.119-0.978c0.065-0.026,0.119-0.078,0.148-0.148
		C866.865,129.38,866.797,129.232,866.664,129.18z"/>
	<path fill="#FFFFFF" d="M234.731,752.089c-1.722-0.666-3.441-1.002-5.164-1.227c-1.125-0.151-2.252-0.226-3.377-0.258
		c-0.032-1.124-0.106-2.253-0.257-3.378c-0.227-1.722-0.561-3.442-1.227-5.164c-0.031-0.078-0.097-0.146-0.185-0.184
		c-0.167-0.066-0.353,0.021-0.418,0.184c-0.666,1.722-1,3.442-1.227,5.164c-0.151,1.141-0.227,2.281-0.257,3.419
		c-1.126,0.058-2.252,0.151-3.377,0.299c-1.722,0.237-3.442,0.552-5.163,1.145c-0.089,0.028-0.165,0.102-0.198,0.196
		c-0.057,0.168,0.032,0.348,0.198,0.404c1.721,0.594,3.441,0.912,5.163,1.146c1.139,0.151,2.278,0.245,3.417,0.298
		c0.056,1.142,0.149,2.282,0.298,3.42c0.236,1.721,0.554,3.442,1.145,5.163c0.031,0.091,0.102,0.164,0.199,0.196
		c0.166,0.058,0.347-0.027,0.404-0.196c0.591-1.721,0.909-3.442,1.146-5.163c0.146-1.125,0.239-2.25,0.296-3.379
		c1.14-0.028,2.28-0.102,3.419-0.257c1.722-0.226,3.442-0.561,5.164-1.228c0.081-0.027,0.15-0.094,0.186-0.183
		C234.981,752.338,234.898,752.154,234.731,752.089z"/>
	<g>
		<ellipse opacity="0.43" fill="#00C5EB" cx="427.674" cy="852.146" rx="187.921" ry="17.275"/>
		<path fill="#FF8980" d="M586.531,269.691c-4.29,11.914-10.359,39.848-28.336,36.194c-25.039-5.091-2.871-32.153,1.27-44.096
			c7.29-21.028-5.92-42.228-14.188-60.828c-3.051-6.864-16.141-44.644,4.361-33.713c10.162,5.418,16.171,20.805,21.235,30.493
			c7.608,14.551,13.421,30.042,17.237,46.013c0.98,4.095,1.833,8.276,1.646,12.482C589.552,260.863,588.101,265.334,586.531,269.691
			z"/>
		<path fill="#FDBA00" d="M521.671,375.297c6.488-1.861,12.589-9.148,17.113-13.674c13.148-13.151,28.179-30.754,35.181-48.151
			c0.482-1.197,0.952-2.431,0.987-3.722c0.039-1.428-0.462-2.813-1.021-4.128c-3.986-9.37-20.391-29.013-32.4-26.949
			c-10.448,1.794-17.025,24.001-20.576,32.11c-6.292,14.381-11.423,29.269-15.317,44.475c-0.783,3.061-1.517,6.294-0.68,9.341
			c1.72,6.26,7.413,11.476,14.204,11.13C520.003,375.684,520.841,375.535,521.671,375.297z"/>
		<path fill="#00318B" d="M442.329,312.517c-4.017,1.948-9.283,2.033-12.559-0.999c-1.93-1.787-2.9-4.349-3.812-6.816
			c-6.665-18.086-13.334-36.175-19.999-54.262c-3.063-8.311-6.167-17.274-3.912-25.84c2.258-8.565,12.43-15.514,20.118-11.12
			c5.107-20.246,23.982-33.617,42.116-43.969c7.17-4.096,15.136-8.141,23.289-6.842c8.155,1.298,15.272,10.688,11.191,17.867
			c5.268,1.849,8.604,7.436,9.014,13.002c0.41,5.567-1.656,11.057-4.484,15.868c-7.324,12.457-20.161,21.532-34.347,24.278
			c-5.561,1.077-11.347,1.242-16.648,3.235c-5.302,1.992-10.238,6.478-10.472,12.135c-0.162,3.879,1.866,7.469,2.823,11.231
			c2.47,9.697-2.151,20.65,2.199,29.663C451.73,300.064,455.021,306.359,442.329,312.517z"/>
		
			<rect x="426.937" y="772.709" transform="matrix(0.9668 0.2557 -0.2557 0.9668 218.671 -85.4205)" fill="#5E5B69" width="21.827" height="51.111"/>
		<g>
			<path fill="#FF7871" d="M467.127,320.618c1.22,5.329,7.469,22.632,8.243,24.522c5.034,12.313,24.824,5.814,21.75-7.54
				c-1.831-7.957-5.369-15.372-7.313-23.158c-0.195,0.06-0.386,0.141-0.582,0.198C482.684,316.543,474.817,319.419,467.127,320.618z
				"/>
			<path fill="#FF8980" d="M508.123,267.574c-1.424-8.356-5.2-51.792-16.512-50.772c-0.208,0.019-0.418,0.052-0.631,0.102
				c-1.35,0.312-2.547,1.069-3.74,1.777c-13.693,8.125-26.408,9.563-41.203,13.584c-4.59,1.246-9.54,3.276-11.499,7.61
				c-2.24,4.953,0.354,10.627,2.785,15.487c1.948,3.893,6.85,13.493,3.239,17.497c-1.841,2.04-5.255,2.403-7.481,0.795
				c-1.359-0.98-2.204-2.501-3.005-3.973c-4.714-8.634-16.551-15.543-23.114-3.619c-7.115,12.931,11.675,23.309,20.575,13.646
				c-2.834,3.077,10.968,24.354,12.612,27.462c2.927,5.54,6.667,11.206,13.022,13.046c4.332,1.251,9.107,1.157,13.955,0.402
				c7.69-1.199,15.557-4.075,22.098-5.978c0.196-0.057,0.387-0.138,0.582-0.198c8.933-2.744,17.049-8.563,20.457-17.713
				C513.783,287.292,509.723,276.978,508.123,267.574z"/>
		</g>
		
			<ellipse transform="matrix(0.9554 -0.2954 0.2954 0.9554 -50.35 156.7307)" fill="#242221" cx="493.583" cy="245.017" rx="3.1" ry="6.921"/>
		
			<ellipse transform="matrix(0.9554 -0.2953 0.2953 0.9554 -54.3312 148.3771)" fill="#242221" cx="464.175" cy="254.103" rx="3.102" ry="6.922"/>
		<g>
			<path fill="#F6453F" d="M484.292,243.695c0,0,0.219,0.508,0.601,1.396c0.189,0.443,0.421,0.981,0.686,1.598
				c0.257,0.62,0.597,1.294,0.939,2.042c0.374,0.729,0.73,1.547,1.213,2.348c0.443,0.825,0.994,1.637,1.568,2.47
				c0.63,0.789,1.262,1.616,2.021,2.345c0.709,0.768,1.611,1.434,2.402,2.279c0.78,0.848,1.573,1.865,1.612,3.284
				c-0.022,0.281,0.002,0.521-0.06,0.832c-0.086,0.315-0.157,0.672-0.294,0.938c-0.255,0.552-0.592,1.026-0.954,1.451
				c-0.732,0.847-1.59,1.442-2.383,1.989c-0.795,0.539-1.561,0.995-2.26,1.445c-1.395,0.896-2.581,1.607-3.418,2.096
				c-0.828,0.501-1.32,0.761-1.32,0.761s0.414-0.372,1.17-0.978c0.747-0.617,1.823-1.486,3.146-2.486
				c0.657-0.503,1.368-1.048,2.121-1.624c0.742-0.559,1.494-1.185,2.11-1.917c0.302-0.37,0.564-0.766,0.748-1.188
				c0.104-0.208,0.109-0.395,0.191-0.589c0.056-0.212,0.038-0.523,0.062-0.782c-0.009-0.802-0.579-1.733-1.285-2.469
				c-0.71-0.776-1.593-1.44-2.358-2.272c-0.809-0.784-1.473-1.664-2.086-2.53c-0.564-0.896-1.1-1.766-1.52-2.634
				c-0.461-0.848-0.792-1.693-1.136-2.455c-0.29-0.783-0.582-1.491-0.793-2.133c-0.219-0.639-0.409-1.196-0.567-1.655
				c-0.289-0.923-0.454-1.451-0.454-1.451c-0.026-0.083,0.02-0.172,0.104-0.199C484.177,243.581,484.26,243.621,484.292,243.695z"/>
		</g>
		<path fill="#FFFFFF" d="M497.227,283.429c-0.229-1.465-0.979-2.776-2.55-3.693c-1.91-1.116-4.313-0.488-6.453,0.075
			c-7.874,2.072-16.088,2.847-24.208,2.285c-2.62-0.182-5.801-0.241-7.207,1.975c-0.761,1.197-0.691,2.634-0.236,4.014
			c1.174,0.25,2.382,0.399,3.556,0.495C472.674,289.6,485.428,287.806,497.227,283.429z"/>
		<g>
			<path fill="#FFA6D9" d="M483.512,291.474c-2.283-1.619-4.888-2.547-7.624-3.102c-5.233,0.54-10.513,0.634-15.76,0.206
				c-1.174-0.096-2.382-0.245-3.556-0.495c0.289,0.877,0.73,1.731,1.224,2.486c3.521,5.397,9.961,8.81,16.2,9.874
				c5.561,0.949,10.521-0.385,14.87-3.329C487.339,294.991,485.639,292.981,483.512,291.474z"/>
			<path fill="#8E1317" d="M497.227,283.429c-6.865,2.547-14.057,4.19-21.339,4.943c2.736,0.555,5.341,1.482,7.624,3.102
				c2.127,1.508,3.827,3.518,5.354,5.641c1.436-0.973,2.806-2.117,4.108-3.417C495.11,291.564,497.784,287.021,497.227,283.429z"/>
		</g>
		<g>
			<path fill="#00464E" d="M454.157,245.306c0,0,0.041-0.178,0.114-0.489c0.036-0.155,0.08-0.344,0.131-0.561
				c0.041-0.215,0.107-0.461,0.236-0.741c0.116-0.278,0.242-0.579,0.374-0.896c0.124-0.33,0.343-0.597,0.523-0.918
				c0.195-0.309,0.376-0.646,0.641-0.925c0.249-0.294,0.503-0.593,0.755-0.892c0.295-0.259,0.59-0.519,0.879-0.774
				c0.279-0.273,0.613-0.462,0.924-0.666c0.318-0.188,0.601-0.423,0.921-0.548c0.313-0.139,0.61-0.27,0.885-0.391
				c0.271-0.135,0.535-0.214,0.775-0.267c0.239-0.062,0.446-0.115,0.618-0.158c0.344-0.086,0.541-0.136,0.541-0.136
				c0.512-0.127,1.029,0.184,1.156,0.695c0.128,0.511-0.184,1.029-0.694,1.157c-0.019,0.004-0.038,0.009-0.058,0.012l-0.156,0.029
				c0,0-0.16,0.028-0.438,0.079c-0.141,0.025-0.312,0.055-0.507,0.089c-0.199,0.024-0.419,0.07-0.647,0.167
				c-0.234,0.083-0.487,0.171-0.755,0.265c-0.277,0.079-0.521,0.266-0.804,0.4c-0.273,0.152-0.575,0.284-0.825,0.503
				c-0.267,0.199-0.537,0.401-0.807,0.604c-0.237,0.241-0.475,0.483-0.709,0.72c-0.254,0.224-0.426,0.505-0.616,0.761
				c-0.173,0.262-0.402,0.499-0.514,0.754c-0.13,0.251-0.253,0.489-0.366,0.708c-0.128,0.206-0.212,0.438-0.271,0.658
				c-0.067,0.212-0.125,0.397-0.174,0.549c-0.096,0.304-0.151,0.479-0.151,0.479c-0.084,0.268-0.37,0.417-0.638,0.333
				C454.245,245.827,454.098,245.563,454.157,245.306z"/>
		</g>
		<g>
			<path fill="#00464E" d="M496.94,230.786c0,0-0.127-0.083-0.348-0.229c-0.111-0.073-0.245-0.161-0.399-0.263
				c-0.154-0.11-0.329-0.216-0.52-0.281c-0.188-0.082-0.391-0.17-0.605-0.263c-0.205-0.106-0.477-0.138-0.726-0.216
				c-0.257-0.064-0.515-0.155-0.795-0.166c-0.274-0.03-0.554-0.062-0.833-0.092c-0.279,0.011-0.56,0.022-0.835,0.033
				c-0.275-0.009-0.538,0.064-0.794,0.109c-0.252,0.061-0.508,0.069-0.727,0.163c-0.222,0.08-0.431,0.155-0.624,0.226
				c-0.396,0.114-0.661,0.346-0.876,0.439c-0.207,0.114-0.324,0.179-0.324,0.179l-0.113,0.063c-0.383,0.211-0.864,0.071-1.075-0.311
				c-0.211-0.383-0.071-0.864,0.312-1.075c0.014-0.008,0.03-0.017,0.045-0.023c0,0,0.152-0.071,0.419-0.196
				c0.274-0.104,0.63-0.347,1.118-0.457c0.24-0.065,0.5-0.137,0.774-0.212c0.271-0.087,0.575-0.084,0.879-0.13
				c0.307-0.031,0.62-0.086,0.942-0.056c0.32,0.013,0.646,0.025,0.971,0.038c0.319,0.06,0.639,0.119,0.953,0.178
				c0.316,0.041,0.609,0.163,0.896,0.259c0.284,0.112,0.564,0.169,0.817,0.316c0.252,0.135,0.489,0.263,0.71,0.381
				c0.23,0.112,0.401,0.236,0.54,0.352c0.146,0.113,0.272,0.211,0.378,0.292c0.209,0.162,0.329,0.254,0.329,0.254
				c0.185,0.143,0.219,0.408,0.076,0.592C497.371,230.867,497.123,230.905,496.94,230.786z"/>
		</g>
		<g>
			<path fill="#F6453F" d="M417.977,265.878c0,0-0.078-0.018-0.226-0.051c-0.153-0.047-0.357-0.069-0.589-0.085
				c-0.499-0.032-1.239,0.09-2.002,0.527c-0.757,0.438-1.519,1.189-2.071,2.155c-0.271,0.48-0.479,1.039-0.609,1.581
				c-0.154,0.645-0.233,1.169-0.227,1.786c-0.02,0.603,0.065,1.205,0.19,1.782c0.054,0.292,0.17,0.561,0.249,0.839
				c0.111,0.264,0.226,0.524,0.344,0.775c0.145,0.222,0.282,0.499,0.424,0.668c0.187,0.206,0.362,0.479,0.547,0.605
				c0.341,0.317,0.752,0.603,1.153,0.763c0.199,0.091,0.391,0.181,0.587,0.214c0.193,0.044,0.375,0.111,0.554,0.106
				c0.176,0.006,0.344,0.033,0.497,0.025c0.153-0.02,0.292-0.038,0.419-0.054c0.259-0.016,0.438-0.125,0.574-0.152
				c0.133-0.042,0.203-0.064,0.203-0.064l0.054-0.017c0.141-0.045,0.292,0.033,0.336,0.175c0.042,0.132-0.025,0.272-0.148,0.327
				c0,0-0.079,0.034-0.228,0.099c-0.153,0.049-0.36,0.192-0.662,0.241c-0.15,0.029-0.316,0.062-0.497,0.097
				c-0.182,0.022-0.382,0.009-0.596,0.014c-0.216,0.016-0.436-0.042-0.672-0.081c-0.241-0.028-0.476-0.113-0.721-0.208
				c-0.495-0.181-0.976-0.472-1.454-0.886c-0.268-0.198-0.403-0.412-0.614-0.625c-0.238-0.268-0.369-0.525-0.562-0.8
				c-0.151-0.283-0.298-0.578-0.426-0.883c-0.097-0.314-0.23-0.625-0.297-0.953c-0.152-0.652-0.255-1.329-0.244-2.009
				c-0.023-0.665,0.089-1.421,0.224-2.001c0.163-0.685,0.422-1.29,0.748-1.853c0.654-1.116,1.577-1.967,2.525-2.418
				c0.466-0.241,0.941-0.364,1.362-0.437c0.431-0.047,0.802-0.035,1.113,0.012c0.325,0.056,0.552,0.123,0.681,0.184
				c0.141,0.054,0.216,0.083,0.216,0.083c0.141,0.054,0.21,0.21,0.157,0.351C418.242,265.839,418.106,265.908,417.977,265.878z"/>
		</g>
		<g>
			
				<rect x="273.59" y="622.192" transform="matrix(-0.1423 0.9898 -0.9898 -0.1423 966.1381 458.2897)" fill="#5E5B69" width="21.828" height="51.11"/>
			<g>
				<path fill="#CA521A" d="M229.577,713.018c2.459,0.024,4.391-2.008,5.976-3.889c11.735-13.932,22.759-28.464,33.011-43.52
					c1.526-2.241,3.513-5.145,2.841-8.028c-0.808-3.462-4.045-3.107-5.408-5.405c-3.724-6.277,1.776-13.797,5.534-18.643
					c-4.951-4.813-10.748-6.148-17.329-7.363c-3.179-0.59-6.747-0.834-9.885-0.164c-8.329,28.289-13.606,57.472-15.677,86.889
					C228.943,712.969,229.256,713.014,229.577,713.018z"/>
				<path fill="#722606" d="M244.316,626.006c-2.67,0.572-5.031,1.804-6.567,4.085c-1.344,1.991-1.777,4.444-2.178,6.817
					c-3.623,21.446-7.247,42.894-10.871,64.341c-0.405,2.396-0.807,4.882-0.171,7.229c0.551,2.033,2.117,3.93,4.109,4.416
					C230.71,683.478,235.987,654.295,244.316,626.006z"/>
			</g>
			
				<path fill="none" stroke="#722606" stroke-width="2.2312" stroke-linecap="round" stroke-linejoin="round" stroke-miterlimit="10" d="
				M257.242,655.518c5.3,2.584,8.954,8.242,9.133,14.135"/>
			
				<path fill="none" stroke="#722606" stroke-width="2.0344" stroke-linecap="round" stroke-linejoin="round" stroke-miterlimit="10" d="
				M253.318,661.639c1.819,2.225,3.88,4.31,5.271,6.85c1.117,2.039,2.092,5.466,1.662,7.797"/>
			
				<path fill="none" stroke="#722606" stroke-width="2.0344" stroke-linecap="round" stroke-linejoin="round" stroke-miterlimit="10" d="
				M248.112,669.437c4.176,3.546,6.588,9.073,6.348,14.545"/>
		</g>
		<g>
			<path fill="#007D82" d="M424.227,794.26c-0.155,0.854-0.31,1.709-0.462,2.56c8.256,4.764,17.228,8.28,26.517,10.402
				c0.74,0.172,3.586-6.493,6.425-13.677c-10.297-3.027-20.424-6.617-30.321-10.763C425.653,786.605,424.921,790.428,424.227,794.26
				z"/>
			<path fill="#005960" d="M538.354,493.756c-2.746-4.718-7.151-8.264-11.858-11.027c-21.521-12.636-50.617-10.686-73.479-1.774
				c-17.29,6.738-34.49,19.991-42.275,37.28c-3.936,8.742-4.013,20.579-6.336,30.107c-2.85,11.698-5.938,23.34-8.387,35.129
				c-3.899,18.766-7.798,37.533-11.699,56.299c-0.872,4.184-41.742-1.047-45.363-1.361c-11.045-0.953-22.029-2.481-32.998-4.069
				c-5.421-0.784-10.816-1.651-16.209-2.552c-1.561,10.89-2.294,21.898-2.145,32.893c2.503,0.617,5.008,1.22,7.478,1.98
				c7.275,2.24,14.736,3.537,22.076,5.471c8.483,2.232,16.99,4.371,25.511,6.448c16.753,4.093,33.709,7.332,50.754,9.933
				c4.533,0.691,9.509,1.252,13.402-1.174c2.878-1.791,4.616-4.898,6.236-7.876c24.264-44.64,48.571-89.362,68.435-136.126
				c-15.898,62.285-29.241,124.73-44.003,187.285c-4.084,17.305-7.775,34.696-11.11,52.161c9.897,4.146,20.024,7.735,30.325,10.753
				c14.764-37.374,30.018-75.107,41.741-113.557c15.727-51.568,31.482-103.258,41.585-156.217
				C541.955,513.694,543.511,502.609,538.354,493.756z"/>
			<path fill="#007D82" d="M289.751,631.787c-3.223-0.539-6.445-1.074-9.672-1.647c-0.185-0.032-0.384-0.061-0.554,0.021
				c-0.273,0.127-0.345,0.479-0.385,0.777c-1.282,9.887-2.034,19.427-2.435,29.327c-0.012,0.306-0.021,0.63,0.136,0.891
				c0.175,0.295,0.513,0.442,0.831,0.569c3.238,1.287,6.583,2.134,9.934,2.955C287.457,653.686,288.19,642.677,289.751,631.787z"/>
		</g>
		<path fill="#FBC900" d="M529.263,351.625c-1.479-3.057-3.335-5.99-5.782-8.791c-5.339-6.108-15.119-15.13-24.033-11.226
			c-5.468,2.396-5.011,9.952-12.645,11.03c-4.193,0.592-8.645-1.154-11.318-4.44c-0.507-0.624-1.016-1.342-1.795-1.553
			c-0.562-0.151-1.157-0.002-1.72,0.158c-13.124,3.714-27.593,14.618-33.986,26.686c-4.818,9.093-7.047,19.294-9.223,29.352
			c-6.575,30.374-12.546,60.577-16.348,91.45c-1.922,15.611-5.412,30.811-5.479,46.677c0.012-3.202,22.081-11.933,25.238-13.024
			c8.599-2.973,18.302-4.682,27.343-6.235c26.676-4.58,55.951-6.224,82.095,1.427c4.342-13.613,3.833-31.03,4.195-45.229
			c0.406-16.036-0.32-32.091-2.014-48.04c-1.701-16.021-4.445-31.929-8.224-47.592C533.787,364.896,532.342,357.993,529.263,351.625
			z"/>
		<path fill="#FFD93F" d="M394.206,416.418c4.185,5.192,14.097,7.622,19.519,8.727c6.996,1.426,17.385,1.997,21.116-5.63
			c5.027-10.28,8.346-21.288,11.694-32.194c2.409-7.841,4.486-15.721,6.698-23.561c1.44-5.097,3.55-13.532-0.649-17.918
			c-13.682-14.285-29.724,8.625-36.184,19.162c-7.437,12.128-24.789,31.507-24.134,46.511
			C392.348,413.375,393.063,414.999,394.206,416.418z"/>
		<g>
			<path fill="#CA521A" d="M496.34,860.359c0.308-2.44-1.485-4.592-3.171-6.383c-12.484-13.265-25.646-25.893-39.42-37.816
				c-2.048-1.773-4.703-4.085-7.642-3.749c-3.536,0.405-3.556,3.66-5.995,4.747c-6.668,2.973-13.498-3.356-17.878-7.646
				c-5.353,4.359-7.353,9.965-9.319,16.36c-0.951,3.092-1.608,6.604-1.305,9.802c27.14,11.539,55.516,20.151,84.498,25.602
				C496.217,860.986,496.298,860.679,496.34,860.359z"/>
			<path fill="#722606" d="M411.611,835.674c0.262,2.715,1.215,5.205,3.3,6.993c1.827,1.565,4.212,2.276,6.521,2.952
				c20.884,6.076,41.771,12.147,62.655,18.225c2.334,0.679,4.757,1.366,7.161,1.006c2.086-0.314,4.15-1.648,4.86-3.574
				C467.127,855.825,438.751,847.213,411.611,835.674z"/>
		</g>
		
			<path fill="none" stroke="#722606" stroke-width="2.2312" stroke-linecap="round" stroke-linejoin="round" stroke-miterlimit="10" d="
			M442.418,826.24c3.182-4.964,9.223-7.941,15.097-7.438"/>
		
			<path fill="none" stroke="#722606" stroke-width="2.0344" stroke-linecap="round" stroke-linejoin="round" stroke-miterlimit="10" d="
			M448.046,830.845c2.42-1.55,4.73-3.356,7.412-4.445c2.155-0.875,5.674-1.447,7.936-0.748"/>
		
			<path fill="none" stroke="#722606" stroke-width="2.0344" stroke-linecap="round" stroke-linejoin="round" stroke-miterlimit="10" d="
			M455.193,836.917c4.002-3.737,9.772-5.495,15.178-4.625"/>
		<path fill="#05C5D8" d="M487.84,342.029c-0.849-1.656-2.962-2.751-4.827-3.504c-3.517-1.424-7.845-4.137-11.717-4.159
			c-4.296-0.027-7.944,3.614-11.176,5.989c-3.407,2.502-5.602,6.708-1.396,9.393c5.799,3.702,12.909,6.048,19.38,8.247
			c1.123,0.381,2.362,0.716,3.471,0.295c1.178-0.449,1.896-1.646,2.326-2.833c1.244-3.446,2.593-6.841,3.979-10.242
			C488.388,343.969,488.296,342.918,487.84,342.029z"/>
		<path fill="#04A2B2" d="M487.385,340.579c0.01-0.174,0.032-0.347,0.067-0.523c0.129-0.667,0.446-1.281,0.759-1.883
			c1.857-3.591,3.428-9.928,8.018-10.938c2.791-0.614,7.213,0.686,9.842,1.62c1.545,0.548,3.068,1.324,4.098,2.598
			c4.252,5.255-5.489,15.535-8.522,19.502c-0.579,0.756-1.26,1.517-2.217,1.564c-1.02,0.052-2.091-0.723-2.957-1.601
			C493.976,348.396,487.131,344.854,487.385,340.579z"/>
		
			<ellipse transform="matrix(0.98 0.1988 -0.1988 0.98 91.0555 -73.7277)" fill="#ED8500" cx="412.635" cy="416.522" rx="17.229" ry="5.041"/>
		<g>
			<path fill="#FF8980" d="M399.914,410.793c-5.301,13.364-10.601,26.727-15.904,40.092c-0.908,2.288-2.762,5.06-5.097,4.283
				c-0.918-0.307-1.561-1.112-2.161-1.869c-12.529-15.753-30.246-26.496-44.278-40.927c-1.259-1.294-2.546-2.737-2.796-4.525
				c-0.305-2.191,1.023-4.258,1.355-6.445c0.763-5.054-3.794-9.51-4.002-14.617c-0.089-2.169,0.621-4.34,0.33-6.49
				c-0.527-3.892-4.063-6.56-7.307-8.774c-3.028-2.067-6.15-4.176-9.725-4.985c-9.139-2.07-21.476,5.358-24.718,14.084
				c-3.663,9.868,12.782,25.371,19.416,30.218c2.664,1.947,5.519,3.666,7.878,5.971c2.578,2.518,4.469,5.634,6.461,8.634
				c3.854,5.806,8.175,11.285,12.56,16.699c11.379,14.053,23.219,27.734,35.496,41.013c3.079,3.33,6.256,6.692,10.218,8.906
				c13.556,7.568,21.468-10.329,26.023-20.469c7.97-17.726,17.201-36.274,23.346-55.111c-2.798-1.888-7.663-3.741-13.372-4.899
				C408.208,410.48,403.239,410.255,399.914,410.793z"/>
		</g>
		<g>
			<path fill="#FF8000" d="M529.483,373.006c-8.35,0.676-12.391,1.598-19.802,4.273c-1.465,0.529-3.08-0.032-3.678-1.299
				c-0.607-1.291-0.92-1.933-1.568-3.212c-0.636-1.255,0.132-2.806,1.785-3.412c8.361-3.064,12.898-4.123,22.253-4.959
				c1.851-0.164,3.497,0.901,3.621,2.307c0.129,1.431,0.184,2.146,0.269,3.576C532.45,371.683,531.136,372.871,529.483,373.006z"/>
		</g>
		<circle fill="#103437" cx="491.278" cy="350.703" r="1.819"/>
		<circle fill="#103437" cx="493.097" cy="356.667" r="1.819"/>
		<path fill="#FFFFFF" d="M652.703,739.572c-1.371-0.531-2.744-0.798-4.119-0.981c-0.898-0.119-1.796-0.181-2.694-0.204
			c-0.026-0.896-0.085-1.795-0.204-2.694c-0.183-1.375-0.448-2.748-0.98-4.123c-0.023-0.062-0.076-0.118-0.146-0.147
			c-0.133-0.048-0.281,0.017-0.335,0.147c-0.53,1.375-0.798,2.748-0.978,4.123c-0.123,0.911-0.182,1.819-0.206,2.731
			c-0.898,0.04-1.798,0.117-2.695,0.232c-1.374,0.188-2.746,0.441-4.12,0.916c-0.071,0.025-0.133,0.082-0.158,0.154
			c-0.045,0.136,0.025,0.279,0.158,0.328c1.374,0.47,2.746,0.724,4.12,0.911c0.91,0.119,1.817,0.192,2.729,0.237
			c0.044,0.908,0.12,1.82,0.237,2.729c0.188,1.373,0.441,2.748,0.913,4.121c0.026,0.07,0.082,0.131,0.159,0.155
			c0.133,0.05,0.279-0.024,0.322-0.155c0.473-1.373,0.726-2.748,0.915-4.121c0.116-0.896,0.189-1.795,0.234-2.695
			c0.91-0.024,1.82-0.081,2.729-0.205c1.375-0.179,2.748-0.449,4.119-0.977c0.065-0.028,0.121-0.077,0.15-0.151
			C652.904,739.773,652.839,739.621,652.703,739.572z"/>
		<g>
			<path fill="#EE8E00" d="M559.675,59.444c-0.425-1.295-1.507-2.348-2.936-2.667l-0.09-0.02l-0.008-0.001
				c-7.109-1.669-14.521-1.941-21.732-0.799h-0.002c-2.323,0.369-3.907,2.551-3.539,4.874c0.37,2.324,2.552,3.909,4.876,3.539
				c5.394-0.856,10.938-0.721,16.311,0.284c2.877,7.686,4.668,15.831,5.266,24.108c0.162,2.275,0.229,4.56,0.224,6.847
				c-0.027,1.087-0.019,2.441-0.099,3.203c-0.137,0.803-0.071,0.771-0.654,1.396c-0.553,0.523-1.642,1.26-2.539,1.889
				c-0.938,0.644-1.895,1.264-2.866,1.859c-1.946,1.191-3.959,2.284-6.024,3.271c-1.039,0.502-1.547,1.735-1.117,2.828
				c0.449,1.145,1.744,1.708,2.889,1.257c2.273-0.895,4.504-1.907,6.684-3.033c1.088-0.563,2.164-1.156,3.223-1.777
				c1.08-0.661,2.027-1.149,3.3-2.134c0.614-0.497,1.283-1.152,1.812-2.035c0.534-0.895,0.789-1.814,0.94-2.593
				c0.271-1.579,0.291-2.599,0.425-3.869c0.183-2.438,0.284-4.886,0.287-7.338C564.298,78.73,562.752,68.876,559.675,59.444z"/>
			<path fill="#EE8E00" d="M432.961,114.211c-0.667-1.19-0.717-2.698,0.015-3.966l0.046-0.082l0.004-0.006
				c3.565-6.372,8.369-12.024,14.082-16.572v-0.001c1.84-1.465,4.519-1.161,5.985,0.68c1.465,1.841,1.158,4.52-0.682,5.985
				c-4.272,3.401-7.914,7.584-10.8,12.224c3.73,7.31,8.529,14.132,14.23,20.159c1.571,1.657,3.21,3.249,4.903,4.789
				c0.819,0.713,1.812,1.633,2.428,2.087c0.687,0.442,0.619,0.47,1.473,0.461c0.761-0.054,2.037-0.359,3.107-0.598
				c1.108-0.259,2.212-0.545,3.309-0.859c2.192-0.633,4.355-1.379,6.478-2.234c1.073-0.43,2.326,0.028,2.841,1.084
				c0.54,1.104,0.085,2.438-1.021,2.978c-2.193,1.074-4.447,2.038-6.749,2.883c-1.151,0.423-2.313,0.816-3.485,1.179
				c-1.22,0.352-2.217,0.719-3.803,0.995c-0.782,0.118-1.716,0.168-2.724-0.04c-1.022-0.208-1.873-0.64-2.55-1.054
				c-1.348-0.866-2.113-1.541-3.143-2.299c-1.92-1.513-3.795-3.089-5.607-4.742C444.07,130.639,437.843,122.847,432.961,114.211z"/>
			<g>
				<path fill="#EE8E00" d="M540.076,50.756c-1.18-3.261-2.746-6.753-4.964-8.066c-0.115-0.068-0.229-0.129-0.346-0.186
					c-6.158-2.92-16.904-0.913-23.325,0.192c-8.251,1.421-16.293,4.033-23.901,7.509c-13.427,6.137-26.099,13.93-37.617,23.164
					c-2.782,2.23-5.679,4.849-6.249,8.368c-0.272,1.678,0.025,3.391,0.383,5.05c0.357,1.654,0.791,3.282,1.265,4.898
					C469.547,65.909,504.711,50.729,540.076,50.756z"/>
				<path fill="#FFBA4E" d="M541.807,55.76c-0.479-1.266-1.039-3.096-1.73-5.004c-35.365-0.027-70.529,15.153-94.754,40.93
					c4.518,15.433,14.094,29.101,24.471,41.505c6.787,8.114,14.076,15.949,22.799,21.936c4.463,3.062,9.012,6.021,13.699,8.73
					c8.829,5.101,20.412,4.711,28.764-1.203c7.981-5.652,10.932-15.539,12.311-24.747C551.509,110.202,551.862,82.365,541.807,55.76
					z"/>
			</g>
			<circle fill="#FFCC80" cx="504.588" cy="98.745" r="28.7"/>
		</g>
		<path fill="#FF8980" d="M510.203,167.508c-0.713-1.874-0.971-4.119-0.684-6.083c0.364-2.535,2.268-4.63,4.523-6.09
			c6.971-4.513,15.672-7.844,24.242-4.877c6.979,2.415,10.993,10.743,12.85,16.816c0.912,2.983,1.453,6.333-0.266,9.026
			c-1.148,1.803-3.154,3.04-5.125,4.164c-4.342,2.474-8.861,4.706-13.521,6.681c-1.595,0.675-3.273,1.334-5.045,1.317
			c-3.745-0.034-8.451-5.354-10.388-7.854C513.721,176.643,511.923,172.021,510.203,167.508z"/>
		<g>
			<path fill="#EE8E00" d="M563.298,187.155c-6.993-6.729-19.019-2.415-26.398,1.12c-5.513,2.638-11.183,5.474-15.024,10.227
				c-3.436,4.252-4.871,10.952-1.265,15.004c2.724,0.649,5.497,0.889,7.623,0.854c8.469-0.138,30.142-7.954,38.126-18.528
				C566.745,192.742,565.586,189.358,563.298,187.155z"/>
			<path fill="#FFBA4E" d="M565.564,179.389c-6-6.498-16.81-4.387-24.385-2.354c-8.772,2.354-17.094,6.765-23.859,12.838
				c-5.454,4.896-8.585,10.662-6.512,16.809c1.254,3.716,5.463,5.792,9.802,6.824c-3.606-4.052-2.171-10.752,1.265-15.004
				c3.842-4.753,9.512-7.589,15.024-10.227c7.38-3.535,19.405-7.849,26.398-1.12c2.288,2.203,3.447,5.587,3.062,8.676
				C570.16,190.798,570.873,185.144,565.564,179.389z"/>
		</g>
		
			<text transform="matrix(0.9313 -0.3642 0.3642 0.9313 494.1328 115.6812)" fill="#EE8E00" font-family="'Oswald-Medium'" font-size="32.8042">1</text>
		
			<text transform="matrix(0.543 -0.2123 0.2123 0.543 505.8271 99.3784)" fill="#EE8E00" font-family="'Oswald-Medium'" font-size="32.8042">st</text>
	</g>
	<path fill="#00C1EB" d="M126.15,241.943L126.15,241.943c-1.994,1.152-4.568,0.462-5.72-1.532l-9.295-16.103
		c-1.151-1.993-0.462-4.567,1.532-5.72l0,0c1.995-1.15,4.568-0.461,5.721,1.533l9.295,16.102
		C128.834,238.218,128.146,240.792,126.15,241.943z"/>
	<path fill="#FBC900" d="M326.554,240.323L326.554,240.323c-1.996-1.15-2.685-3.725-1.534-5.719l9.297-16.101
		c1.151-1.995,3.725-2.685,5.719-1.533l0,0c1.995,1.152,2.684,3.726,1.533,5.72l-9.296,16.102
		C331.121,240.786,328.548,241.477,326.554,240.323z"/>
	<path fill="#FBC900" d="M276.484,120.757L276.484,120.757c-1.995-1.15-2.685-3.725-1.533-5.719l9.295-16.101
		c1.151-1.995,3.726-2.685,5.72-1.533l0,0c1.994,1.152,2.685,3.726,1.534,5.72l-9.296,16.101
		C281.053,121.22,278.479,121.91,276.484,120.757z"/>
	<path fill="#FBC900" d="M774.083,210.667L774.083,210.667c-1.996-1.151-2.686-3.725-1.534-5.72l9.297-16.101
		c1.151-1.994,3.726-2.684,5.719-1.533l0,0c1.994,1.153,2.684,3.727,1.533,5.72l-9.297,16.102
		C778.65,211.13,776.076,211.819,774.083,210.667z"/>
	<path fill="#FBC900" d="M161.518,696.955L161.518,696.955c-1.152,1.992-3.726,2.684-5.721,1.529l-16.101-9.293
		c-1.995-1.154-2.684-3.727-1.533-5.722l0,0c1.152-1.991,3.725-2.683,5.719-1.534l16.101,9.3
		C161.979,692.384,162.668,694.96,161.518,696.955z"/>
	<path fill="#00C1EB" d="M163.187,532.885L163.187,532.885c-0.329,2.282-2.461,3.877-4.741,3.549l-18.403-2.645
		c-2.28-0.328-3.876-2.462-3.549-4.74l0,0c0.328-2.281,2.462-3.875,4.74-3.549l18.403,2.646
		C161.917,528.473,163.514,530.607,163.187,532.885z"/>
	<path fill="#00C1EB" d="M666.217,341.717L666.217,341.717c-0.328,2.279-2.463,3.877-4.742,3.549l-18.401-2.645
		c-2.278-0.327-3.877-2.46-3.548-4.741l0,0c0.326-2.279,2.459-3.876,4.738-3.549l18.403,2.646
		C664.947,337.305,666.544,339.437,666.217,341.717z"/>
	<path fill="#00C1EB" d="M675.131,215.425L675.131,215.425c-0.329,2.279-2.462,3.875-4.742,3.549l-18.402-2.646
		c-2.279-0.328-3.877-2.46-3.547-4.741l0,0c0.326-2.279,2.459-3.876,4.739-3.547l18.403,2.644
		C673.861,211.013,675.458,213.146,675.131,215.425z"/>
	<path fill="#00C1EB" d="M683.256,68.256L683.256,68.256c-0.327,2.28-2.461,3.876-4.741,3.549l-18.401-2.646
		c-2.279-0.328-3.879-2.46-3.549-4.74l0,0c0.327-2.279,2.459-3.876,4.739-3.549l18.403,2.645
		C681.985,63.843,683.583,65.977,683.256,68.256z"/>
	<path fill="#00C1EB" d="M207.687,352.634L207.687,352.634c-1.938,1.243-4.542,0.674-5.785-1.265l-10.037-15.649
		c-1.243-1.939-0.673-4.542,1.265-5.785l0,0c1.939-1.245,4.542-0.676,5.785,1.263l10.037,15.652
		C210.194,348.788,209.626,351.39,207.687,352.634z"/>
	<path fill="#00C1EB" d="M710.04,567.192L710.04,567.192c-1.938,1.243-4.543,0.675-5.786-1.264l-10.037-15.649
		c-1.244-1.938-0.674-4.543,1.266-5.785l0,0c1.938-1.243,4.54-0.675,5.783,1.264l10.037,15.652
		C712.547,563.349,711.978,565.949,710.04,567.192z"/>
	<path fill="#00C1EB" d="M588.714,645L588.714,645c-1.938,1.243-4.542,0.675-5.786-1.264l-10.034-15.652
		c-1.245-1.938-0.675-4.54,1.263-5.782l0,0c1.938-1.243,4.541-0.676,5.785,1.263l10.036,15.648
		C591.221,641.151,590.652,643.756,588.714,645z"/>
	<path fill="#FBC900" d="M300.069,542.4L300.069,542.4c1.483,1.762,1.253,4.416-0.508,5.896l-14.228,11.969
		c-1.762,1.484-4.417,1.255-5.899-0.508l0,0c-1.482-1.762-1.253-4.416,0.509-5.899l14.227-11.969
		C295.932,540.409,298.587,540.638,300.069,542.4z"/>
	<path fill="#FBC900" d="M724.373,681.531L724.373,681.531c1.482,1.763,1.254,4.421-0.51,5.9L709.638,699.4
		c-1.761,1.484-4.417,1.256-5.899-0.507l0,0c-1.482-1.763-1.254-4.42,0.509-5.9l14.228-11.969
		C720.237,679.54,722.892,679.77,724.373,681.531z"/>
	<path fill="#FBC900" d="M46.743,394.561L46.743,394.561c-2.225-1.961-2.441-5.386-0.48-7.612l15.837-17.967
		c1.962-2.226,5.387-2.442,7.612-0.479l0,0c2.227,1.961,2.442,5.387,0.48,7.612l-15.837,17.968
		C52.395,396.307,48.969,396.523,46.743,394.561z"/>
	<path fill="#FBC900" d="M591.604,486.793L591.604,486.793c-2.225-1.963-2.441-5.391-0.479-7.613l15.837-17.969
		c1.96-2.227,5.386-2.44,7.61-0.479l0,0c2.228,1.96,2.441,5.387,0.481,7.611l-15.837,17.967
		C597.256,488.539,593.829,488.753,591.604,486.793z"/>
	<path fill="#FBC900" d="M769.337,449.242L769.337,449.242c-2.225-1.962-2.44-5.388-0.479-7.613l15.837-17.968
		c1.962-2.225,5.389-2.441,7.613-0.479l0,0c2.226,1.961,2.442,5.386,0.479,7.613l-15.838,17.968
		C774.99,450.988,771.563,451.206,769.337,449.242z"/>
</g>
</svg>
