<?xml version="1.0" encoding="UTF-8"?>
<!DOCTYPE svg PUBLIC "-//W3C//DTD SVG 1.1//EN" "http://www.w3.org/Graphics/SVG/1.1/DTD/svg11.dtd">
<!-- Creator: CorelDRAW 2019 (64-Bit) -->
<svg xmlns="http://www.w3.org/2000/svg" xml:space="preserve" width="159.173mm" height="69.6078mm" version="1.1" style="shape-rendering:geometricPrecision; text-rendering:geometricPrecision; image-rendering:optimizeQuality; fill-rule:evenodd; clip-rule:evenodd"
viewBox="0 0 15917.32 6960.78"
 xmlns:xlink="http://www.w3.org/1999/xlink">
 <defs>
  <font id="FontID0" horiz-adv-x="667" font-variant="normal" style="fill-rule:nonzero" font-weight="400">
	<font-face 
		font-family="Arial Unicode MS">
		<font-face-src>
			<font-face-name name="Arial Unicode MS"/>
		</font-face-src>
	</font-face>
   <missing-glyph><path d="M0 0z"/></missing-glyph>
   <glyph unicode="A" horiz-adv-x="667" d="M668.002 0l-107.002 0 -83.9988 217.832 -298.834 0 -79.0007 -217.832 -100.167 0 275 715.831 101.999 0 292.004 -715.831zm-219.669 293c-58.6658,155 -91.665,242.832 -99.1667,263.834 -7.50169,20.9974 -15.8349,49.1676 -24.9995,84.3323l-2.33457 0c-9.16467,-48.1671 -21.3309,-92.8346 -36.6678,-133.833l-80.1657 -214.333 243.334 0z"/>
   <glyph unicode="E" horiz-adv-x="667" d="M613.832 0l-534.667 0 0 715.831 518 0 0 -84.9994 -423.334 0 0 -218.664 396 0 0 -84.9994 -396 0 0 -242.169 440 0 0 -84.9994z"/>
   <glyph unicode="G" horiz-adv-x="777" d="M713.835 100.167c-90.1665,-74.9986 -188.835,-112.333 -295.832,-112.333 -109.67,0 -198.169,33.3327 -265.337,100.332 -67.3325,66.8345 -100.834,155.836 -100.834,266.835 0,67.666 13.6693,130.832 41.1679,189.164 27.5032,58.5013 67.9995,103.667 121.667,135.835 53.4987,31.9987 118.999,48.0026 196.501,48.0026 80.3302,0 144.835,-17.6669 193.5,-53.0007 48.665,-35.3338 81.4998,-88.17 98.4997,-158.833l-84.9994 -24.0036c-13.3358,51.5022 -37.3348,90.1665 -71.8326,116.002 -34.5023,25.831 -79.5033,38.8334 -135.167,38.8334 -86.3334,0 -151.336,-26.3336 -195.336,-79.1652 -43.9959,-52.6672 -65.9984,-121.667 -65.9984,-207 0,-63.8329 10.6678,-116.834 31.9987,-159.166 21.3355,-42.3329 53.0007,-74.3362 94.8356,-96.0006 41.8349,-21.669 87.3339,-32.3368 136.502,-32.3368 74.8296,0 144.497,24.5016 208.832,73.6692l0 132.833 -210.833 0 0 85.3329 302.667 0 0 -264.999z"/>
   <glyph unicode="I" horiz-adv-x="277" d="M186.999 0l-95.1646 0 0 715.831 95.1646 0 0 -715.831z"/>
   <glyph unicode="L" horiz-adv-x="556" d="M522.998 0l-447.831 0 0 715.831 94.8311 0 0 -630.832 353 0 0 -84.9994z"/>
   <glyph unicode="N" horiz-adv-x="722" d="M642.167 0l-97.1656 0 -374.166 562.001 -1.83659 0 0 -562.001 -89.833 0 0 715.831 96.6676 0 374.002 -561.996 1.99649 0 0 561.996 90.3355 0 0 -715.831z"/>
   <glyph unicode="P" horiz-adv-x="667" d="M77.1687 715.831l269.997 0c42.6664,0 79.3343,-2.16553 110.168,-6.33212 30.6646,-4.33106 59.3328,-15.1679 85.6664,-32.9992 26.3336,-17.6669 46.335,-41.8349 59.8353,-72.1661 13.5003,-30.5002 20.1659,-62.3344 20.1659,-95.5026 0,-66.1629 -21.1665,-119.164 -63.6684,-158.997 -42.4974,-39.8339 -110.666,-59.8353 -204.332,-59.8353l-183.166 0 0 -289.998 -94.6666 0 0 715.831zm94.6666 -340.829l184.166 0c112.667,0 168.834,43.6624 168.834,130.832 0,28.6636 -7.33722,54.0012 -21.8335,75.9992 -14.6699,21.998 -32.6703,35.6673 -54.0012,40.9989 -21.3355,5.33616 -53.0007,7.99967 -95.0001,7.99967l-182.165 0 0 -255.83z"/>
   <glyph unicode="R" horiz-adv-x="722" d="M711.002 0l-119.168 0c-71.3346,112.667 -115.669,181.831 -132.833,207.498 -17.3334,25.6666 -35.3338,47.8336 -54.4992,66.1675 -19.0009,18.3339 -36.8369,30.0022 -53.6677,35.0003 -16.8354,4.83361 -39.0024,7.33265 -66.6654,7.33265l-109.336 0 0 -315.998 -94.8311 0 0 715.831 316.999 0c43.3335,0 79.4987,-2.83255 108.834,-8.33318 29.3306,-5.49606 54.9972,-17.1643 77.1642,-34.8312 22.167,-17.8314 39.1669,-40.1674 50.9996,-67.168 12.0018,-27.0006 17.8359,-55.4997 17.8359,-85.4973 0,-54.0012 -16.9999,-97.5037 -51.1687,-130.334 -34.3333,-32.8347 -83.9988,-53.6677 -149.499,-62.4989l0 -2.00106c47.8336,-21.1665 92.8346,-64.669 134.834,-130.334l125.002 -194.834zm-536.17 400.833l203.167 0c40.9989,0 73.5001,3.49957 97.3347,10.4987 23.999,6.99914 42.9999,20.6685 57.3317,40.8344 14.3364,20.1659 21.5,42.8355 21.5,67.835 0,32.4967 -11.8328,60.1643 -35.6673,82.9983 -23.6655,22.834 -62.9968,34.1688 -117.665,34.1688l-226.001 0 0 -236.335z"/>
  </font>
  <style type="text/css">
   <![CDATA[
    @font-face { font-family:"Arial Unicode MS";font-variant:normal;font-weight:normal;src:url("#FontID0") format(svg)}
    .fil9 {fill:#2B2A29}
    .fil5 {fill:#2DB4F8}
    .fil4 {fill:#52A9DE}
    .fil2 {fill:#9BE164}
    .fil0 {fill:#9D9E9E}
    .fil1 {fill:#AFCF8E}
    .fil7 {fill:#DD6169}
    .fil8 {fill:#E31E24}
    .fil3 {fill:#E7CA8E}
    .fil6 {fill:#FFBE40}
    .fnt0 {font-weight:normal;font-size:2188.84px;font-family:'Arial Unicode MS'}
   ]]>
  </style>
 </defs>
 <g id="Layer_x0020_1">
  <metadata id="CorelCorpID_0Corel-Layer"/>
  <g id="_1481760545312">
   <g>
    <rect class="fil0" transform="matrix(2.526 -2.37252 2.37252 2.526 1128.27 1203.36)" width="43" height="334.04"/>
    <rect class="fil0" transform="matrix(-0.634587 -3.40688 3.40688 -0.634587 3015.57 2157.11)" width="43" height="334.04"/>
    <rect class="fil0" transform="matrix(-3.13991 -1.46646 1.46646 -3.13991 1621.99 3835.06)" width="43" height="334.04"/>
    <circle class="fil1" cx="716.34" cy="767.01" r="699.65"/>
    <ellipse class="fil2" cx="716.34" cy="767.01" rx="585.94" ry="585.95"/>
    <circle class="fil3" cx="4224.32" cy="1796.51" r="411.49"/>
    <ellipse class="fil4" cx="2327.54" cy="2329.88" rx="891.89" ry="891.9"/>
    <circle class="fil5" cx="2327.54" cy="2329.88" r="746.95"/>
    <ellipse class="fil6" cx="4224.32" cy="1796.51" rx="344.61" ry="344.62"/>
    <circle class="fil7" cx="1356.4" cy="4036.63" r="572.11"/>
    <circle class="fil8" cx="1356.4" cy="4036.63" r="479.14"/>
   </g>
   <text x="-164.5" y="6942.04"  class="fil9 fnt0">LEARNING APP</text>
   <g>
    <path class="fil8" d="M6539.55 29.38c809.08,0 1464.91,1040.65 1464.91,2324.32 0,1283.68 -655.83,2324.33 -1464.91,2324.33 -809.02,0 -1464.87,-1040.65 -1464.87,-2324.33 0,-1283.67 655.85,-2324.32 1464.87,-2324.32zm0 1205.24c279.17,0 505.41,501.05 505.41,1119.08 0,618.04 -226.24,1119.09 -505.41,1119.09 -279.17,0 -505.41,-501.05 -505.41,-1119.09 0,-618.03 226.24,-1119.08 505.41,-1119.08z"/>
    <path class="fil8" d="M8502.37 610.27c-94.96,1540.75 -224.71,2258.3 48.85,3808.74 1742.79,494.07 3437.02,-1900.17 2685.68,-3642.72 -456.56,-948.77 -2229.29,-1036.17 -2734.53,-166.02zm931.46 850.13c-32.89,726.06 -77.9,1064.16 17.01,1794.7 604.45,232.75 1192.01,-895.31 931.46,-1716.44 -158.34,-447.01 -773.19,-488.23 -948.47,-78.26z"/>
    <path class="fil8" d="M13836.85 4513.25c122.3,-118.71 788.89,-835.01 957.2,-2491.81 0,0 156.27,2050.47 507.83,2519.62 0,0 468.75,576.28 615.27,-1162.13 0,0 29.28,-3037.26 -751.97,-3300.95 0,0 -800.88,-419.96 -1328.21,1923.91l-0.12 -0.42 0 2511.78zm-0.06 0c-122.3,-118.71 -788.89,-835.01 -957.2,-2491.81 0,0 -156.27,2050.47 -507.83,2519.62 0,0 -468.75,576.28 -615.26,-1162.13 0,0 -29.29,-3037.26 751.98,-3300.95 0,0 800.88,-419.96 1328.2,1923.91l0.11 -0.42 0 2511.78z"/>
   </g>
  </g>
 </g>
</svg>
